Source;Received;Operating_Mode;Misison_Clock;BATT_TBAT1_TM;BATT_TBAT2_TM;BATT_TBAT3_TM;RESERVED;BATT_VBAT_TM;PSU_T_TM;P3V3_TM;P5V_TM;P15V_TM;N15V_TM;PSU_IP5V_TM;PSU_IP15V_TM;PSU_IN15V_TM;PSU_IP3V3_TM;PDU_IVBUS_TM;PV_TPSXP_TM;PV_TPSXN_TM;PV_TPSYP_TM;PV_TPSYN_TM;PV_TPSZP_TM;PV_ISPXP_TM;PV_ISPXN_TM;PV_ISPYP_TM;PV_ISPYN_TM;PV_ISPZP_TM;OBC_T_TM;MGM1_T_TM;MGM2_T_TM;MGM3_T_TM;MGM1_X_TM;MGM1_Y_TM;MGM1_Z_TM;MGM2_X_TM;MGM2_Y_TM;MGM2_Z_TM;MGM3_X_TM;MGM3_Y_TM;MGM3_Z_TM;MGT_TX_TM;MODEM_T_TR_TM;EBOX_T_INT_TM;EBOX_T_EXT_TM;BATT_T_EXT_TM;BATT_T_INT_TM;SS6_XP_TM;SS6_XN_TM;SS6_YP_TM;SS6_YN_TM;SS6_ZP_TM;SS6_ZN_TM;RW1_T_TM;RW2_T_TM;TP1_TM;TP2_TM;TP3_TM;TP4_TM;TP5_TM;TP6_TM;Battery_Warning;DAS_P3V;DAS_P5V;DAS_P15V;DAS_N15V;PDU_P3V3;PDU_P5V;MGM1_P5V;MGM2_P5V;MGM3_P15V;MGM3_N15V;MGT_X_VBUS;TEMP_A_P5V;TEMP_B_P5V;MODEM_VBUS;RW_P5V;RW_VBUS;MTS_VBUS;BOOM1_VBUS;BOOM2_VBUS;TTC_STAT;SMA_SB01;SMA_SB02;
SATNOGS;2023-05-01 13:10:58;SAFE; 342719532; 1634; 1594; 1616; 8; 2454; 1772; 730; 1090; 3232; 2092; 463; 489; 1206; 686; 1744; 1650; 1689; 1705; 1667; 1687; 1744; 1622; 1871; 1704; 1563; 1541; 2155; 2207; 1674; 1488; 2266; 1006; 1779; 1346; 1012; 1486; 1300; 1084; 1661; 1701; 1657; 1674; 1672; 1663; 77; 946; 86; 16; 916; 60; 1662; 1661; 1621; 1525; 1619; 1657; 1605; 1359;BATT_WBH;TRUE;TRUE;TRUE;TRUE;TRUE;TRUE;TRUE;TRUE;TRUE;TRUE;TRUE;TRUE;TRUE;TRUE;FALSE;TRUE;FALSE;FALSE;FALSE;FALSE;TRUE;TRUE;
SATNOGS;2023-05-01 00:07:58;SAFE; 342527405; 1622; 1603; 1609; 8; 2306; 1778; 731; 1091; 3228; 2095; 557; 471; 1210; 691; 1736; 1602; 1638; 1613; 1605; 1606; 1734; 1622; 1837; 1708; 1563; 1555; 2210; 2255; 1683; 2020; 1650; 1078; 1228; 1884; 994; 2046; 1820; 1090; 1656; 1715; 1664; 1682; 1666; 1660; 5; 5; 4; 5; 5; 5; 1674; 1680; 1634; 1521; 1631; 1641; 1613; 1313;NONE;TRUE;TRUE;TRUE;TRUE;TRUE;TRUE;TRUE;TRUE;TRUE;TRUE;TRUE;TRUE;TRUE;TRUE;FALSE;TRUE;FALSE;FALSE;FALSE;FALSE;TRUE;TRUE;
SATNOGS;2023-05-01 00:07:38;SAFE; 342527160; 1621; 1600; 1607; 8; 2305; 1781; 730; 1090; 3228; 2097; 672; 490; 1231; 708; 1736; 1604; 1639; 1614; 1606; 1609; 1738; 1626; 1837; 1703; 1562; 1556; 2213; 2260; 1684; 1579; 2396; 1109; 1698; 1206; 1102; 1572; 1156; 1178; 1656; 1715; 1665; 1685; 1668; 1660; 5; 5; 5; 4; 6; 5; 1675; 1680; 1635; 1522; 1631; 1643; 1614; 1314;NONE;TRUE;TRUE;TRUE;TRUE;TRUE;TRUE;TRUE;TRUE;TRUE;TRUE;TRUE;TRUE;TRUE;TRUE;FALSE;TRUE;FALSE;FALSE;FALSE;FALSE;TRUE;TRUE;
SATNOGS;2023-05-01 00:06:58;SAFE; 342527160; 1621; 1600; 1607; 8; 2305; 1781; 730; 1090; 3228; 2097; 672; 490; 1231; 708; 1736; 1604; 1639; 1614; 1606; 1609; 1738; 1626; 1837; 1703; 1562; 1556; 2213; 2260; 1684; 1579; 2396; 1109; 1698; 1206; 1102; 1572; 1156; 1178; 1656; 1715; 1665; 1685; 1668; 1660; 5; 5; 5; 4; 6; 5; 1675; 1680; 1635; 1522; 1631; 1643; 1614; 1314;NONE;TRUE;TRUE;TRUE;TRUE;TRUE;TRUE;TRUE;TRUE;TRUE;TRUE;TRUE;TRUE;TRUE;TRUE;FALSE;TRUE;FALSE;FALSE;FALSE;FALSE;TRUE;TRUE;
SATNOGS;2023-04-29 22:55:39;SAFE; 342156397; 1640; 1621; 1628; 8; 2378; 1778; 729; 1090; 3231; 2095; 798; 505; 1212; 709; 1739; 1601; 1638; 1614; 1604; 1604; 1132; 1140; 1164; 1136; 1124; 1552; 2192; 2235; 1679; 2302; 1650; 1249; 963; 1840; 1131; 2362; 1785; 1234; 1651; 1713; 1660; 1679; 1662; 1656; 5; 5; 1275; 5; 168; 5; 1669; 1674; 1629; 1516; 1626; 1634; 1609; 1308;BATT_WBH;TRUE;TRUE;TRUE;TRUE;TRUE;TRUE;TRUE;TRUE;TRUE;TRUE;TRUE;TRUE;TRUE;TRUE;FALSE;TRUE;FALSE;FALSE;FALSE;FALSE;TRUE;TRUE;
SATNOGS;2023-04-29 12:14:31;SAFE; 341998858; 1664; 1644; 1652; 8; 2569; 1765; 730; 1091; 3234; 2093; 662; 486; 1232; 538; 1750; 1639; 1675; 1689; 1656; 1669; 1762; 1628; 1880; 1726; 1556; 1540; 2130; 2174; 1668; 1739; 1976; 2322; 1561; 1289; 2355; 1746; 1285; 2344; 1654; 1701; 1652; 1668; 1664; 1657; 37; 108; 982; 174; 85; 1021; 1654; 1655; 1618; 1515; 1616; 1640; 1601; 1350;BATT_WBH;TRUE;TRUE;TRUE;TRUE;TRUE;TRUE;TRUE;TRUE;TRUE;TRUE;TRUE;TRUE;TRUE;TRUE;FALSE;TRUE;FALSE;FALSE;FALSE;FALSE;TRUE;TRUE;
SATNOGS;2023-04-29 12:14:31;SAFE; 341998858; 1664; 1644; 1652; 8; 2569; 1765; 730; 1091; 3234; 2093; 662; 486; 1232; 538; 1750; 1639; 1675; 1689; 1656; 1669; 1762; 1628; 1880; 1726; 1556; 1540; 2130; 2174; 1668; 1739; 1976; 2322; 1561; 1289; 2355; 1746; 1285; 2344; 1654; 1701; 1652; 1668; 1664; 1657; 37; 108; 982; 174; 85; 1021; 1654; 1655; 1618; 1515; 1616; 1640; 1601; 1350;BATT_WBH;TRUE;TRUE;TRUE;TRUE;TRUE;TRUE;TRUE;TRUE;TRUE;TRUE;TRUE;TRUE;TRUE;TRUE;FALSE;TRUE;FALSE;FALSE;FALSE;FALSE;TRUE;TRUE;
SATNOGS;2023-04-29 12:13:51;SAFE; 341998613; 1663; 1642; 1650; 8; 2574; 1771; 730; 1091; 3237; 2093; 717; 476; 1219; 698; 1751; 1636; 1672; 1687; 1654; 1667; 1258; 1206; 1527; 1176; 1278; 1541; 2128; 2173; 1668; 1802; 2267; 929; 1459; 1302; 871; 1810; 1257; 1006; 1652; 1700; 1650; 1668; 1664; 1657; 188; 43; 219; 5; 1241; 129; 1652; 1655; 1619; 1513; 1617; 1638; 1601; 1347;BATT_WBH;TRUE;TRUE;TRUE;TRUE;TRUE;TRUE;TRUE;TRUE;TRUE;TRUE;TRUE;TRUE;TRUE;TRUE;FALSE;TRUE;FALSE;FALSE;FALSE;FALSE;TRUE;TRUE;
SATNOGS;2023-04-29 12:13:51;SAFE; 341998613; 1663; 1642; 1650; 8; 2574; 1771; 730; 1091; 3237; 2093; 717; 476; 1219; 698; 1751; 1636; 1672; 1687; 1654; 1667; 1258; 1206; 1527; 1176; 1278; 1541; 2128; 2173; 1668; 1802; 2267; 929; 1459; 1302; 871; 1810; 1257; 1006; 1652; 1700; 1650; 1668; 1664; 1657; 188; 43; 219; 5; 1241; 129; 1652; 1655; 1619; 1513; 1617; 1638; 1601; 1347;BATT_WBH;TRUE;TRUE;TRUE;TRUE;TRUE;TRUE;TRUE;TRUE;TRUE;TRUE;TRUE;TRUE;TRUE;TRUE;FALSE;TRUE;FALSE;FALSE;FALSE;FALSE;TRUE;TRUE;
SATNOGS;2023-04-29 12:13:31;SAFE; 341998613; 1663; 1642; 1650; 8; 2574; 1771; 730; 1091; 3237; 2093; 717; 476; 1219; 698; 1751; 1636; 1672; 1687; 1654; 1667; 1258; 1206; 1527; 1176; 1278; 1541; 2128; 2173; 1668; 1802; 2267; 929; 1459; 1302; 871; 1810; 1257; 1006; 1652; 1700; 1650; 1668; 1664; 1657; 188; 43; 219; 5; 1241; 129; 1652; 1655; 1619; 1513; 1617; 1638; 1601; 1347;BATT_WBH;TRUE;TRUE;TRUE;TRUE;TRUE;TRUE;TRUE;TRUE;TRUE;TRUE;TRUE;TRUE;TRUE;TRUE;FALSE;TRUE;FALSE;FALSE;FALSE;FALSE;TRUE;TRUE;
SATNOGS;2023-04-29 12:13:31;SAFE; 341998613; 1663; 1642; 1650; 8; 2574; 1771; 730; 1091; 3237; 2093; 717; 476; 1219; 698; 1751; 1636; 1672; 1687; 1654; 1667; 1258; 1206; 1527; 1176; 1278; 1541; 2128; 2173; 1668; 1802; 2267; 929; 1459; 1302; 871; 1810; 1257; 1006; 1652; 1700; 1650; 1668; 1664; 1657; 188; 43; 219; 5; 1241; 129; 1652; 1655; 1619; 1513; 1617; 1638; 1601; 1347;BATT_WBH;TRUE;TRUE;TRUE;TRUE;TRUE;TRUE;TRUE;TRUE;TRUE;TRUE;TRUE;TRUE;TRUE;TRUE;FALSE;TRUE;FALSE;FALSE;FALSE;FALSE;TRUE;TRUE;
SATNOGS;2023-04-28 23:17:31;SAFE; 341808199; 1641; 1620; 1627; 8; 2377; 1778; 730; 1090; 3231; 2096; 667; 495; 1248; 645; 1740; 1601; 1639; 1618; 1604; 1604; 1132; 1134; 1164; 1144; 1114; 1552; 2189; 2231; 1678; 1784; 2584; 1542; 1514; 895; 1530; 1783; 871; 1614; 1650; 1711; 1660; 1679; 1662; 1655; 6; 796; 5; 5; 5; 1317; 1667; 1674; 1628; 1512; 1626; 1632; 1609; 1304;BATT_WBH;TRUE;TRUE;TRUE;TRUE;TRUE;TRUE;TRUE;TRUE;TRUE;TRUE;TRUE;TRUE;TRUE;TRUE;FALSE;TRUE;FALSE;FALSE;FALSE;FALSE;TRUE;TRUE;
SATNOGS;2023-04-28 23:17:31;SAFE; 341808199; 1641; 1620; 1627; 8; 2377; 1778; 730; 1090; 3231; 2096; 667; 495; 1248; 645; 1740; 1601; 1639; 1618; 1604; 1604; 1132; 1134; 1164; 1144; 1114; 1552; 2189; 2231; 1678; 1784; 2584; 1542; 1514; 895; 1530; 1783; 871; 1614; 1650; 1711; 1660; 1679; 1662; 1655; 6; 796; 5; 5; 5; 1317; 1667; 1674; 1628; 1512; 1626; 1632; 1609; 1304;BATT_WBH;TRUE;TRUE;TRUE;TRUE;TRUE;TRUE;TRUE;TRUE;TRUE;TRUE;TRUE;TRUE;TRUE;TRUE;FALSE;TRUE;FALSE;FALSE;FALSE;FALSE;TRUE;TRUE;
SATNOGS;2023-04-28 23:16:51;SAFE; 341807953; 1638; 1620; 1624; 8; 2376; 1776; 730; 1091; 3227; 2096; 788; 480; 1216; 551; 1739; 1599; 1635; 1608; 1601; 1599; 1134; 1137; 1159; 1146; 1112; 1552; 2194; 2237; 1680; 2208; 1748; 1184; 1055; 1775; 1076; 2256; 1715; 1184; 1651; 1712; 1661; 1679; 1662; 1655; 5; 5; 1336; 5; 6; 6; 1669; 1675; 1629; 1514; 1627; 1634; 1608; 1302;BATT_WBH;TRUE;TRUE;TRUE;TRUE;TRUE;TRUE;TRUE;TRUE;TRUE;TRUE;TRUE;TRUE;TRUE;TRUE;FALSE;TRUE;FALSE;FALSE;FALSE;FALSE;TRUE;TRUE;
SATNOGS;2023-04-28 23:16:51;SAFE; 341807953; 1638; 1620; 1624; 8; 2376; 1776; 730; 1091; 3227; 2096; 788; 480; 1216; 551; 1739; 1599; 1635; 1608; 1601; 1599; 1134; 1137; 1159; 1146; 1112; 1552; 2194; 2237; 1680; 2208; 1748; 1184; 1055; 1775; 1076; 2256; 1715; 1184; 1651; 1712; 1661; 1679; 1662; 1655; 5; 5; 1336; 5; 6; 6; 1669; 1675; 1629; 1514; 1627; 1634; 1608; 1302;BATT_WBH;TRUE;TRUE;TRUE;TRUE;TRUE;TRUE;TRUE;TRUE;TRUE;TRUE;TRUE;TRUE;TRUE;TRUE;FALSE;TRUE;FALSE;FALSE;FALSE;FALSE;TRUE;TRUE;
SATNOGS;2023-04-25 22:43:22;SAFE; 340739758; 1647; 1627; 1634; 7; 2469; 1776; 731; 1092; 3233; 2095; 516; 510; 1245; 691; 1746; 1599; 1632; 1605; 1600; 1598; 1139; 1140; 1164; 1146; 1117; 1549; 2184; 2225; 1677; 1893; 2397; 1325; 1390; 1095; 1275; 1904; 1064; 1387; 1648; 1709; 1659; 1676; 1659; 1653; 6; 1088; 5; 449; 5; 179; 1666; 1672; 1625; 1512; 1622; 1632; 1605; 1306;BATT_WBH;TRUE;TRUE;TRUE;TRUE;TRUE;TRUE;TRUE;TRUE;TRUE;TRUE;TRUE;TRUE;TRUE;TRUE;FALSE;TRUE;FALSE;FALSE;FALSE;FALSE;TRUE;TRUE;
SATNOGS;2023-04-25 22:43:09;SAFE; 340739758; 1647; 1627; 1634; 7; 2469; 1776; 731; 1092; 3233; 2095; 516; 510; 1245; 691; 1746; 1599; 1632; 1605; 1600; 1598; 1139; 1140; 1164; 1146; 1117; 1549; 2184; 2225; 1677; 1893; 2397; 1325; 1390; 1095; 1275; 1904; 1064; 1387; 1648; 1709; 1659; 1676; 1659; 1653; 6; 1088; 5; 449; 5; 179; 1666; 1672; 1625; 1512; 1622; 1632; 1605; 1306;BATT_WBH;TRUE;TRUE;TRUE;TRUE;TRUE;TRUE;TRUE;TRUE;TRUE;TRUE;TRUE;TRUE;TRUE;TRUE;FALSE;TRUE;FALSE;FALSE;FALSE;FALSE;TRUE;TRUE;
SATNOGS;2023-04-25 22:43:02;SAFE; 340739758; 1647; 1627; 1634; 7; 2469; 1776; 731; 1092; 3233; 2095; 516; 510; 1245; 691; 1746; 1599; 1632; 1605; 1600; 1598; 1139; 1140; 1164; 1146; 1117; 1549; 2184; 2225; 1677; 1893; 2397; 1325; 1390; 1095; 1275; 1904; 1064; 1387; 1648; 1709; 1659; 1676; 1659; 1653; 6; 1088; 5; 449; 5; 179; 1666; 1672; 1625; 1512; 1622; 1632; 1605; 1306;BATT_WBH;TRUE;TRUE;TRUE;TRUE;TRUE;TRUE;TRUE;TRUE;TRUE;TRUE;TRUE;TRUE;TRUE;TRUE;FALSE;TRUE;FALSE;FALSE;FALSE;FALSE;TRUE;TRUE;
SATNOGS;2023-04-25 22:42:42;SAFE; 340739758; 1647; 1627; 1634; 7; 2469; 1776; 731; 1092; 3233; 2095; 516; 510; 1245; 691; 1746; 1599; 1632; 1605; 1600; 1598; 1139; 1140; 1164; 1146; 1117; 1549; 2184; 2225; 1677; 1893; 2397; 1325; 1390; 1095; 1275; 1904; 1064; 1387; 1648; 1709; 1659; 1676; 1659; 1653; 6; 1088; 5; 449; 5; 179; 1666; 1672; 1625; 1512; 1622; 1632; 1605; 1306;BATT_WBH;TRUE;TRUE;TRUE;TRUE;TRUE;TRUE;TRUE;TRUE;TRUE;TRUE;TRUE;TRUE;TRUE;TRUE;FALSE;TRUE;FALSE;FALSE;FALSE;FALSE;TRUE;TRUE;
SATNOGS;2023-04-25 12:01:34;SAFE; 340582210; 1645; 1622; 1631; 8; 2577; 1775; 730; 1091; 3232; 2091; 661; 492; 1204; 815; 1754; 1640; 1670; 1683; 1656; 1666; 1867; 2845; 1920; 2696; 1668; 1543; 2133; 2176; 1670; 1904; 1458; 2107; 1335; 1844; 2097; 1915; 1786; 2096; 1654; 1703; 1654; 1670; 1664; 1659; 201; 1116; 234; 432; 262; 20; 1654; 1657; 1623; 1518; 1621; 1639; 1605; 1353;NONE;TRUE;TRUE;TRUE;TRUE;TRUE;TRUE;TRUE;TRUE;TRUE;TRUE;TRUE;TRUE;TRUE;TRUE;FALSE;TRUE;FALSE;FALSE;FALSE;FALSE;TRUE;TRUE;
SATNOGS;2023-04-25 12:01:34;SAFE; 340582210; 1645; 1622; 1631; 8; 2577; 1775; 730; 1091; 3232; 2091; 661; 492; 1204; 815; 1754; 1640; 1670; 1683; 1656; 1666; 1867; 2845; 1920; 2696; 1668; 1543; 2133; 2176; 1670; 1904; 1458; 2107; 1335; 1844; 2097; 1915; 1786; 2096; 1654; 1703; 1654; 1670; 1664; 1659; 201; 1116; 234; 432; 262; 20; 1654; 1657; 1623; 1518; 1621; 1639; 1605; 1353;NONE;TRUE;TRUE;TRUE;TRUE;TRUE;TRUE;TRUE;TRUE;TRUE;TRUE;TRUE;TRUE;TRUE;TRUE;FALSE;TRUE;FALSE;FALSE;FALSE;FALSE;TRUE;TRUE;
SATNOGS;2023-04-25 12:01:14;SAFE; 340582210; 1645; 1622; 1631; 8; 2577; 1775; 730; 1091; 3232; 2091; 661; 492; 1204; 815; 1754; 1640; 1670; 1683; 1656; 1666; 1867; 2845; 1920; 2696; 1668; 1543; 2133; 2176; 1670; 1904; 1458; 2107; 1335; 1844; 2097; 1915; 1786; 2096; 1654; 1703; 1654; 1670; 1664; 1659; 201; 1116; 234; 432; 262; 20; 1654; 1657; 1623; 1518; 1621; 1639; 1605; 1353;NONE;TRUE;TRUE;TRUE;TRUE;TRUE;TRUE;TRUE;TRUE;TRUE;TRUE;TRUE;TRUE;TRUE;TRUE;FALSE;TRUE;FALSE;FALSE;FALSE;FALSE;TRUE;TRUE;
SATNOGS;2023-04-25 12:01:14;SAFE; 340582210; 1645; 1622; 1631; 8; 2577; 1775; 730; 1091; 3232; 2091; 661; 492; 1204; 815; 1754; 1640; 1670; 1683; 1656; 1666; 1867; 2845; 1920; 2696; 1668; 1543; 2133; 2176; 1670; 1904; 1458; 2107; 1335; 1844; 2097; 1915; 1786; 2096; 1654; 1703; 1654; 1670; 1664; 1659; 201; 1116; 234; 432; 262; 20; 1654; 1657; 1623; 1518; 1621; 1639; 1605; 1353;NONE;TRUE;TRUE;TRUE;TRUE;TRUE;TRUE;TRUE;TRUE;TRUE;TRUE;TRUE;TRUE;TRUE;TRUE;FALSE;TRUE;FALSE;FALSE;FALSE;FALSE;TRUE;TRUE;
SATNOGS;2023-04-24 23:04:50;SAFE; 340391546; 1645; 1625; 1632; 8; 2462; 1772; 730; 1091; 3231; 2094; 665; 486; 1253; 662; 1745; 1599; 1631; 1607; 1601; 1599; 1139; 1138; 1165; 1146; 1108; 1548; 2178; 2217; 1675; 2018; 2308; 1253; 1270; 1228; 1184; 2041; 1187; 1304; 1647; 1707; 1657; 1674; 1656; 1651; 5; 1047; 5; 404; 6; 305; 1664; 1671; 1624; 1509; 1622; 1629; 1603; 1305;BATT_WBH;TRUE;TRUE;TRUE;TRUE;TRUE;TRUE;TRUE;TRUE;TRUE;TRUE;TRUE;TRUE;TRUE;TRUE;FALSE;TRUE;FALSE;FALSE;FALSE;FALSE;TRUE;TRUE;
SATNOGS;2023-04-24 23:04:35;SAFE; 340391546; 1645; 1625; 1632; 8; 2462; 1772; 730; 1091; 3231; 2094; 665; 486; 1253; 662; 1745; 1599; 1631; 1607; 1601; 1599; 1139; 1138; 1165; 1146; 1108; 1548; 2178; 2217; 1675; 2018; 2308; 1253; 1270; 1228; 1184; 2041; 1187; 1304; 1647; 1707; 1657; 1674; 1656; 1651; 5; 1047; 5; 404; 6; 305; 1664; 1671; 1624; 1509; 1622; 1629; 1603; 1305;BATT_WBH;TRUE;TRUE;TRUE;TRUE;TRUE;TRUE;TRUE;TRUE;TRUE;TRUE;TRUE;TRUE;TRUE;TRUE;FALSE;TRUE;FALSE;FALSE;FALSE;FALSE;TRUE;TRUE;
SATNOGS;2023-04-24 23:04:35;SAFE; 340391546; 1645; 1625; 1632; 8; 2462; 1772; 730; 1091; 3231; 2094; 665; 486; 1253; 662; 1745; 1599; 1631; 1607; 1601; 1599; 1139; 1138; 1165; 1146; 1108; 1548; 2178; 2217; 1675; 2018; 2308; 1253; 1270; 1228; 1184; 2041; 1187; 1304; 1647; 1707; 1657; 1674; 1656; 1651; 5; 1047; 5; 404; 6; 305; 1664; 1671; 1624; 1509; 1622; 1629; 1603; 1305;BATT_WBH;TRUE;TRUE;TRUE;TRUE;TRUE;TRUE;TRUE;TRUE;TRUE;TRUE;TRUE;TRUE;TRUE;TRUE;FALSE;TRUE;FALSE;FALSE;FALSE;FALSE;TRUE;TRUE;
SATNOGS;2023-04-24 23:03:50;SAFE; 340391301; 1643; 1623; 1630; 7; 2463; 1776; 729; 1090; 3232; 2094; 662; 476; 1243; 650; 1747; 1597; 1628; 1597; 1597; 1595; 1143; 1141; 1165; 1144; 1118; 1548; 2182; 2224; 1676; 1909; 2319; 1332; 1375; 1175; 1284; 1920; 1141; 1390; 1646; 1708; 1658; 1676; 1657; 1651; 5; 1117; 5; 552; 6; 24; 1666; 1671; 1624; 1509; 1622; 1631; 1603; 1303;BATT_WBH;TRUE;TRUE;TRUE;TRUE;TRUE;TRUE;TRUE;TRUE;TRUE;TRUE;TRUE;TRUE;TRUE;TRUE;FALSE;TRUE;FALSE;FALSE;FALSE;FALSE;TRUE;TRUE;
SATNOGS;2023-04-24 23:03:34;SAFE; 340391301; 1643; 1623; 1630; 7; 2463; 1776; 729; 1090; 3232; 2094; 662; 476; 1243; 650; 1747; 1597; 1628; 1597; 1597; 1595; 1143; 1141; 1165; 1144; 1118; 1548; 2182; 2224; 1676; 1909; 2319; 1332; 1375; 1175; 1284; 1920; 1141; 1390; 1646; 1708; 1658; 1676; 1657; 1651; 5; 1117; 5; 552; 6; 24; 1666; 1671; 1624; 1509; 1622; 1631; 1603; 1303;BATT_WBH;TRUE;TRUE;TRUE;TRUE;TRUE;TRUE;TRUE;TRUE;TRUE;TRUE;TRUE;TRUE;TRUE;TRUE;FALSE;TRUE;FALSE;FALSE;FALSE;FALSE;TRUE;TRUE;
SATNOGS;2023-04-24 23:03:34;SAFE; 340391301; 1643; 1623; 1630; 7; 2463; 1776; 729; 1090; 3232; 2094; 662; 476; 1243; 650; 1747; 1597; 1628; 1597; 1597; 1595; 1143; 1141; 1165; 1144; 1118; 1548; 2182; 2224; 1676; 1909; 2319; 1332; 1375; 1175; 1284; 1920; 1141; 1390; 1646; 1708; 1658; 1676; 1657; 1651; 5; 1117; 5; 552; 6; 24; 1666; 1671; 1624; 1509; 1622; 1631; 1603; 1303;BATT_WBH;TRUE;TRUE;TRUE;TRUE;TRUE;TRUE;TRUE;TRUE;TRUE;TRUE;TRUE;TRUE;TRUE;TRUE;FALSE;TRUE;FALSE;FALSE;FALSE;FALSE;TRUE;TRUE;
