Source;Received;Operating_Mode;Misison_Clock;BATT_TBAT1_TM;BATT_TBAT2_TM;BATT_TBAT3_TM;RESERVED;BATT_VBAT_TM;PSU_T_TM;P3V3_TM;P5V_TM;P15V_TM;N15V_TM;PSU_IP5V_TM;PSU_IP15V_TM;PSU_IN15V_TM;PSU_IP3V3_TM;PDU_IVBUS_TM;PV_TPSXP_TM;PV_TPSXN_TM;PV_TPSYP_TM;PV_TPSYN_TM;PV_TPSZP_TM;PV_ISPXP_TM;PV_ISPXN_TM;PV_ISPYP_TM;PV_ISPYN_TM;PV_ISPZP_TM;OBC_T_TM;MGM1_T_TM;MGM2_T_TM;MGM3_T_TM;MGM1_X_TM;MGM1_Y_TM;MGM1_Z_TM;MGM2_X_TM;MGM2_Y_TM;MGM2_Z_TM;MGM3_X_TM;MGM3_Y_TM;MGM3_Z_TM;MGT_TX_TM;MODEM_T_TR_TM;EBOX_T_INT_TM;EBOX_T_EXT_TM;BATT_T_EXT_TM;BATT_T_INT_TM;SS6_XP_TM;SS6_XN_TM;SS6_YP_TM;SS6_YN_TM;SS6_ZP_TM;SS6_ZN_TM;RW1_T_TM;RW2_T_TM;TP1_TM;TP2_TM;TP3_TM;TP4_TM;TP5_TM;TP6_TM;Battery_Warning;DAS_P3V;DAS_P5V;DAS_P15V;DAS_N15V;PDU_P3V3;PDU_P5V;MGM1_P5V;MGM2_P5V;MGM3_P15V;MGM3_N15V;MGT_X_VBUS;TEMP_A_P5V;TEMP_B_P5V;MODEM_VBUS;RW_P5V;RW_VBUS;MTS_VBUS;BOOM1_VBUS;BOOM2_VBUS;TTC_STAT;SMA_SB01;SMA_SB02;
SATNOGS;2023-05-15 00:03:09;SAFE; 347472229; 1634; 1620; 1622; 8; 2469; 1783; 730; 1091; 3227; 2096; 460; 465; 1221; 693; 1746; 1591; 1642; 1616; 1596; 1599; 1129; 1133; 1164; 1141; 1110; 1557; 2212; 2265; 1684; 1486; 2052; 2445; 1839; 1198; 2542; 1467; 1163; 2472; 1656; 1716; 1664; 1684; 1668; 1659; 5; 5; 1058; 5; 6; 90; 1675; 1679; 1633; 1509; 1630; 1639; 1611; 1286;BATT_WBH;TRUE;TRUE;TRUE;TRUE;TRUE;TRUE;TRUE;TRUE;TRUE;TRUE;TRUE;TRUE;TRUE;TRUE;FALSE;TRUE;FALSE;FALSE;FALSE;FALSE;TRUE;TRUE;
SATNOGS;2023-05-15 00:02:09;SAFE; 347471984; 1633; 1616; 1620; 8; 2472; 1774; 730; 1090; 3227; 2097; 662; 507; 1229; 880; 1746; 1590; 1644; 1619; 1597; 1602; 1735; 1629; 1834; 1701; 1550; 1557; 2218; 2271; 1685; 1818; 1099; 2539; 1490; 2063; 2598; 1813; 2029; 2511; 1656; 1716; 1665; 1684; 1669; 1660; 5; 5; 5; 5; 4; 6; 1676; 1680; 1633; 1511; 1630; 1641; 1611; 1289;BATT_WBH;TRUE;TRUE;TRUE;TRUE;TRUE;TRUE;TRUE;TRUE;TRUE;TRUE;TRUE;TRUE;TRUE;TRUE;FALSE;TRUE;FALSE;FALSE;FALSE;FALSE;TRUE;TRUE;
SATNOGS;2023-05-15 00:01:29;SAFE; 347471739; 1632; 1615; 1619; 7; 2473; 1773; 730; 1091; 3228; 2097; 667; 480; 1248; 698; 1746; 1592; 1645; 1620; 1598; 1605; 1735; 1621; 1834; 1707; 1562; 1558; 2225; 2278; 1685; 1893; 824; 1640; 1371; 2572; 1638; 1897; 2513; 1622; 1658; 1718; 1666; 1686; 1671; 1661; 5; 5; 4; 5; 5; 5; 1676; 1682; 1634; 1512; 1631; 1643; 1612; 1290;BATT_WBH;TRUE;TRUE;TRUE;TRUE;TRUE;TRUE;TRUE;TRUE;TRUE;TRUE;TRUE;TRUE;TRUE;TRUE;FALSE;TRUE;FALSE;FALSE;FALSE;FALSE;TRUE;TRUE;
SATNOGS;2023-05-15 00:00:49;SAFE; 347471739; 1632; 1615; 1619; 7; 2473; 1773; 730; 1091; 3228; 2097; 667; 480; 1248; 698; 1746; 1592; 1645; 1620; 1598; 1605; 1735; 1621; 1834; 1707; 1562; 1558; 2225; 2278; 1685; 1893; 824; 1640; 1371; 2572; 1638; 1897; 2513; 1622; 1658; 1718; 1666; 1686; 1671; 1661; 5; 5; 4; 5; 5; 5; 1676; 1682; 1634; 1512; 1631; 1643; 1612; 1290;BATT_WBH;TRUE;TRUE;TRUE;TRUE;TRUE;TRUE;TRUE;TRUE;TRUE;TRUE;TRUE;TRUE;TRUE;TRUE;FALSE;TRUE;FALSE;FALSE;FALSE;FALSE;TRUE;TRUE;
SATNOGS;2023-05-14 22:31:21;SAFE; 347449658; 1645; 1630; 1632; 8; 2630; 1782; 730; 1091; 3228; 2096; 666; 493; 1230; 827; 1760; 1589; 1650; 1631; 1593; 1599; 1746; 3129; 1853; 1977; 1720; 1555; 2189; 2233; 1679; 2075; 1867; 667; 1108; 1765; 529; 2116; 1703; 711; 1651; 1715; 1661; 1679; 1665; 1656; 5; 1243; 5; 30; 142; 6; 1667; 1674; 1632; 1501; 1630; 1627; 1611; 1290;BATT_WBH;TRUE;TRUE;TRUE;TRUE;TRUE;TRUE;TRUE;TRUE;TRUE;TRUE;TRUE;TRUE;TRUE;TRUE;FALSE;TRUE;FALSE;FALSE;FALSE;FALSE;TRUE;TRUE;
SATNOGS;2023-05-14 22:31:21;SAFE; 347449658; 1645; 1630; 1632; 8; 2630; 1782; 730; 1091; 3228; 2096; 666; 493; 1230; 827; 1760; 1589; 1650; 1631; 1593; 1599; 1746; 3129; 1853; 1977; 1720; 1555; 2189; 2233; 1679; 2075; 1867; 667; 1108; 1765; 529; 2116; 1703; 711; 1651; 1715; 1661; 1679; 1665; 1656; 5; 1243; 5; 30; 142; 6; 1667; 1674; 1632; 1501; 1630; 1627; 1611; 1290;BATT_WBH;TRUE;TRUE;TRUE;TRUE;TRUE;TRUE;TRUE;TRUE;TRUE;TRUE;TRUE;TRUE;TRUE;TRUE;FALSE;TRUE;FALSE;FALSE;FALSE;FALSE;TRUE;TRUE;
SATNOGS;2023-05-12 23:13:02;SAFE; 346753494; 1662; 1650; 1650; 8; 2622; 1782; 730; 1091; 3228; 2094; 669; 507; 1213; 665; 1757; 1589; 1649; 1630; 1594; 1599; 1742; 1660; 3216; 1716; 1590; 1555; 2183; 2229; 1678; 1615; 2650; 2008; 1687; 686; 2058; 1622; 645; 2051; 1649; 1713; 1659; 1677; 1663; 1655; 6; 5; 1337; 5; 5; 5; 1665; 1672; 1630; 1498; 1628; 1626; 1609; 1285;BATT_WBH;TRUE;TRUE;TRUE;TRUE;TRUE;TRUE;TRUE;TRUE;TRUE;TRUE;TRUE;TRUE;TRUE;TRUE;FALSE;TRUE;FALSE;FALSE;FALSE;FALSE;TRUE;TRUE;
SATNOGS;2023-05-12 23:13:02;SAFE; 346753494; 1662; 1650; 1650; 8; 2622; 1782; 730; 1091; 3228; 2094; 669; 507; 1213; 665; 1757; 1589; 1649; 1630; 1594; 1599; 1742; 1660; 3216; 1716; 1590; 1555; 2183; 2229; 1678; 1615; 2650; 2008; 1687; 686; 2058; 1622; 645; 2051; 1649; 1713; 1659; 1677; 1663; 1655; 6; 5; 1337; 5; 5; 5; 1665; 1672; 1630; 1498; 1628; 1626; 1609; 1285;BATT_WBH;TRUE;TRUE;TRUE;TRUE;TRUE;TRUE;TRUE;TRUE;TRUE;TRUE;TRUE;TRUE;TRUE;TRUE;FALSE;TRUE;FALSE;FALSE;FALSE;FALSE;TRUE;TRUE;
SATNOGS;2023-05-12 23:12:42;SAFE; 346753248; 1661; 1648; 1649; 8; 2630; 1783; 731; 1091; 3229; 2095; 673; 499; 1217; 769; 1758; 1587; 1645; 1623; 1590; 1593; 1743; 2330; 1993; 1714; 2011; 1555; 2188; 2234; 1679; 1705; 2501; 699; 1537; 1184; 625; 1728; 1125; 781; 1650; 1714; 1660; 1678; 1663; 1655; 6; 585; 22; 5; 1073; 5; 1667; 1672; 1631; 1498; 1628; 1627; 1609; 1283;BATT_WBH;TRUE;TRUE;TRUE;TRUE;TRUE;TRUE;TRUE;TRUE;TRUE;TRUE;TRUE;TRUE;TRUE;TRUE;FALSE;TRUE;FALSE;FALSE;FALSE;FALSE;TRUE;TRUE;
SATNOGS;2023-05-12 23:12:42;SAFE; 346753248; 1661; 1648; 1649; 8; 2630; 1783; 731; 1091; 3229; 2095; 673; 499; 1217; 769; 1758; 1587; 1645; 1623; 1590; 1593; 1743; 2330; 1993; 1714; 2011; 1555; 2188; 2234; 1679; 1705; 2501; 699; 1537; 1184; 625; 1728; 1125; 781; 1650; 1714; 1660; 1678; 1663; 1655; 6; 585; 22; 5; 1073; 5; 1667; 1672; 1631; 1498; 1628; 1627; 1609; 1283;BATT_WBH;TRUE;TRUE;TRUE;TRUE;TRUE;TRUE;TRUE;TRUE;TRUE;TRUE;TRUE;TRUE;TRUE;TRUE;FALSE;TRUE;FALSE;FALSE;FALSE;FALSE;TRUE;TRUE;
SATNOGS;2023-05-12 23:12:22;SAFE; 346753248; 1661; 1648; 1649; 8; 2630; 1783; 731; 1091; 3229; 2095; 673; 499; 1217; 769; 1758; 1587; 1645; 1623; 1590; 1593; 1743; 2330; 1993; 1714; 2011; 1555; 2188; 2234; 1679; 1705; 2501; 699; 1537; 1184; 625; 1728; 1125; 781; 1650; 1714; 1660; 1678; 1663; 1655; 6; 585; 22; 5; 1073; 5; 1667; 1672; 1631; 1498; 1628; 1627; 1609; 1283;BATT_WBH;TRUE;TRUE;TRUE;TRUE;TRUE;TRUE;TRUE;TRUE;TRUE;TRUE;TRUE;TRUE;TRUE;TRUE;FALSE;TRUE;FALSE;FALSE;FALSE;FALSE;TRUE;TRUE;
SATNOGS;2023-05-12 23:12:22;SAFE; 346753248; 1661; 1648; 1649; 8; 2630; 1783; 731; 1091; 3229; 2095; 673; 499; 1217; 769; 1758; 1587; 1645; 1623; 1590; 1593; 1743; 2330; 1993; 1714; 2011; 1555; 2188; 2234; 1679; 1705; 2501; 699; 1537; 1184; 625; 1728; 1125; 781; 1650; 1714; 1660; 1678; 1663; 1655; 6; 585; 22; 5; 1073; 5; 1667; 1672; 1631; 1498; 1628; 1627; 1609; 1283;BATT_WBH;TRUE;TRUE;TRUE;TRUE;TRUE;TRUE;TRUE;TRUE;TRUE;TRUE;TRUE;TRUE;TRUE;TRUE;FALSE;TRUE;FALSE;FALSE;FALSE;FALSE;TRUE;TRUE;
SATNOGS;2023-05-12 23:12:12;SAFE; 346753248; 1661; 1648; 1649; 8; 2630; 1783; 731; 1091; 3229; 2095; 673; 499; 1217; 769; 1758; 1587; 1645; 1623; 1590; 1593; 1743; 2330; 1993; 1714; 2011; 1555; 2188; 2234; 1679; 1705; 2501; 699; 1537; 1184; 625; 1728; 1125; 781; 1650; 1714; 1660; 1678; 1663; 1655; 6; 585; 22; 5; 1073; 5; 1667; 1672; 1631; 1498; 1628; 1627; 1609; 1283;BATT_WBH;TRUE;TRUE;TRUE;TRUE;TRUE;TRUE;TRUE;TRUE;TRUE;TRUE;TRUE;TRUE;TRUE;TRUE;FALSE;TRUE;FALSE;FALSE;FALSE;FALSE;TRUE;TRUE;
SATNOGS;2023-05-12 23:12:03;SAFE; 346753248; 1661; 1648; 1649; 8; 2630; 1783; 731; 1091; 3229; 2095; 673; 499; 1217; 769; 1758; 1587; 1645; 1623; 1590; 1593; 1743; 2330; 1993; 1714; 2011; 1555; 2188; 2234; 1679; 1705; 2501; 699; 1537; 1184; 625; 1728; 1125; 781; 1650; 1714; 1660; 1678; 1663; 1655; 6; 585; 22; 5; 1073; 5; 1667; 1672; 1631; 1498; 1628; 1627; 1609; 1283;BATT_WBH;TRUE;TRUE;TRUE;TRUE;TRUE;TRUE;TRUE;TRUE;TRUE;TRUE;TRUE;TRUE;TRUE;TRUE;FALSE;TRUE;FALSE;FALSE;FALSE;FALSE;TRUE;TRUE;
SATNOGS;2023-05-12 23:12:03;SAFE; 346753248; 1661; 1648; 1649; 8; 2630; 1783; 731; 1091; 3229; 2095; 673; 499; 1217; 769; 1758; 1587; 1645; 1623; 1590; 1593; 1743; 2330; 1993; 1714; 2011; 1555; 2188; 2234; 1679; 1705; 2501; 699; 1537; 1184; 625; 1728; 1125; 781; 1650; 1714; 1660; 1678; 1663; 1655; 6; 585; 22; 5; 1073; 5; 1667; 1672; 1631; 1498; 1628; 1627; 1609; 1283;BATT_WBH;TRUE;TRUE;TRUE;TRUE;TRUE;TRUE;TRUE;TRUE;TRUE;TRUE;TRUE;TRUE;TRUE;TRUE;FALSE;TRUE;FALSE;FALSE;FALSE;FALSE;TRUE;TRUE;
SATNOGS;2023-05-12 23:11:42;SAFE; 346753003; 1660; 1645; 1647; 8; 2632; 1780; 730; 1091; 3228; 2095; 662; 515; 1241; 522; 1759; 1584; 1640; 1613; 1589; 1589; 1750; 3205; 1853; 2146; 1549; 1556; 2193; 2238; 1679; 2234; 1176; 1253; 945; 2317; 1154; 2271; 2236; 1242; 1651; 1714; 1661; 1680; 1664; 1655; 6; 1285; 5; 5; 5; 38; 1669; 1674; 1633; 1500; 1628; 1628; 1610; 1280;BATT_WBH;TRUE;TRUE;TRUE;TRUE;TRUE;TRUE;TRUE;TRUE;TRUE;TRUE;TRUE;TRUE;TRUE;TRUE;FALSE;TRUE;FALSE;FALSE;FALSE;FALSE;TRUE;TRUE;
SATNOGS;2023-05-12 23:11:42;SAFE; 346753003; 1660; 1645; 1647; 8; 2632; 1780; 730; 1091; 3228; 2095; 662; 515; 1241; 522; 1759; 1584; 1640; 1613; 1589; 1589; 1750; 3205; 1853; 2146; 1549; 1556; 2193; 2238; 1679; 2234; 1176; 1253; 945; 2317; 1154; 2271; 2236; 1242; 1651; 1714; 1661; 1680; 1664; 1655; 6; 1285; 5; 5; 5; 38; 1669; 1674; 1633; 1500; 1628; 1628; 1610; 1280;BATT_WBH;TRUE;TRUE;TRUE;TRUE;TRUE;TRUE;TRUE;TRUE;TRUE;TRUE;TRUE;TRUE;TRUE;TRUE;FALSE;TRUE;FALSE;FALSE;FALSE;FALSE;TRUE;TRUE;
SATNOGS;2023-05-12 23:11:22;SAFE; 346753003; 1660; 1645; 1647; 8; 2632; 1780; 730; 1091; 3228; 2095; 662; 515; 1241; 522; 1759; 1584; 1640; 1613; 1589; 1589; 1750; 3205; 1853; 2146; 1549; 1556; 2193; 2238; 1679; 2234; 1176; 1253; 945; 2317; 1154; 2271; 2236; 1242; 1651; 1714; 1661; 1680; 1664; 1655; 6; 1285; 5; 5; 5; 38; 1669; 1674; 1633; 1500; 1628; 1628; 1610; 1280;BATT_WBH;TRUE;TRUE;TRUE;TRUE;TRUE;TRUE;TRUE;TRUE;TRUE;TRUE;TRUE;TRUE;TRUE;TRUE;FALSE;TRUE;FALSE;FALSE;FALSE;FALSE;TRUE;TRUE;
SATNOGS;2023-05-12 23:11:22;SAFE; 346753003; 1660; 1645; 1647; 8; 2632; 1780; 730; 1091; 3228; 2095; 662; 515; 1241; 522; 1759; 1584; 1640; 1613; 1589; 1589; 1750; 3205; 1853; 2146; 1549; 1556; 2193; 2238; 1679; 2234; 1176; 1253; 945; 2317; 1154; 2271; 2236; 1242; 1651; 1714; 1661; 1680; 1664; 1655; 6; 1285; 5; 5; 5; 38; 1669; 1674; 1633; 1500; 1628; 1628; 1610; 1280;BATT_WBH;TRUE;TRUE;TRUE;TRUE;TRUE;TRUE;TRUE;TRUE;TRUE;TRUE;TRUE;TRUE;TRUE;TRUE;FALSE;TRUE;FALSE;FALSE;FALSE;FALSE;TRUE;TRUE;
SATNOGS;2023-05-12 23:10:30;SAFE; 346752758; 1659; 1645; 1646; 8; 2573; 1774; 730; 1090; 3229; 2096; 824; 510; 1248; 551; 1754; 1580; 1636; 1605; 1589; 1588; 1741; 2081; 1973; 1713; 1565; 1556; 2197; 2244; 1680; 1951; 1210; 2611; 1319; 1961; 2620; 1956; 1922; 2583; 1652; 1715; 1663; 1681; 1664; 1655; 5; 555; 5; 5; 5; 1064; 1668; 1675; 1632; 1500; 1630; 1631; 1609; 1280;BATT_WBH;TRUE;TRUE;TRUE;TRUE;TRUE;TRUE;TRUE;TRUE;TRUE;TRUE;TRUE;TRUE;TRUE;TRUE;FALSE;TRUE;FALSE;FALSE;FALSE;FALSE;TRUE;TRUE;
SATNOGS;2023-05-12 21:41:40;SAFE; 346730928; 1639; 1606; 1622; 7; 2499; 1785; 730; 1091; 3230; 2096; 664; 473; 1217; 834; 1751; 1603; 1662; 1654; 1608; 1619; 1745; 1753; 3016; 1714; 1842; 1559; 2185; 2230; 1680; 1803; 2830; 1729; 1474; 512; 1705; 1817; 473; 1774; 1655; 1716; 1662; 1680; 1667; 1660; 5; 5; 1224; 5; 438; 6; 1667; 1673; 1636; 1512; 1633; 1628; 1614; 1310;NONE;TRUE;TRUE;TRUE;TRUE;TRUE;TRUE;TRUE;TRUE;TRUE;TRUE;TRUE;TRUE;TRUE;TRUE;FALSE;TRUE;FALSE;FALSE;FALSE;FALSE;TRUE;TRUE;
SATNOGS;2023-05-12 21:41:21;SAFE; 346730928; 1639; 1606; 1622; 7; 2499; 1785; 730; 1091; 3230; 2096; 664; 473; 1217; 834; 1751; 1603; 1662; 1654; 1608; 1619; 1745; 1753; 3016; 1714; 1842; 1559; 2185; 2230; 1680; 1803; 2830; 1729; 1474; 512; 1705; 1817; 473; 1774; 1655; 1716; 1662; 1680; 1667; 1660; 5; 5; 1224; 5; 438; 6; 1667; 1673; 1636; 1512; 1633; 1628; 1614; 1310;NONE;TRUE;TRUE;TRUE;TRUE;TRUE;TRUE;TRUE;TRUE;TRUE;TRUE;TRUE;TRUE;TRUE;TRUE;FALSE;TRUE;FALSE;FALSE;FALSE;FALSE;TRUE;TRUE;
SATNOGS;2023-05-12 21:41:01;SAFE; 346730928; 1639; 1606; 1622; 7; 2499; 1785; 730; 1091; 3230; 2096; 664; 473; 1217; 834; 1751; 1603; 1662; 1654; 1608; 1619; 1745; 1753; 3016; 1714; 1842; 1559; 2185; 2230; 1680; 1803; 2830; 1729; 1474; 512; 1705; 1817; 473; 1774; 1655; 1716; 1662; 1680; 1667; 1660; 5; 5; 1224; 5; 438; 6; 1667; 1673; 1636; 1512; 1633; 1628; 1614; 1310;NONE;TRUE;TRUE;TRUE;TRUE;TRUE;TRUE;TRUE;TRUE;TRUE;TRUE;TRUE;TRUE;TRUE;TRUE;FALSE;TRUE;FALSE;FALSE;FALSE;FALSE;TRUE;TRUE;
SATNOGS;2023-05-12 21:40:41;SAFE; 346730683; 1643; 1611; 1624; 8; 2511; 1783; 730; 1091; 3229; 2098; 668; 473; 1231; 613; 1751; 1600; 1659; 1648; 1606; 1616; 1745; 3009; 1851; 1913; 1831; 1559; 2191; 2234; 1681; 2216; 2200; 704; 978; 1486; 534; 2272; 1433; 748; 1655; 1716; 1663; 1681; 1668; 1658; 5; 1171; 4; 25; 544; 5; 1668; 1674; 1637; 1512; 1633; 1629; 1614; 1308;NONE;TRUE;TRUE;TRUE;TRUE;TRUE;TRUE;TRUE;TRUE;TRUE;TRUE;TRUE;TRUE;TRUE;TRUE;FALSE;TRUE;FALSE;FALSE;FALSE;FALSE;TRUE;TRUE;
SATNOGS;2023-05-12 12:34:31;SAFE; 346596750; 1650; 1634; 1637; 8; 2458; 1781; 730; 1091; 3229; 2095; 622; 499; 1217; 756; 1748; 1660; 1700; 1706; 1662; 1674; 1782; 2541; 1846; 1786; 1631; 1553; 2188; 2247; 1685; 1455; 2543; 957; 1803; 1146; 957; 1447; 1079; 1038; 1669; 1714; 1666; 1686; 1683; 1671; 60; 973; 14; 69; 210; 1273; 1673; 1672; 1636; 1535; 1631; 1658; 1616; 1352;NONE;TRUE;TRUE;TRUE;TRUE;TRUE;TRUE;TRUE;TRUE;TRUE;TRUE;TRUE;TRUE;TRUE;TRUE;FALSE;TRUE;FALSE;FALSE;FALSE;FALSE;TRUE;TRUE;
SATNOGS;2023-05-12 12:33:51;SAFE; 346596750; 1650; 1634; 1637; 8; 2458; 1781; 730; 1091; 3229; 2095; 622; 499; 1217; 756; 1748; 1660; 1700; 1706; 1662; 1674; 1782; 2541; 1846; 1786; 1631; 1553; 2188; 2247; 1685; 1455; 2543; 957; 1803; 1146; 957; 1447; 1079; 1038; 1669; 1714; 1666; 1686; 1683; 1671; 60; 973; 14; 69; 210; 1273; 1673; 1672; 1636; 1535; 1631; 1658; 1616; 1352;NONE;TRUE;TRUE;TRUE;TRUE;TRUE;TRUE;TRUE;TRUE;TRUE;TRUE;TRUE;TRUE;TRUE;TRUE;FALSE;TRUE;FALSE;FALSE;FALSE;FALSE;TRUE;TRUE;
SATNOGS;2023-05-12 12:33:10;SAFE; 346596504; 1648; 1633; 1636; 7; 2475; 1785; 730; 1090; 3228; 2097; 673; 489; 1233; 581; 1749; 1658; 1698; 1704; 1661; 1672; 1836; 2242; 1997; 1713; 2007; 1554; 2186; 2244; 1685; 1880; 1476; 2657; 1403; 1686; 2704; 1886; 1652; 2628; 1669; 1714; 1666; 1685; 1682; 1671; 154; 612; 113; 5; 1084; 135; 1672; 1671; 1636; 1535; 1631; 1657; 1616; 1350;NONE;TRUE;TRUE;TRUE;TRUE;TRUE;TRUE;TRUE;TRUE;TRUE;TRUE;TRUE;TRUE;TRUE;TRUE;FALSE;TRUE;FALSE;FALSE;FALSE;FALSE;TRUE;TRUE;
SATNOGS;2023-05-12 12:32:10;SAFE; 346596259; 1648; 1632; 1635; 7; 2466; 1784; 730; 1091; 3230; 2095; 665; 488; 1230; 674; 1748; 1658; 1697; 1703; 1660; 1670; 1767; 1855; 2714; 1978; 1589; 1554; 2186; 2241; 1684; 2055; 1703; 808; 1144; 1870; 698; 2094; 1813; 846; 1668; 1713; 1666; 1684; 1682; 1671; 46; 90; 952; 128; 108; 893; 1672; 1672; 1636; 1534; 1632; 1656; 1616; 1348;NONE;TRUE;TRUE;TRUE;TRUE;TRUE;TRUE;TRUE;TRUE;TRUE;TRUE;TRUE;TRUE;TRUE;TRUE;FALSE;TRUE;FALSE;FALSE;FALSE;FALSE;TRUE;TRUE;
SATNOGS;2023-05-12 12:30:51;SAFE; 346596014; 1646; 1631; 1634; 7; 2487; 1783; 730; 1090; 3228; 2095; 672; 498; 1216; 612; 1750; 1656; 1696; 1701; 1658; 1669; 1908; 2940; 1893; 2087; 1746; 1555; 2183; 2240; 1684; 1649; 2609; 2029; 1657; 762; 2075; 1638; 711; 2061; 1667; 1714; 1664; 1685; 1681; 1670; 266; 1252; 180; 15; 237; 23; 1671; 1672; 1636; 1533; 1631; 1654; 1615; 1344;NONE;TRUE;TRUE;TRUE;TRUE;TRUE;TRUE;TRUE;TRUE;TRUE;TRUE;TRUE;TRUE;TRUE;TRUE;FALSE;TRUE;FALSE;FALSE;FALSE;FALSE;TRUE;TRUE;
SATNOGS;2023-05-11 23:30:30;SAFE; 346404424; 1665; 1651; 1653; 7; 2548; 1780; 731; 1090; 3230; 2097; 672; 518; 1251; 686; 1752; 1581; 1636; 1606; 1589; 1590; 1741; 1626; 1846; 1713; 1560; 1555; 2196; 2244; 1679; 2062; 1021; 1396; 1162; 2425; 1341; 2081; 2359; 1383; 1651; 1713; 1661; 1679; 1664; 1655; 5; 5; 5; 5; 6; 5; 1671; 1674; 1630; 1503; 1627; 1631; 1609; 1284;BATT_WBH;TRUE;TRUE;TRUE;TRUE;TRUE;TRUE;TRUE;TRUE;TRUE;TRUE;TRUE;TRUE;TRUE;TRUE;FALSE;TRUE;FALSE;FALSE;FALSE;FALSE;TRUE;TRUE;
SATNOGS;2023-05-11 12:54:11;SAFE; 346248409; 1652; 1638; 1638; 8; 2459; 1781; 731; 1091; 3231; 2095; 673; 484; 1221; 685; 1746; 1657; 1697; 1704; 1661; 1673; 1747; 1664; 3122; 1833; 1561; 1553; 2182; 2239; 1683; 2097; 1172; 1267; 1095; 2271; 1194; 2130; 2199; 1267; 1668; 1714; 1665; 1684; 1681; 1670; 6; 54; 1311; 5; 19; 134; 1670; 1671; 1635; 1532; 1631; 1658; 1616; 1349;NONE;TRUE;TRUE;TRUE;TRUE;TRUE;TRUE;TRUE;TRUE;TRUE;TRUE;TRUE;TRUE;TRUE;TRUE;FALSE;TRUE;FALSE;FALSE;FALSE;FALSE;TRUE;TRUE;
SATNOGS;2023-05-11 12:53:11;SAFE; 346248163; 1651; 1636; 1638; 8; 2475; 1782; 730; 1091; 3230; 2095; 627; 486; 1220; 679; 1749; 1657; 1695; 1703; 1659; 1671; 1830; 2531; 1868; 1711; 1957; 1553; 2182; 2236; 1684; 1736; 1975; 2551; 1565; 1263; 2617; 1733; 1231; 2551; 1667; 1713; 1665; 1684; 1680; 1670; 138; 908; 123; 5; 997; 70; 1670; 1670; 1634; 1532; 1631; 1656; 1615; 1346;NONE;TRUE;TRUE;TRUE;TRUE;TRUE;TRUE;TRUE;TRUE;TRUE;TRUE;TRUE;TRUE;TRUE;TRUE;FALSE;TRUE;FALSE;FALSE;FALSE;FALSE;TRUE;TRUE;
SATNOGS;2023-05-11 12:52:51;SAFE; 346248163; 1651; 1636; 1638; 8; 2475; 1782; 730; 1091; 3230; 2095; 627; 486; 1220; 679; 1749; 1657; 1695; 1703; 1659; 1671; 1830; 2531; 1868; 1711; 1957; 1553; 2182; 2236; 1684; 1736; 1975; 2551; 1565; 1263; 2617; 1733; 1231; 2551; 1667; 1713; 1665; 1684; 1680; 1670; 138; 908; 123; 5; 997; 70; 1670; 1670; 1634; 1532; 1631; 1656; 1615; 1346;NONE;TRUE;TRUE;TRUE;TRUE;TRUE;TRUE;TRUE;TRUE;TRUE;TRUE;TRUE;TRUE;TRUE;TRUE;FALSE;TRUE;FALSE;FALSE;FALSE;FALSE;TRUE;TRUE;
SATNOGS;2023-05-11 12:52:31;SAFE; 346247918; 1649; 1635; 1636; 7; 2453; 1780; 730; 1091; 3227; 2096; 677; 484; 1214; 686; 1746; 1655; 1695; 1700; 1659; 1669; 1776; 2522; 1844; 1826; 1629; 1554; 2181; 2234; 1682; 1801; 2433; 730; 1437; 1262; 649; 1812; 1204; 808; 1666; 1713; 1664; 1684; 1679; 1670; 55; 924; 5; 78; 216; 1327; 1670; 1671; 1635; 1531; 1631; 1655; 1616; 1344;NONE;TRUE;TRUE;TRUE;TRUE;TRUE;TRUE;TRUE;TRUE;TRUE;TRUE;TRUE;TRUE;TRUE;TRUE;FALSE;TRUE;FALSE;FALSE;FALSE;FALSE;TRUE;TRUE;
SATNOGS;2023-05-11 12:51:43;SAFE; 346247673; 1649; 1633; 1636; 8; 2463; 1782; 730; 1092; 3228; 2096; 610; 506; 1244; 631; 1748; 1654; 1694; 1699; 1658; 1668; 1787; 1660; 3087; 1838; 1696; 1554; 2180; 2232; 1683; 2448; 1184; 2155; 807; 2049; 2094; 2516; 2003; 2101; 1666; 1713; 1664; 1683; 1679; 1669; 70; 11; 1306; 5; 60; 179; 1669; 1670; 1634; 1530; 1632; 1653; 1616; 1341;NONE;TRUE;TRUE;TRUE;TRUE;TRUE;TRUE;TRUE;TRUE;TRUE;TRUE;TRUE;TRUE;TRUE;TRUE;FALSE;TRUE;FALSE;FALSE;FALSE;FALSE;TRUE;TRUE;
SATNOGS;2023-05-11 12:51:03;SAFE; 346247673; 1649; 1633; 1636; 8; 2463; 1782; 730; 1092; 3228; 2096; 610; 506; 1244; 631; 1748; 1654; 1694; 1699; 1658; 1668; 1787; 1660; 3087; 1838; 1696; 1554; 2180; 2232; 1683; 2448; 1184; 2155; 807; 2049; 2094; 2516; 2003; 2101; 1666; 1713; 1664; 1683; 1679; 1669; 70; 11; 1306; 5; 60; 179; 1669; 1670; 1634; 1530; 1632; 1653; 1616; 1341;NONE;TRUE;TRUE;TRUE;TRUE;TRUE;TRUE;TRUE;TRUE;TRUE;TRUE;TRUE;TRUE;TRUE;TRUE;FALSE;TRUE;FALSE;FALSE;FALSE;FALSE;TRUE;TRUE;
SATNOGS;2023-05-11 12:50:23;SAFE; 346247427; 1648; 1632; 1636; 8; 2482; 1785; 730; 1091; 3227; 2096; 662; 480; 1210; 686; 1750; 1652; 1693; 1697; 1656; 1667; 1890; 2955; 1867; 2123; 1737; 1554; 2179; 2231; 1681; 1735; 2781; 1772; 1562; 627; 1772; 1731; 577; 1814; 1665; 1714; 1664; 1682; 1679; 1668; 229; 1241; 120; 28; 256; 15; 1670; 1670; 1636; 1529; 1631; 1652; 1616; 1339;NONE;TRUE;TRUE;TRUE;TRUE;TRUE;TRUE;TRUE;TRUE;TRUE;TRUE;TRUE;TRUE;TRUE;TRUE;FALSE;TRUE;FALSE;FALSE;FALSE;FALSE;TRUE;TRUE;
SATNOGS;2023-05-11 12:49:43;SAFE; 346247182; 1647; 1630; 1635; 8; 2456; 1781; 730; 1091; 3229; 2094; 830; 508; 1238; 638; 1748; 1652; 1691; 1695; 1654; 1664; 1795; 1960; 2426; 1996; 1593; 1554; 2179; 2229; 1681; 2490; 1760; 1002; 747; 1785; 831; 2577; 1740; 1016; 1664; 1714; 1664; 1682; 1678; 1668; 79; 125; 524; 143; 128; 1119; 1669; 1671; 1635; 1527; 1631; 1650; 1615; 1336;NONE;TRUE;TRUE;TRUE;TRUE;TRUE;TRUE;TRUE;TRUE;TRUE;TRUE;TRUE;TRUE;TRUE;TRUE;FALSE;TRUE;FALSE;FALSE;FALSE;FALSE;TRUE;TRUE;
SATNOGS;2023-05-11 12:48:43;SAFE; 346246937; 1645; 1630; 1634; 8; 2469; 1780; 730; 1089; 3228; 2094; 772; 496; 1239; 682; 1748; 1648; 1690; 1694; 1651; 1663; 1899; 1878; 2562; 1761; 1968; 1555; 2177; 2228; 1682; 2271; 1926; 2550; 999; 1299; 2505; 2313; 1278; 2510; 1664; 1714; 1663; 1682; 1678; 1667; 252; 57; 839; 5; 971; 128; 1669; 1671; 1636; 1526; 1632; 1648; 1615; 1332;NONE;TRUE;TRUE;TRUE;TRUE;TRUE;TRUE;TRUE;TRUE;TRUE;TRUE;TRUE;TRUE;TRUE;TRUE;FALSE;TRUE;FALSE;FALSE;FALSE;FALSE;TRUE;TRUE;
SATNOGS;2023-05-10 13:13:51;SAFE; 345900063; 1653; 1637; 1638; 7; 2475; 1778; 730; 1091; 3230; 2093; 479; 504; 1223; 679; 1749; 1655; 1694; 1701; 1660; 1672; 1798; 2591; 1855; 1750; 1934; 1553; 2180; 2234; 1683; 1645; 2139; 2415; 1661; 1156; 2490; 1638; 1121; 2430; 1666; 1711; 1665; 1682; 1680; 1669; 83; 966; 94; 5; 932; 66; 1670; 1668; 1635; 1531; 1630; 1656; 1615; 1348;NONE;TRUE;TRUE;TRUE;TRUE;TRUE;TRUE;TRUE;TRUE;TRUE;TRUE;TRUE;TRUE;TRUE;TRUE;FALSE;TRUE;FALSE;FALSE;FALSE;FALSE;TRUE;TRUE;
SATNOGS;2023-05-10 13:13:31;SAFE; 345899818; 1650; 1636; 1637; 8; 2478; 1780; 730; 1092; 3229; 2091; 534; 498; 1207; 690; 1749; 1655; 1693; 1701; 1659; 1671; 1820; 2993; 1853; 2178; 1603; 1553; 2177; 2233; 1682; 1573; 2817; 1232; 1707; 816; 1227; 1568; 759; 1308; 1666; 1712; 1665; 1682; 1678; 1669; 122; 1265; 88; 5; 145; 100; 1670; 1670; 1634; 1531; 1631; 1653; 1615; 1345;NONE;TRUE;TRUE;TRUE;TRUE;TRUE;TRUE;TRUE;TRUE;TRUE;TRUE;TRUE;TRUE;TRUE;TRUE;FALSE;TRUE;FALSE;FALSE;FALSE;FALSE;TRUE;TRUE;
SATNOGS;2023-05-10 13:12:52;SAFE; 345899818; 1650; 1636; 1637; 8; 2478; 1780; 730; 1092; 3229; 2091; 534; 498; 1207; 690; 1749; 1655; 1693; 1701; 1659; 1671; 1820; 2993; 1853; 2178; 1603; 1553; 2177; 2233; 1682; 1573; 2817; 1232; 1707; 816; 1227; 1568; 759; 1308; 1666; 1712; 1665; 1682; 1678; 1669; 122; 1265; 88; 5; 145; 100; 1670; 1670; 1634; 1531; 1631; 1653; 1615; 1345;NONE;TRUE;TRUE;TRUE;TRUE;TRUE;TRUE;TRUE;TRUE;TRUE;TRUE;TRUE;TRUE;TRUE;TRUE;FALSE;TRUE;FALSE;FALSE;FALSE;FALSE;TRUE;TRUE;
SATNOGS;2023-05-10 00:10:12;SAFE; 345707741; 1668; 1655; 1655; 8; 2551; 1781; 730; 1091; 3230; 2096; 727; 491; 1235; 680; 1750; 1584; 1637; 1609; 1591; 1595; 1740; 1624; 1843; 1715; 1561; 1553; 2196; 2245; 1680; 1882; 1141; 1209; 1371; 2345; 1170; 1887; 2277; 1214; 1651; 1713; 1661; 1679; 1664; 1654; 5; 4; 5; 5; 5; 8; 1669; 1674; 1628; 1506; 1626; 1633; 1608; 1294;BATT_WBH;TRUE;TRUE;TRUE;TRUE;TRUE;TRUE;TRUE;TRUE;TRUE;TRUE;TRUE;TRUE;TRUE;TRUE;FALSE;TRUE;FALSE;FALSE;FALSE;FALSE;TRUE;TRUE;
SATNOGS;2023-05-09 22:39:05;SAFE; 345685416; 1625; 1588; 1608; 8; 2474; 1774; 730; 1091; 3229; 2096; 668; 503; 1206; 690; 1749; 1588; 1641; 1616; 1593; 1593; 1746; 1663; 3116; 1707; 1759; 1556; 2192; 2237; 1679; 1536; 2818; 1230; 1736; 766; 1224; 1549; 710; 1310; 1651; 1716; 1662; 1680; 1663; 1655; 5; 5; 1273; 5; 118; 5; 1668; 1674; 1633; 1506; 1631; 1629; 1612; 1291;NONE;TRUE;TRUE;TRUE;TRUE;TRUE;TRUE;TRUE;TRUE;TRUE;TRUE;TRUE;TRUE;TRUE;TRUE;FALSE;TRUE;FALSE;FALSE;FALSE;FALSE;TRUE;TRUE;
SATNOGS;2023-05-09 11:57:53;SAFE; 345528166; 1670; 1654; 1658; 7; 2378; 1777; 730; 1091; 3232; 2094; 839; 464; 1232; 635; 1739; 1654; 1698; 1707; 1663; 1679; 1135; 1132; 1178; 1138; 1108; 1550; 2176; 2231; 1681; 2439; 1210; 1490; 831; 2181; 1385; 2500; 2134; 1459; 1664; 1710; 1663; 1680; 1677; 1666; 99; 40; 1172; 112; 80; 659; 1668; 1668; 1630; 1530; 1627; 1656; 1612; 1344;BATT_WBH;TRUE;TRUE;TRUE;TRUE;TRUE;TRUE;TRUE;TRUE;TRUE;TRUE;TRUE;TRUE;TRUE;TRUE;FALSE;TRUE;FALSE;FALSE;FALSE;FALSE;TRUE;TRUE;
SATNOGS;2023-05-09 11:57:33;SAFE; 345528166; 1670; 1654; 1658; 7; 2378; 1777; 730; 1091; 3232; 2094; 839; 464; 1232; 635; 1739; 1654; 1698; 1707; 1663; 1679; 1135; 1132; 1178; 1138; 1108; 1550; 2176; 2231; 1681; 2439; 1210; 1490; 831; 2181; 1385; 2500; 2134; 1459; 1664; 1710; 1663; 1680; 1677; 1666; 99; 40; 1172; 112; 80; 659; 1668; 1668; 1630; 1530; 1627; 1656; 1612; 1344;BATT_WBH;TRUE;TRUE;TRUE;TRUE;TRUE;TRUE;TRUE;TRUE;TRUE;TRUE;TRUE;TRUE;TRUE;TRUE;FALSE;TRUE;FALSE;FALSE;FALSE;FALSE;TRUE;TRUE;
SATNOGS;2023-05-09 06:50:25;SAFE; 345452602; 1632; 1598; 1615; 7; 2417; 1780; 729; 1091; 3229; 2096; 544; 476; 1212; 570; 1742; 1590; 1639; 1612; 1596; 1598; 1735; 1627; 1840; 1707; 1552; 1557; 2203; 2255; 1683; 1443; 2780; 1554; 1859; 725; 1602; 1433; 684; 1627; 1654; 1716; 1665; 1683; 1666; 1658; 5; 5; 5; 5; 6; 5; 1672; 1678; 1635; 1510; 1631; 1636; 1612; 1298;NONE;TRUE;TRUE;TRUE;TRUE;TRUE;TRUE;TRUE;TRUE;TRUE;TRUE;TRUE;TRUE;TRUE;TRUE;FALSE;TRUE;FALSE;FALSE;FALSE;FALSE;TRUE;TRUE;
SATNOGS;2023-05-09 06:50:05;SAFE; 345452602; 1632; 1598; 1615; 7; 2417; 1780; 729; 1091; 3229; 2096; 544; 476; 1212; 570; 1742; 1590; 1639; 1612; 1596; 1598; 1735; 1627; 1840; 1707; 1552; 1557; 2203; 2255; 1683; 1443; 2780; 1554; 1859; 725; 1602; 1433; 684; 1627; 1654; 1716; 1665; 1683; 1666; 1658; 5; 5; 5; 5; 6; 5; 1672; 1678; 1635; 1510; 1631; 1636; 1612; 1298;NONE;TRUE;TRUE;TRUE;TRUE;TRUE;TRUE;TRUE;TRUE;TRUE;TRUE;TRUE;TRUE;TRUE;TRUE;FALSE;TRUE;FALSE;FALSE;FALSE;FALSE;TRUE;TRUE;
SATNOGS;2023-05-09 00:31:13;SAFE; 345359623; 1668; 1655; 1655; 8; 2554; 1777; 731; 1091; 3230; 2096; 465; 492; 1251; 808; 1750; 1582; 1636; 1607; 1590; 1592; 1735; 1625; 1844; 1712; 1564; 1553; 2193; 2244; 1680; 1826; 1127; 2420; 1472; 2076; 2491; 1824; 2033; 2385; 1651; 1712; 1661; 1680; 1663; 1654; 6; 5; 5; 5; 6; 6; 1668; 1674; 1630; 1505; 1627; 1633; 1608; 1292;BATT_WBH;TRUE;TRUE;TRUE;TRUE;TRUE;TRUE;TRUE;TRUE;TRUE;TRUE;TRUE;TRUE;TRUE;TRUE;FALSE;TRUE;FALSE;FALSE;FALSE;FALSE;TRUE;TRUE;
SATNOGS;2023-05-08 23:01:05;SAFE; 345337544; 1621; 1582; 1603; 8; 2500; 1774; 730; 1091; 3229; 2094; 671; 484; 1232; 686; 1752; 1592; 1647; 1628; 1598; 1599; 1745; 3018; 1851; 2043; 1785; 1557; 2187; 2231; 1679; 2390; 1493; 1100; 820; 2029; 960; 2453; 1957; 1099; 1650; 1715; 1661; 1679; 1664; 1656; 6; 1154; 5; 45; 458; 5; 1666; 1673; 1633; 1506; 1631; 1627; 1612; 1296;NONE;TRUE;TRUE;TRUE;TRUE;TRUE;TRUE;TRUE;TRUE;TRUE;TRUE;TRUE;TRUE;TRUE;TRUE;FALSE;TRUE;FALSE;FALSE;FALSE;FALSE;TRUE;TRUE;
SATNOGS;2023-05-08 23:01:05;SAFE; 345337544; 1621; 1582; 1603; 8; 2500; 1774; 730; 1091; 3229; 2094; 671; 484; 1232; 686; 1752; 1592; 1647; 1628; 1598; 1599; 1745; 3018; 1851; 2043; 1785; 1557; 2187; 2231; 1679; 2390; 1493; 1100; 820; 2029; 960; 2453; 1957; 1099; 1650; 1715; 1661; 1679; 1664; 1656; 6; 1154; 5; 45; 458; 5; 1666; 1673; 1633; 1506; 1631; 1627; 1612; 1296;NONE;TRUE;TRUE;TRUE;TRUE;TRUE;TRUE;TRUE;TRUE;TRUE;TRUE;TRUE;TRUE;TRUE;TRUE;FALSE;TRUE;FALSE;FALSE;FALSE;FALSE;TRUE;TRUE;
SATNOGS;2023-05-08 23:00:47;SAFE; 345337298; 1623; 1585; 1605; 8; 2474; 1779; 730; 1090; 3228; 2095; 671; 501; 1217; 616; 1748; 1591; 1643; 1619; 1595; 1595; 1742; 1641; 3184; 1711; 1689; 1556; 2189; 2236; 1682; 1570; 2816; 1264; 1711; 759; 1258; 1576; 701; 1343; 1651; 1716; 1662; 1680; 1664; 1656; 5; 5; 1313; 5; 40; 5; 1668; 1674; 1635; 1508; 1630; 1629; 1612; 1296;NONE;TRUE;TRUE;TRUE;TRUE;TRUE;TRUE;TRUE;TRUE;TRUE;TRUE;TRUE;TRUE;TRUE;TRUE;FALSE;TRUE;FALSE;FALSE;FALSE;FALSE;TRUE;TRUE;
SATNOGS;2023-05-08 23:00:47;SAFE; 345337298; 1623; 1585; 1605; 8; 2474; 1779; 730; 1090; 3228; 2095; 671; 501; 1217; 616; 1748; 1591; 1643; 1619; 1595; 1595; 1742; 1641; 3184; 1711; 1689; 1556; 2189; 2236; 1682; 1570; 2816; 1264; 1711; 759; 1258; 1576; 701; 1343; 1651; 1716; 1662; 1680; 1664; 1656; 5; 5; 1313; 5; 40; 5; 1668; 1674; 1635; 1508; 1630; 1629; 1612; 1296;NONE;TRUE;TRUE;TRUE;TRUE;TRUE;TRUE;TRUE;TRUE;TRUE;TRUE;TRUE;TRUE;TRUE;TRUE;FALSE;TRUE;FALSE;FALSE;FALSE;FALSE;TRUE;TRUE;
SATNOGS;2023-05-08 23:00:45;SAFE; 345337298; 1623; 1585; 1605; 8; 2474; 1779; 730; 1090; 3228; 2095; 671; 501; 1217; 616; 1748; 1591; 1643; 1619; 1595; 1595; 1742; 1641; 3184; 1711; 1689; 1556; 2189; 2236; 1682; 1570; 2816; 1264; 1711; 759; 1258; 1576; 701; 1343; 1651; 1716; 1662; 1680; 1664; 1656; 5; 5; 1313; 5; 40; 5; 1668; 1674; 1635; 1508; 1630; 1629; 1612; 1296;NONE;TRUE;TRUE;TRUE;TRUE;TRUE;TRUE;TRUE;TRUE;TRUE;TRUE;TRUE;TRUE;TRUE;TRUE;FALSE;TRUE;FALSE;FALSE;FALSE;FALSE;TRUE;TRUE;
SATNOGS;2023-05-08 23:00:45;SAFE; 345337298; 1623; 1585; 1605; 8; 2474; 1779; 730; 1090; 3228; 2095; 671; 501; 1217; 616; 1748; 1591; 1643; 1619; 1595; 1595; 1742; 1641; 3184; 1711; 1689; 1556; 2189; 2236; 1682; 1570; 2816; 1264; 1711; 759; 1258; 1576; 701; 1343; 1651; 1716; 1662; 1680; 1664; 1656; 5; 5; 1313; 5; 40; 5; 1668; 1674; 1635; 1508; 1630; 1629; 1612; 1296;NONE;TRUE;TRUE;TRUE;TRUE;TRUE;TRUE;TRUE;TRUE;TRUE;TRUE;TRUE;TRUE;TRUE;TRUE;FALSE;TRUE;FALSE;FALSE;FALSE;FALSE;TRUE;TRUE;
SATNOGS;2023-05-08 23:00:39;SAFE; 345337298; 1623; 1585; 1605; 8; 2474; 1779; 730; 1090; 3228; 2095; 671; 501; 1217; 616; 1748; 1591; 1643; 1619; 1595; 1595; 1742; 1641; 3184; 1711; 1689; 1556; 2189; 2236; 1682; 1570; 2816; 1264; 1711; 759; 1258; 1576; 701; 1343; 1651; 1716; 1662; 1680; 1664; 1656; 5; 5; 1313; 5; 40; 5; 1668; 1674; 1635; 1508; 1630; 1629; 1612; 1296;NONE;TRUE;TRUE;TRUE;TRUE;TRUE;TRUE;TRUE;TRUE;TRUE;TRUE;TRUE;TRUE;TRUE;TRUE;FALSE;TRUE;FALSE;FALSE;FALSE;FALSE;TRUE;TRUE;
SATNOGS;2023-05-08 23:00:19;SAFE; 345337298; 1623; 1585; 1605; 8; 2474; 1779; 730; 1090; 3228; 2095; 671; 501; 1217; 616; 1748; 1591; 1643; 1619; 1595; 1595; 1742; 1641; 3184; 1711; 1689; 1556; 2189; 2236; 1682; 1570; 2816; 1264; 1711; 759; 1258; 1576; 701; 1343; 1651; 1716; 1662; 1680; 1664; 1656; 5; 5; 1313; 5; 40; 5; 1668; 1674; 1635; 1508; 1630; 1629; 1612; 1296;NONE;TRUE;TRUE;TRUE;TRUE;TRUE;TRUE;TRUE;TRUE;TRUE;TRUE;TRUE;TRUE;TRUE;TRUE;FALSE;TRUE;FALSE;FALSE;FALSE;FALSE;TRUE;TRUE;
SATNOGS;2023-05-08 23:00:05;SAFE; 345337298; 1623; 1585; 1605; 8; 2474; 1779; 730; 1090; 3228; 2095; 671; 501; 1217; 616; 1748; 1591; 1643; 1619; 1595; 1595; 1742; 1641; 3184; 1711; 1689; 1556; 2189; 2236; 1682; 1570; 2816; 1264; 1711; 759; 1258; 1576; 701; 1343; 1651; 1716; 1662; 1680; 1664; 1656; 5; 5; 1313; 5; 40; 5; 1668; 1674; 1635; 1508; 1630; 1629; 1612; 1296;NONE;TRUE;TRUE;TRUE;TRUE;TRUE;TRUE;TRUE;TRUE;TRUE;TRUE;TRUE;TRUE;TRUE;TRUE;FALSE;TRUE;FALSE;FALSE;FALSE;FALSE;TRUE;TRUE;
SATNOGS;2023-05-08 23:00:05;SAFE; 345337298; 1623; 1585; 1605; 8; 2474; 1779; 730; 1090; 3228; 2095; 671; 501; 1217; 616; 1748; 1591; 1643; 1619; 1595; 1595; 1742; 1641; 3184; 1711; 1689; 1556; 2189; 2236; 1682; 1570; 2816; 1264; 1711; 759; 1258; 1576; 701; 1343; 1651; 1716; 1662; 1680; 1664; 1656; 5; 5; 1313; 5; 40; 5; 1668; 1674; 1635; 1508; 1630; 1629; 1612; 1296;NONE;TRUE;TRUE;TRUE;TRUE;TRUE;TRUE;TRUE;TRUE;TRUE;TRUE;TRUE;TRUE;TRUE;TRUE;FALSE;TRUE;FALSE;FALSE;FALSE;FALSE;TRUE;TRUE;
SATNOGS;2023-05-08 22:59:56;SAFE; 345337298; 1623; 1585; 1605; 8; 2474; 1779; 730; 1090; 3228; 2095; 671; 501; 1217; 616; 1748; 1591; 1643; 1619; 1595; 1595; 1742; 1641; 3184; 1711; 1689; 1556; 2189; 2236; 1682; 1570; 2816; 1264; 1711; 759; 1258; 1576; 701; 1343; 1651; 1716; 1662; 1680; 1664; 1656; 5; 5; 1313; 5; 40; 5; 1668; 1674; 1635; 1508; 1630; 1629; 1612; 1296;NONE;TRUE;TRUE;TRUE;TRUE;TRUE;TRUE;TRUE;TRUE;TRUE;TRUE;TRUE;TRUE;TRUE;TRUE;FALSE;TRUE;FALSE;FALSE;FALSE;FALSE;TRUE;TRUE;
SATNOGS;2023-05-08 22:59:45;SAFE; 345337053; 1626; 1589; 1609; 8; 2453; 1775; 731; 1092; 3229; 2096; 484; 487; 1241; 603; 1746; 1588; 1638; 1610; 1593; 1592; 1740; 2418; 1873; 1716; 1564; 1557; 2196; 2240; 1680; 1958; 1511; 2638; 1311; 1658; 2657; 1974; 1628; 2622; 1652; 1716; 1662; 1680; 1665; 1657; 6; 769; 5; 5; 6; 1359; 1669; 1675; 1635; 1508; 1631; 1631; 1612; 1294;NONE;TRUE;TRUE;TRUE;TRUE;TRUE;TRUE;TRUE;TRUE;TRUE;TRUE;TRUE;TRUE;TRUE;TRUE;FALSE;TRUE;FALSE;FALSE;FALSE;FALSE;TRUE;TRUE;
SATNOGS;2023-05-08 22:59:45;SAFE; 345337053; 1626; 1589; 1609; 8; 2453; 1775; 731; 1092; 3229; 2096; 484; 487; 1241; 603; 1746; 1588; 1638; 1610; 1593; 1592; 1740; 2418; 1873; 1716; 1564; 1557; 2196; 2240; 1680; 1958; 1511; 2638; 1311; 1658; 2657; 1974; 1628; 2622; 1652; 1716; 1662; 1680; 1665; 1657; 6; 769; 5; 5; 6; 1359; 1669; 1675; 1635; 1508; 1631; 1631; 1612; 1294;NONE;TRUE;TRUE;TRUE;TRUE;TRUE;TRUE;TRUE;TRUE;TRUE;TRUE;TRUE;TRUE;TRUE;TRUE;FALSE;TRUE;FALSE;FALSE;FALSE;FALSE;TRUE;TRUE;
SATNOGS;2023-05-08 12:21:13;SAFE; 345180535; 1675; 1659; 1662; 8; 2362; 1777; 730; 1091; 3230; 2093; 756; 485; 1211; 692; 1739; 1660; 1700; 1712; 1669; 1685; 1129; 1134; 1130; 1144; 1118; 1548; 2176; 2234; 1680; 1439; 2688; 1166; 1851; 951; 1186; 1439; 913; 1245; 1666; 1707; 1663; 1680; 1679; 1667; 135; 1259; 138; 9; 166; 53; 1669; 1668; 1627; 1531; 1626; 1660; 1611; 1355;BATT_WBH;TRUE;TRUE;TRUE;TRUE;TRUE;TRUE;TRUE;TRUE;TRUE;TRUE;TRUE;TRUE;TRUE;TRUE;FALSE;TRUE;FALSE;FALSE;FALSE;FALSE;TRUE;TRUE;
SATNOGS;2023-05-08 12:17:53;SAFE; 345179799; 1672; 1656; 1660; 8; 2377; 1776; 730; 1091; 3230; 2094; 617; 499; 1235; 706; 1739; 1654; 1697; 1706; 1664; 1679; 1691; 1576; 1842; 1651; 1535; 1550; 2172; 2226; 1679; 2446; 1334; 1320; 827; 2103; 1200; 2511; 2055; 1303; 1664; 1709; 1661; 1679; 1676; 1666; 99; 55; 762; 144; 115; 1075; 1667; 1666; 1629; 1528; 1626; 1655; 1612; 1346;BATT_WBH;TRUE;TRUE;TRUE;TRUE;TRUE;TRUE;TRUE;TRUE;TRUE;TRUE;TRUE;TRUE;TRUE;TRUE;FALSE;TRUE;FALSE;FALSE;FALSE;FALSE;TRUE;TRUE;
SATNOGS;2023-05-08 12:17:41;SAFE; 345179554; 1670; 1655; 1658; 8; 2378; 1770; 730; 1091; 3231; 2095; 661; 500; 1243; 670; 1740; 1652; 1695; 1705; 1662; 1677; 1126; 1140; 1164; 1131; 1111; 1549; 2171; 2223; 1678; 2581; 1238; 2036; 747; 2047; 1946; 2657; 2011; 1974; 1663; 1709; 1660; 1679; 1675; 1665; 101; 11; 1284; 43; 42; 275; 1667; 1666; 1629; 1527; 1626; 1653; 1612; 1344;BATT_WBH;TRUE;TRUE;TRUE;TRUE;TRUE;TRUE;TRUE;TRUE;TRUE;TRUE;TRUE;TRUE;TRUE;TRUE;FALSE;TRUE;FALSE;FALSE;FALSE;FALSE;TRUE;TRUE;
