Source;Received;Operating_Mode;Misison_Clock;BATT_TBAT1_TM;BATT_TBAT2_TM;BATT_TBAT3_TM;RESERVED;BATT_VBAT_TM;PSU_T_TM;P3V3_TM;P5V_TM;P15V_TM;N15V_TM;PSU_IP5V_TM;PSU_IP15V_TM;PSU_IN15V_TM;PSU_IP3V3_TM;PDU_IVBUS_TM;PV_TPSXP_TM;PV_TPSXN_TM;PV_TPSYP_TM;PV_TPSYN_TM;PV_TPSZP_TM;PV_ISPXP_TM;PV_ISPXN_TM;PV_ISPYP_TM;PV_ISPYN_TM;PV_ISPZP_TM;OBC_T_TM;MGM1_T_TM;MGM2_T_TM;MGM3_T_TM;MGM1_X_TM;MGM1_Y_TM;MGM1_Z_TM;MGM2_X_TM;MGM2_Y_TM;MGM2_Z_TM;MGM3_X_TM;MGM3_Y_TM;MGM3_Z_TM;MGT_TX_TM;MODEM_T_TR_TM;EBOX_T_INT_TM;EBOX_T_EXT_TM;BATT_T_EXT_TM;BATT_T_INT_TM;SS6_XP_TM;SS6_XN_TM;SS6_YP_TM;SS6_YN_TM;SS6_ZP_TM;SS6_ZN_TM;RW1_T_TM;RW2_T_TM;TP1_TM;TP2_TM;TP3_TM;TP4_TM;TP5_TM;TP6_TM;Battery_Warning;DAS_P3V;DAS_P5V;DAS_P15V;DAS_N15V;PDU_P3V3;PDU_P5V;MGM1_P5V;MGM2_P5V;MGM3_P15V;MGM3_N15V;MGT_X_VBUS;TEMP_A_P5V;TEMP_B_P5V;MODEM_VBUS;RW_P5V;RW_VBUS;MTS_VBUS;BOOM1_VBUS;BOOM2_VBUS;TTC_STAT;SMA_SB01;SMA_SB02;
SATNOGS;2022-11-21 11:35:45;SAFE; 285845621; 1625; 1588; 1608; 9; 2395; 1792; 730; 1091; 3224; 2099; 845; 504; 1251; 626; 1745; 1612; 1674; 1674; 1628; 1648; 1745; 1829; 2768; 1711; 1551; 1563; 2212; 2248; 1687; 1080; 1331; 1628; 2200; 2008; 1808; 1039; 1991; 1677; 1665; 1722; 1671; 1687; 1677; 1670; 6; 125; 87; 9; 6; 1369; 1677; 1683; 1645; 1530; 1641; 1645; 1620; 1331;NONE;TRUE;TRUE;TRUE;TRUE;TRUE;TRUE;TRUE;TRUE;TRUE;TRUE;TRUE;TRUE;TRUE;TRUE;FALSE;TRUE;FALSE;FALSE;FALSE;FALSE;TRUE;TRUE;
SATNOGS;2022-11-21 11:35:05;SAFE; 285845621; 1625; 1588; 1608; 9; 2395; 1792; 730; 1091; 3224; 2099; 845; 504; 1251; 626; 1745; 1612; 1674; 1674; 1628; 1648; 1745; 1829; 2768; 1711; 1551; 1563; 2212; 2248; 1687; 1080; 1331; 1628; 2200; 2008; 1808; 1039; 1991; 1677; 1665; 1722; 1671; 1687; 1677; 1670; 6; 125; 87; 9; 6; 1369; 1677; 1683; 1645; 1530; 1641; 1645; 1620; 1331;NONE;TRUE;TRUE;TRUE;TRUE;TRUE;TRUE;TRUE;TRUE;TRUE;TRUE;TRUE;TRUE;TRUE;TRUE;FALSE;TRUE;FALSE;FALSE;FALSE;FALSE;TRUE;TRUE;
SATNOGS;2022-11-21 11:34:25;SAFE; 285845375; 1628; 1593; 1611; 8; 2398; 1784; 729; 1090; 3226; 2099; 668; 474; 1240; 774; 1744; 1611; 1671; 1670; 1626; 1645; 1746; 1778; 2608; 1712; 2120; 1563; 2215; 2250; 1688; 1061; 1286; 1661; 2223; 2093; 1821; 1022; 2080; 1685; 1664; 1723; 1670; 1688; 1676; 1670; 5; 16; 822; 5; 1147; 5; 1678; 1684; 1646; 1530; 1640; 1645; 1620; 1329;NONE;TRUE;TRUE;TRUE;TRUE;TRUE;TRUE;TRUE;TRUE;TRUE;TRUE;TRUE;TRUE;TRUE;TRUE;FALSE;TRUE;FALSE;FALSE;FALSE;FALSE;TRUE;TRUE;
SATNOGS;2022-11-20 22:39:00;SAFE; 285655288; 1690; 1678; 1675; 9; 2332; 1784; 730; 1091; 3225; 2100; 714; 481; 1231; 805; 1737; 1634; 1664; 1647; 1635; 1644; 1741; 1624; 1842; 1716; 1566; 1569; 2284; 2332; 1702; 1542; 1642; 1643; 1745; 1764; 1682; 1523; 1726; 1689; 1676; 1726; 1684; 1702; 1686; 1681; 6; 5; 5; 4; 5; 5; 1695; 1700; 1650; 1555; 1645; 1670; 1628; 1350;NONE;TRUE;TRUE;TRUE;TRUE;TRUE;TRUE;TRUE;TRUE;TRUE;TRUE;TRUE;TRUE;TRUE;TRUE;FALSE;TRUE;FALSE;FALSE;FALSE;FALSE;TRUE;TRUE;
SATNOGS;2022-11-20 22:38:20;SAFE; 285655043; 1690; 1680; 1677; 7; 2330; 1789; 730; 1090; 3226; 2101; 663; 488; 1243; 699; 1737; 1638; 1665; 1650; 1635; 1648; 1739; 1627; 1840; 1711; 1560; 1568; 2288; 2340; 1704; 1610; 1720; 1644; 1660; 1739; 1647; 1604; 1688; 1675; 1678; 1727; 1683; 1703; 1688; 1681; 4; 5; 4; 5; 6; 5; 1697; 1700; 1650; 1557; 1645; 1673; 1629; 1354;NONE;TRUE;TRUE;TRUE;TRUE;TRUE;TRUE;TRUE;TRUE;TRUE;TRUE;TRUE;TRUE;TRUE;TRUE;FALSE;TRUE;FALSE;FALSE;FALSE;FALSE;TRUE;TRUE;
SATNOGS;2022-11-20 11:52:46;SAFE; 285496622; 1679; 1666; 1665; 8; 2550; 1788; 730; 1090; 3224; 2101; 663; 463; 1255; 690; 1754; 1599; 1680; 1675; 1610; 1637; 1777; 1631; 3738; 1717; 1643; 1566; 2209; 2248; 1688; 1198; 1359; 1620; 2078; 2023; 1724; 1174; 2017; 1649; 1664; 1724; 1670; 1688; 1677; 1669; 5; 11; 1451; 5; 6; 26; 1676; 1682; 1647; 1524; 1642; 1640; 1621; 1320;NONE;TRUE;TRUE;TRUE;TRUE;TRUE;TRUE;TRUE;TRUE;TRUE;TRUE;TRUE;TRUE;TRUE;TRUE;FALSE;TRUE;FALSE;FALSE;FALSE;FALSE;TRUE;TRUE;
SATNOGS;2022-11-20 11:52:06;SAFE; 285496622; 1679; 1666; 1665; 8; 2550; 1788; 730; 1090; 3224; 2101; 663; 463; 1255; 690; 1754; 1599; 1680; 1675; 1610; 1637; 1777; 1631; 3738; 1717; 1643; 1566; 2209; 2248; 1688; 1198; 1359; 1620; 2078; 2023; 1724; 1174; 2017; 1649; 1664; 1724; 1670; 1688; 1677; 1669; 5; 11; 1451; 5; 6; 26; 1676; 1682; 1647; 1524; 1642; 1640; 1621; 1320;NONE;TRUE;TRUE;TRUE;TRUE;TRUE;TRUE;TRUE;TRUE;TRUE;TRUE;TRUE;TRUE;TRUE;TRUE;FALSE;TRUE;FALSE;FALSE;FALSE;FALSE;TRUE;TRUE;
SATNOGS;2022-11-20 11:51:46;SAFE; 285496377; 1681; 1668; 1665; 8; 2555; 1785; 730; 1090; 3223; 2100; 673; 498; 1219; 799; 1755; 1598; 1676; 1671; 1609; 1634; 1749; 3176; 1855; 2168; 1677; 1566; 2213; 2251; 1689; 1096; 1349; 1610; 2175; 1965; 1736; 1062; 1969; 1665; 1665; 1725; 1670; 1688; 1677; 1668; 6; 1317; 5; 52; 275; 8; 1677; 1683; 1648; 1524; 1643; 1640; 1622; 1318;NONE;TRUE;TRUE;TRUE;TRUE;TRUE;TRUE;TRUE;TRUE;TRUE;TRUE;TRUE;TRUE;TRUE;TRUE;FALSE;TRUE;FALSE;FALSE;FALSE;FALSE;TRUE;TRUE;
SATNOGS;2022-11-19 12:10:46;SAFE; 285147983; 1633; 1624; 1621; 8; 2362; 1802; 730; 1091; 3223; 2099; 670; 509; 1235; 692; 1741; 1612; 1704; 1701; 1620; 1652; 1764; 1637; 1882; 1728; 1554; 1577; 2252; 2297; 1698; 1366; 1487; 1655; 1940; 1863; 1744; 1337; 1869; 1718; 1675; 1734; 1680; 1699; 1690; 1679; 6; 1317; 5; 8; 18; 629; 1687; 1694; 1656; 1532; 1650; 1655; 1630; 1317;BATT_WBH;TRUE;TRUE;TRUE;TRUE;TRUE;TRUE;TRUE;TRUE;TRUE;TRUE;TRUE;TRUE;TRUE;TRUE;FALSE;TRUE;FALSE;FALSE;FALSE;FALSE;TRUE;TRUE;
SATNOGS;2022-11-19 12:10:06;SAFE; 285147983; 1633; 1624; 1621; 8; 2362; 1802; 730; 1091; 3223; 2099; 670; 509; 1235; 692; 1741; 1612; 1704; 1701; 1620; 1652; 1764; 1637; 1882; 1728; 1554; 1577; 2252; 2297; 1698; 1366; 1487; 1655; 1940; 1863; 1744; 1337; 1869; 1718; 1675; 1734; 1680; 1699; 1690; 1679; 6; 1317; 5; 8; 18; 629; 1687; 1694; 1656; 1532; 1650; 1655; 1630; 1317;BATT_WBH;TRUE;TRUE;TRUE;TRUE;TRUE;TRUE;TRUE;TRUE;TRUE;TRUE;TRUE;TRUE;TRUE;TRUE;FALSE;TRUE;FALSE;FALSE;FALSE;FALSE;TRUE;TRUE;
SATNOGS;2022-11-18 21:43:46;SAFE; 284935472; 1602; 1594; 1589; 8; 2339; 1803; 729; 1090; 3219; 2103; 858; 496; 1255; 696; 1738; 1629; 1679; 1662; 1633; 1643; 1743; 1629; 1846; 1713; 1571; 1585; 2330; 2389; 1715; 1193; 1282; 1671; 2122; 2122; 1768; 1130; 2117; 1692; 1687; 1743; 1695; 1714; 1700; 1691; 6; 5; 5; 5; 5; 5; 1708; 1711; 1664; 1566; 1658; 1677; 1638; 1325;NONE;TRUE;TRUE;TRUE;TRUE;TRUE;TRUE;TRUE;TRUE;TRUE;TRUE;TRUE;TRUE;TRUE;TRUE;FALSE;TRUE;FALSE;FALSE;FALSE;FALSE;TRUE;TRUE;
SATNOGS;2022-11-18 21:43:26;SAFE; 284935472; 1602; 1594; 1589; 8; 2339; 1803; 729; 1090; 3219; 2103; 858; 496; 1255; 696; 1738; 1629; 1679; 1662; 1633; 1643; 1743; 1629; 1846; 1713; 1571; 1585; 2330; 2389; 1715; 1193; 1282; 1671; 2122; 2122; 1768; 1130; 2117; 1692; 1687; 1743; 1695; 1714; 1700; 1691; 6; 5; 5; 5; 5; 5; 1708; 1711; 1664; 1566; 1658; 1677; 1638; 1325;NONE;TRUE;TRUE;TRUE;TRUE;TRUE;TRUE;TRUE;TRUE;TRUE;TRUE;TRUE;TRUE;TRUE;TRUE;FALSE;TRUE;FALSE;FALSE;FALSE;FALSE;TRUE;TRUE;
SATNOGS;2022-11-18 21:43:06;SAFE; 284935472; 1602; 1594; 1589; 8; 2339; 1803; 729; 1090; 3219; 2103; 858; 496; 1255; 696; 1738; 1629; 1679; 1662; 1633; 1643; 1743; 1629; 1846; 1713; 1571; 1585; 2330; 2389; 1715; 1193; 1282; 1671; 2122; 2122; 1768; 1130; 2117; 1692; 1687; 1743; 1695; 1714; 1700; 1691; 6; 5; 5; 5; 5; 5; 1708; 1711; 1664; 1566; 1658; 1677; 1638; 1325;NONE;TRUE;TRUE;TRUE;TRUE;TRUE;TRUE;TRUE;TRUE;TRUE;TRUE;TRUE;TRUE;TRUE;TRUE;FALSE;TRUE;FALSE;FALSE;FALSE;FALSE;TRUE;TRUE;
SATNOGS;2022-11-18 21:42:46;SAFE; 284935227; 1601; 1594; 1589; 8; 2339; 1803; 730; 1091; 3220; 2104; 489; 497; 1232; 710; 1739; 1632; 1681; 1664; 1635; 1647; 1747; 1630; 1846; 1714; 1572; 1585; 2336; 2395; 1715; 1247; 1235; 1641; 2074; 2105; 1781; 1185; 2114; 1682; 1689; 1742; 1695; 1716; 1702; 1691; 5; 5; 5; 5; 5; 5; 1709; 1712; 1665; 1568; 1658; 1679; 1639; 1329;NONE;TRUE;TRUE;TRUE;TRUE;TRUE;TRUE;TRUE;TRUE;TRUE;TRUE;TRUE;TRUE;TRUE;TRUE;FALSE;TRUE;FALSE;FALSE;FALSE;FALSE;TRUE;TRUE;
SATNOGS;2022-11-17 23:32:43;SAFE; 284609294; 1605; 1595; 1593; 8; 2496; 1804; 730; 1090; 3220; 2103; 667; 489; 1231; 737; 1750; 1623; 1682; 1666; 1629; 1639; 1742; 1630; 1851; 1716; 1568; 1583; 2329; 2396; 1714; 1250; 1310; 1634; 2062; 2077; 1763; 1191; 2033; 1670; 1686; 1740; 1693; 1713; 1702; 1688; 5; 5; 5; 5; 6; 6; 1707; 1710; 1660; 1548; 1653; 1674; 1635; 1309;NONE;TRUE;TRUE;TRUE;TRUE;TRUE;TRUE;TRUE;TRUE;TRUE;TRUE;TRUE;TRUE;TRUE;TRUE;FALSE;TRUE;FALSE;FALSE;FALSE;FALSE;TRUE;TRUE;
SATNOGS;2022-11-17 23:32:43;SAFE; 284609294; 1605; 1595; 1593; 8; 2496; 1804; 730; 1090; 3220; 2103; 667; 489; 1231; 737; 1750; 1623; 1682; 1666; 1629; 1639; 1742; 1630; 1851; 1716; 1568; 1583; 2329; 2396; 1714; 1250; 1310; 1634; 2062; 2077; 1763; 1191; 2033; 1670; 1686; 1740; 1693; 1713; 1702; 1688; 5; 5; 5; 5; 6; 6; 1707; 1710; 1660; 1548; 1653; 1674; 1635; 1309;NONE;TRUE;TRUE;TRUE;TRUE;TRUE;TRUE;TRUE;TRUE;TRUE;TRUE;TRUE;TRUE;TRUE;TRUE;FALSE;TRUE;FALSE;FALSE;FALSE;FALSE;TRUE;TRUE;
SATNOGS;2022-11-17 23:32:23;SAFE; 284609294; 1605; 1595; 1593; 8; 2496; 1804; 730; 1090; 3220; 2103; 667; 489; 1231; 737; 1750; 1623; 1682; 1666; 1629; 1639; 1742; 1630; 1851; 1716; 1568; 1583; 2329; 2396; 1714; 1250; 1310; 1634; 2062; 2077; 1763; 1191; 2033; 1670; 1686; 1740; 1693; 1713; 1702; 1688; 5; 5; 5; 5; 6; 6; 1707; 1710; 1660; 1548; 1653; 1674; 1635; 1309;NONE;TRUE;TRUE;TRUE;TRUE;TRUE;TRUE;TRUE;TRUE;TRUE;TRUE;TRUE;TRUE;TRUE;TRUE;FALSE;TRUE;FALSE;FALSE;FALSE;FALSE;TRUE;TRUE;
SATNOGS;2022-11-17 23:32:23;SAFE; 284609294; 1605; 1595; 1593; 8; 2496; 1804; 730; 1090; 3220; 2103; 667; 489; 1231; 737; 1750; 1623; 1682; 1666; 1629; 1639; 1742; 1630; 1851; 1716; 1568; 1583; 2329; 2396; 1714; 1250; 1310; 1634; 2062; 2077; 1763; 1191; 2033; 1670; 1686; 1740; 1693; 1713; 1702; 1688; 5; 5; 5; 5; 6; 6; 1707; 1710; 1660; 1548; 1653; 1674; 1635; 1309;NONE;TRUE;TRUE;TRUE;TRUE;TRUE;TRUE;TRUE;TRUE;TRUE;TRUE;TRUE;TRUE;TRUE;TRUE;FALSE;TRUE;FALSE;FALSE;FALSE;FALSE;TRUE;TRUE;
SATNOGS;2022-11-17 23:32:03;SAFE; 284609294; 1605; 1595; 1593; 8; 2496; 1804; 730; 1090; 3220; 2103; 667; 489; 1231; 737; 1750; 1623; 1682; 1666; 1629; 1639; 1742; 1630; 1851; 1716; 1568; 1583; 2329; 2396; 1714; 1250; 1310; 1634; 2062; 2077; 1763; 1191; 2033; 1670; 1686; 1740; 1693; 1713; 1702; 1688; 5; 5; 5; 5; 6; 6; 1707; 1710; 1660; 1548; 1653; 1674; 1635; 1309;NONE;TRUE;TRUE;TRUE;TRUE;TRUE;TRUE;TRUE;TRUE;TRUE;TRUE;TRUE;TRUE;TRUE;TRUE;FALSE;TRUE;FALSE;FALSE;FALSE;FALSE;TRUE;TRUE;
SATNOGS;2022-11-17 23:32:03;SAFE; 284609294; 1605; 1595; 1593; 8; 2496; 1804; 730; 1090; 3220; 2103; 667; 489; 1231; 737; 1750; 1623; 1682; 1666; 1629; 1639; 1742; 1630; 1851; 1716; 1568; 1583; 2329; 2396; 1714; 1250; 1310; 1634; 2062; 2077; 1763; 1191; 2033; 1670; 1686; 1740; 1693; 1713; 1702; 1688; 5; 5; 5; 5; 6; 6; 1707; 1710; 1660; 1548; 1653; 1674; 1635; 1309;NONE;TRUE;TRUE;TRUE;TRUE;TRUE;TRUE;TRUE;TRUE;TRUE;TRUE;TRUE;TRUE;TRUE;TRUE;FALSE;TRUE;FALSE;FALSE;FALSE;FALSE;TRUE;TRUE;
SATNOGS;2022-11-17 22:02:07;SAFE; 284587242; 1666; 1663; 1652; 8; 2419; 1799; 730; 1091; 3218; 2105; 607; 476; 1246; 737; 1744; 1615; 1677; 1657; 1623; 1630; 1749; 1627; 1850; 1715; 1574; 1586; 2316; 2374; 1712; 1095; 1439; 1652; 2201; 1984; 1791; 1032; 1967; 1678; 1685; 1742; 1693; 1712; 1698; 1688; 5; 5; 5; 5; 5; 6; 1704; 1708; 1663; 1543; 1657; 1667; 1637; 1299;NONE;TRUE;TRUE;TRUE;TRUE;TRUE;TRUE;TRUE;TRUE;TRUE;TRUE;TRUE;TRUE;TRUE;TRUE;FALSE;TRUE;FALSE;FALSE;FALSE;FALSE;TRUE;TRUE;
SATNOGS;2022-11-17 22:01:46;SAFE; 284586997; 1665; 1663; 1651; 8; 2422; 1808; 730; 1090; 3219; 2106; 665; 484; 1236; 654; 1744; 1618; 1678; 1660; 1625; 1633; 1748; 1628; 1848; 1716; 1577; 1587; 2319; 2379; 1714; 1113; 1389; 1642; 2193; 1948; 1809; 1043; 1954; 1691; 1686; 1745; 1693; 1713; 1699; 1689; 6; 6; 5; 5; 6; 6; 1704; 1709; 1663; 1545; 1657; 1669; 1636; 1303;NONE;TRUE;TRUE;TRUE;TRUE;TRUE;TRUE;TRUE;TRUE;TRUE;TRUE;TRUE;TRUE;TRUE;TRUE;FALSE;TRUE;FALSE;FALSE;FALSE;FALSE;TRUE;TRUE;
SATNOGS;2022-11-17 22:01:07;SAFE; 284586997; 1665; 1663; 1651; 8; 2422; 1808; 730; 1090; 3219; 2106; 665; 484; 1236; 654; 1744; 1618; 1678; 1660; 1625; 1633; 1748; 1628; 1848; 1716; 1577; 1587; 2319; 2379; 1714; 1113; 1389; 1642; 2193; 1948; 1809; 1043; 1954; 1691; 1686; 1745; 1693; 1713; 1699; 1689; 6; 6; 5; 5; 6; 6; 1704; 1709; 1663; 1545; 1657; 1669; 1636; 1303;NONE;TRUE;TRUE;TRUE;TRUE;TRUE;TRUE;TRUE;TRUE;TRUE;TRUE;TRUE;TRUE;TRUE;TRUE;FALSE;TRUE;FALSE;FALSE;FALSE;FALSE;TRUE;TRUE;
SATNOGS;2022-11-17 22:00:26;SAFE; 284586752; 1663; 1662; 1652; 8; 2423; 1800; 729; 1090; 3218; 2104; 501; 495; 1251; 618; 1746; 1620; 1680; 1661; 1627; 1634; 1747; 1630; 1849; 1711; 1568; 1587; 2326; 2386; 1713; 1145; 1346; 1656; 2164; 2019; 1772; 1081; 2022; 1682; 1687; 1743; 1694; 1714; 1701; 1688; 4; 5; 5; 5; 6; 5; 1707; 1710; 1664; 1548; 1657; 1670; 1637; 1304;NONE;TRUE;TRUE;TRUE;TRUE;TRUE;TRUE;TRUE;TRUE;TRUE;TRUE;TRUE;TRUE;TRUE;TRUE;FALSE;TRUE;FALSE;FALSE;FALSE;FALSE;TRUE;TRUE;
SATNOGS;2022-11-17 21:57:45;SAFE; 284586017; 1662; 1660; 1649; 8; 2427; 1809; 729; 1091; 3219; 2103; 586; 480; 1222; 693; 1744; 1627; 1685; 1669; 1633; 1643; 1744; 1630; 1849; 1715; 1559; 1587; 2342; 2407; 1717; 1255; 1340; 1640; 2051; 2097; 1757; 1202; 2058; 1660; 1690; 1744; 1697; 1717; 1705; 1691; 5; 5; 5; 5; 6; 6; 1709; 1713; 1664; 1553; 1658; 1677; 1638; 1313;NONE;TRUE;TRUE;TRUE;TRUE;TRUE;TRUE;TRUE;TRUE;TRUE;TRUE;TRUE;TRUE;TRUE;TRUE;FALSE;TRUE;FALSE;FALSE;FALSE;FALSE;TRUE;TRUE;
SATNOGS;2022-11-17 21:57:25;SAFE; 284586017; 1662; 1660; 1649; 8; 2427; 1809; 729; 1091; 3219; 2103; 586; 480; 1222; 693; 1744; 1627; 1685; 1669; 1633; 1643; 1744; 1630; 1849; 1715; 1559; 1587; 2342; 2407; 1717; 1255; 1340; 1640; 2051; 2097; 1757; 1202; 2058; 1660; 1690; 1744; 1697; 1717; 1705; 1691; 5; 5; 5; 5; 6; 6; 1709; 1713; 1664; 1553; 1658; 1677; 1638; 1313;NONE;TRUE;TRUE;TRUE;TRUE;TRUE;TRUE;TRUE;TRUE;TRUE;TRUE;TRUE;TRUE;TRUE;TRUE;FALSE;TRUE;FALSE;FALSE;FALSE;FALSE;TRUE;TRUE;
SATNOGS;2022-11-17 21:56:26;SAFE; 284585772; 1661; 1660; 1649; 8; 2426; 1801; 731; 1090; 3218; 2104; 862; 527; 1253; 724; 1744; 1628; 1688; 1671; 1635; 1644; 1746; 1626; 1849; 1716; 1569; 1587; 2346; 2414; 1717; 1289; 1398; 1604; 2024; 1991; 1738; 1228; 1965; 1644; 1692; 1744; 1698; 1718; 1705; 1693; 5; 5; 5; 5; 6; 6; 1710; 1714; 1664; 1556; 1657; 1679; 1639; 1317;NONE;TRUE;TRUE;TRUE;TRUE;TRUE;TRUE;TRUE;TRUE;TRUE;TRUE;TRUE;TRUE;TRUE;TRUE;FALSE;TRUE;FALSE;FALSE;FALSE;FALSE;TRUE;TRUE;
SATNOGS;2022-11-17 11:15:54;SAFE; 284428970; 1642; 1640; 1629; 8; 2444; 1802; 729; 1090; 3218; 2104; 751; 476; 1239; 677; 1748; 1622; 1734; 1724; 1622; 1649; 1754; 2099; 2818; 1831; 1612; 1586; 2274; 2330; 1707; 1991; 2061; 1651; 1285; 1408; 1614; 2034; 1347; 1677; 1685; 1741; 1686; 1707; 1703; 1686; 6; 1048; 583; 69; 166; 571; 1695; 1698; 1663; 1533; 1657; 1660; 1635; 1297;NONE;TRUE;TRUE;TRUE;TRUE;TRUE;TRUE;TRUE;TRUE;TRUE;TRUE;TRUE;TRUE;TRUE;TRUE;FALSE;TRUE;FALSE;FALSE;FALSE;FALSE;TRUE;TRUE;
SATNOGS;2022-11-17 11:15:46;SAFE; 284428725; 1643; 1639; 1631; 8; 2446; 1809; 730; 1091; 3216; 2105; 570; 500; 1240; 718; 1749; 1620; 1730; 1721; 1620; 1647; 1803; 1989; 3095; 1723; 1799; 1586; 2275; 2329; 1707; 1950; 1988; 1678; 1309; 1473; 1616; 1999; 1407; 1685; 1684; 1742; 1686; 1707; 1704; 1686; 53; 656; 1121; 9; 208; 211; 1695; 1700; 1663; 1533; 1656; 1660; 1636; 1296;NONE;TRUE;TRUE;TRUE;TRUE;TRUE;TRUE;TRUE;TRUE;TRUE;TRUE;TRUE;TRUE;TRUE;TRUE;FALSE;TRUE;FALSE;FALSE;FALSE;FALSE;TRUE;TRUE;
SATNOGS;2022-11-17 11:15:25;SAFE; 284428725; 1643; 1639; 1631; 8; 2446; 1809; 730; 1091; 3216; 2105; 570; 500; 1240; 718; 1749; 1620; 1730; 1721; 1620; 1647; 1803; 1989; 3095; 1723; 1799; 1586; 2275; 2329; 1707; 1950; 1988; 1678; 1309; 1473; 1616; 1999; 1407; 1685; 1684; 1742; 1686; 1707; 1704; 1686; 53; 656; 1121; 9; 208; 211; 1695; 1700; 1663; 1533; 1656; 1660; 1636; 1296;NONE;TRUE;TRUE;TRUE;TRUE;TRUE;TRUE;TRUE;TRUE;TRUE;TRUE;TRUE;TRUE;TRUE;TRUE;FALSE;TRUE;FALSE;FALSE;FALSE;FALSE;TRUE;TRUE;
SATNOGS;2022-11-17 11:15:14;SAFE; 284428725; 1643; 1639; 1631; 8; 2446; 1809; 730; 1091; 3216; 2105; 570; 500; 1240; 718; 1749; 1620; 1730; 1721; 1620; 1647; 1803; 1989; 3095; 1723; 1799; 1586; 2275; 2329; 1707; 1950; 1988; 1678; 1309; 1473; 1616; 1999; 1407; 1685; 1684; 1742; 1686; 1707; 1704; 1686; 53; 656; 1121; 9; 208; 211; 1695; 1700; 1663; 1533; 1656; 1660; 1636; 1296;NONE;TRUE;TRUE;TRUE;TRUE;TRUE;TRUE;TRUE;TRUE;TRUE;TRUE;TRUE;TRUE;TRUE;TRUE;FALSE;TRUE;FALSE;FALSE;FALSE;FALSE;TRUE;TRUE;
SATNOGS;2022-11-17 11:15:06;SAFE; 284428725; 1643; 1639; 1631; 8; 2446; 1809; 730; 1091; 3216; 2105; 570; 500; 1240; 718; 1749; 1620; 1730; 1721; 1620; 1647; 1803; 1989; 3095; 1723; 1799; 1586; 2275; 2329; 1707; 1950; 1988; 1678; 1309; 1473; 1616; 1999; 1407; 1685; 1684; 1742; 1686; 1707; 1704; 1686; 53; 656; 1121; 9; 208; 211; 1695; 1700; 1663; 1533; 1656; 1660; 1636; 1296;NONE;TRUE;TRUE;TRUE;TRUE;TRUE;TRUE;TRUE;TRUE;TRUE;TRUE;TRUE;TRUE;TRUE;TRUE;FALSE;TRUE;FALSE;FALSE;FALSE;FALSE;TRUE;TRUE;
SATNOGS;2022-11-17 11:14:54;SAFE; 284428725; 1643; 1639; 1631; 8; 2446; 1809; 730; 1091; 3216; 2105; 570; 500; 1240; 718; 1749; 1620; 1730; 1721; 1620; 1647; 1803; 1989; 3095; 1723; 1799; 1586; 2275; 2329; 1707; 1950; 1988; 1678; 1309; 1473; 1616; 1999; 1407; 1685; 1684; 1742; 1686; 1707; 1704; 1686; 53; 656; 1121; 9; 208; 211; 1695; 1700; 1663; 1533; 1656; 1660; 1636; 1296;NONE;TRUE;TRUE;TRUE;TRUE;TRUE;TRUE;TRUE;TRUE;TRUE;TRUE;TRUE;TRUE;TRUE;TRUE;FALSE;TRUE;FALSE;FALSE;FALSE;FALSE;TRUE;TRUE;
SATNOGS;2022-11-17 11:14:45;SAFE; 284428480; 1641; 1639; 1628; 8; 2432; 1808; 729; 1090; 3215; 2105; 635; 504; 1226; 627; 1747; 1619; 1728; 1718; 1618; 1645; 1766; 2804; 1933; 1755; 1659; 1587; 2276; 2330; 1707; 1898; 1854; 1669; 1364; 1539; 1637; 1933; 1474; 1699; 1685; 1743; 1688; 1708; 1703; 1687; 11; 1440; 82; 12; 211; 132; 1695; 1700; 1663; 1533; 1656; 1660; 1635; 1294;NONE;TRUE;TRUE;TRUE;TRUE;TRUE;TRUE;TRUE;TRUE;TRUE;TRUE;TRUE;TRUE;TRUE;TRUE;FALSE;TRUE;FALSE;FALSE;FALSE;FALSE;TRUE;TRUE;
SATNOGS;2022-11-17 11:14:34;SAFE; 284428480; 1641; 1639; 1628; 8; 2432; 1808; 729; 1090; 3215; 2105; 635; 504; 1226; 627; 1747; 1619; 1728; 1718; 1618; 1645; 1766; 2804; 1933; 1755; 1659; 1587; 2276; 2330; 1707; 1898; 1854; 1669; 1364; 1539; 1637; 1933; 1474; 1699; 1685; 1743; 1688; 1708; 1703; 1687; 11; 1440; 82; 12; 211; 132; 1695; 1700; 1663; 1533; 1656; 1660; 1635; 1294;NONE;TRUE;TRUE;TRUE;TRUE;TRUE;TRUE;TRUE;TRUE;TRUE;TRUE;TRUE;TRUE;TRUE;TRUE;FALSE;TRUE;FALSE;FALSE;FALSE;FALSE;TRUE;TRUE;
SATNOGS;2022-11-17 11:14:26;SAFE; 284428480; 1641; 1639; 1628; 8; 2432; 1808; 729; 1090; 3215; 2105; 635; 504; 1226; 627; 1747; 1619; 1728; 1718; 1618; 1645; 1766; 2804; 1933; 1755; 1659; 1587; 2276; 2330; 1707; 1898; 1854; 1669; 1364; 1539; 1637; 1933; 1474; 1699; 1685; 1743; 1688; 1708; 1703; 1687; 11; 1440; 82; 12; 211; 132; 1695; 1700; 1663; 1533; 1656; 1660; 1635; 1294;NONE;TRUE;TRUE;TRUE;TRUE;TRUE;TRUE;TRUE;TRUE;TRUE;TRUE;TRUE;TRUE;TRUE;TRUE;FALSE;TRUE;FALSE;FALSE;FALSE;FALSE;TRUE;TRUE;
SATNOGS;2022-11-17 11:14:06;SAFE; 284428480; 1641; 1639; 1628; 8; 2432; 1808; 729; 1090; 3215; 2105; 635; 504; 1226; 627; 1747; 1619; 1728; 1718; 1618; 1645; 1766; 2804; 1933; 1755; 1659; 1587; 2276; 2330; 1707; 1898; 1854; 1669; 1364; 1539; 1637; 1933; 1474; 1699; 1685; 1743; 1688; 1708; 1703; 1687; 11; 1440; 82; 12; 211; 132; 1695; 1700; 1663; 1533; 1656; 1660; 1635; 1294;NONE;TRUE;TRUE;TRUE;TRUE;TRUE;TRUE;TRUE;TRUE;TRUE;TRUE;TRUE;TRUE;TRUE;TRUE;FALSE;TRUE;FALSE;FALSE;FALSE;FALSE;TRUE;TRUE;
SATNOGS;2022-11-17 11:13:34;SAFE; 284428235; 1642; 1639; 1628; 8; 2440; 1804; 730; 1090; 3218; 2105; 587; 508; 1251; 670; 1749; 1618; 1726; 1715; 1616; 1642; 1756; 2064; 3367; 1759; 1563; 1587; 2279; 2332; 1708; 1842; 1792; 1681; 1413; 1614; 1648; 1875; 1546; 1693; 1685; 1743; 1688; 1708; 1703; 1686; 6; 723; 1190; 44; 6; 166; 1697; 1701; 1664; 1533; 1657; 1659; 1636; 1292;NONE;TRUE;TRUE;TRUE;TRUE;TRUE;TRUE;TRUE;TRUE;TRUE;TRUE;TRUE;TRUE;TRUE;TRUE;FALSE;TRUE;FALSE;FALSE;FALSE;FALSE;TRUE;TRUE;
SATNOGS;2022-11-16 22:15:26;SAFE; 284237629; 1679; 1678; 1667; 8; 2490; 1806; 730; 1090; 3218; 2104; 596; 498; 1243; 689; 1750; 1628; 1689; 1673; 1636; 1646; 1740; 1622; 1840; 1705; 1570; 1588; 2359; 2432; 1719; 1208; 1369; 1638; 2095; 2046; 1764; 1148; 2034; 1658; 1692; 1745; 1699; 1720; 1707; 1693; 5; 5; 5; 5; 6; 6; 1714; 1716; 1661; 1557; 1655; 1683; 1636; 1300;BATT_WBH;TRUE;TRUE;TRUE;TRUE;TRUE;TRUE;TRUE;TRUE;TRUE;TRUE;TRUE;TRUE;TRUE;TRUE;FALSE;TRUE;FALSE;FALSE;FALSE;FALSE;TRUE;TRUE;
SATNOGS;2022-11-16 22:15:06;SAFE; 284237629; 1679; 1678; 1667; 8; 2490; 1806; 730; 1090; 3218; 2104; 596; 498; 1243; 689; 1750; 1628; 1689; 1673; 1636; 1646; 1740; 1622; 1840; 1705; 1570; 1588; 2359; 2432; 1719; 1208; 1369; 1638; 2095; 2046; 1764; 1148; 2034; 1658; 1692; 1745; 1699; 1720; 1707; 1693; 5; 5; 5; 5; 6; 6; 1714; 1716; 1661; 1557; 1655; 1683; 1636; 1300;BATT_WBH;TRUE;TRUE;TRUE;TRUE;TRUE;TRUE;TRUE;TRUE;TRUE;TRUE;TRUE;TRUE;TRUE;TRUE;FALSE;TRUE;FALSE;FALSE;FALSE;FALSE;TRUE;TRUE;
SATNOGS;2022-11-16 22:14:45;SAFE; 284237384; 1679; 1679; 1666; 8; 2492; 1810; 730; 1090; 3218; 2103; 672; 479; 1239; 652; 1749; 1630; 1691; 1675; 1637; 1647; 1741; 1631; 1840; 1718; 1570; 1588; 2363; 2437; 1720; 1217; 1387; 1616; 2088; 1968; 1755; 1149; 1955; 1655; 1694; 1745; 1699; 1719; 1709; 1694; 5; 5; 5; 5; 6; 6; 1714; 1717; 1662; 1558; 1656; 1684; 1636; 1304;BATT_WBH;TRUE;TRUE;TRUE;TRUE;TRUE;TRUE;TRUE;TRUE;TRUE;TRUE;TRUE;TRUE;TRUE;TRUE;FALSE;TRUE;FALSE;FALSE;FALSE;FALSE;TRUE;TRUE;
SATNOGS;2022-11-16 22:14:26;SAFE; 284237384; 1679; 1679; 1666; 8; 2492; 1810; 730; 1090; 3218; 2103; 672; 479; 1239; 652; 1749; 1630; 1691; 1675; 1637; 1647; 1741; 1631; 1840; 1718; 1570; 1588; 2363; 2437; 1720; 1217; 1387; 1616; 2088; 1968; 1755; 1149; 1955; 1655; 1694; 1745; 1699; 1719; 1709; 1694; 5; 5; 5; 5; 6; 6; 1714; 1717; 1662; 1558; 1656; 1684; 1636; 1304;BATT_WBH;TRUE;TRUE;TRUE;TRUE;TRUE;TRUE;TRUE;TRUE;TRUE;TRUE;TRUE;TRUE;TRUE;TRUE;FALSE;TRUE;FALSE;FALSE;FALSE;FALSE;TRUE;TRUE;
SATNOGS;2022-11-16 11:33:06;SAFE; 284080351; 1676; 1663; 1661; 3; 2543; 1800; 729; 1091; 3221; 2104; 464; 487; 1248; 782; 1752; 1615; 1736; 1729; 1615; 1641; 1767; 1637; 1885; 1725; 1565; 1581; 2255; 2312; 1702; 2108; 2062; 1681; 1194; 1375; 1609; 2156; 1333; 1678; 1680; 1737; 1680; 1702; 1699; 1680; 19; 548; 1230; 87; 6; 207; 1689; 1692; 1655; 1520; 1649; 1654; 1628; 1278;BATT_WBH;TRUE;TRUE;TRUE;TRUE;TRUE;TRUE;TRUE;TRUE;TRUE;TRUE;TRUE;TRUE;TRUE;TRUE;FALSE;TRUE;FALSE;FALSE;FALSE;FALSE;TRUE;TRUE;
SATNOGS;2022-11-16 11:32:46;SAFE; 284080106; 1679; 1666; 1663; 8; 2546; 1803; 730; 1091; 3220; 2103; 675; 512; 1223; 644; 1752; 1612; 1732; 1725; 1613; 1640; 1764; 1638; 1890; 1731; 1574; 1581; 2255; 2312; 1701; 2078; 1977; 1678; 1227; 1422; 1632; 2117; 1383; 1700; 1681; 1738; 1681; 1702; 1699; 1681; 85; 1381; 171; 5; 198; 24; 1689; 1693; 1656; 1520; 1650; 1653; 1627; 1278;BATT_WBH;TRUE;TRUE;TRUE;TRUE;TRUE;TRUE;TRUE;TRUE;TRUE;TRUE;TRUE;TRUE;TRUE;TRUE;FALSE;TRUE;FALSE;FALSE;FALSE;FALSE;TRUE;TRUE;
SATNOGS;2022-11-16 11:32:26;SAFE; 284080106; 1679; 1666; 1663; 8; 2546; 1803; 730; 1091; 3220; 2103; 675; 512; 1223; 644; 1752; 1612; 1732; 1725; 1613; 1640; 1764; 1638; 1890; 1731; 1574; 1581; 2255; 2312; 1701; 2078; 1977; 1678; 1227; 1422; 1632; 2117; 1383; 1700; 1681; 1738; 1681; 1702; 1699; 1681; 85; 1381; 171; 5; 198; 24; 1689; 1693; 1656; 1520; 1650; 1653; 1627; 1278;BATT_WBH;TRUE;TRUE;TRUE;TRUE;TRUE;TRUE;TRUE;TRUE;TRUE;TRUE;TRUE;TRUE;TRUE;TRUE;FALSE;TRUE;FALSE;FALSE;FALSE;FALSE;TRUE;TRUE;
SATNOGS;2022-11-16 11:32:06;SAFE; 284080106; 1679; 1666; 1663; 8; 2546; 1803; 730; 1091; 3220; 2103; 675; 512; 1223; 644; 1752; 1612; 1732; 1725; 1613; 1640; 1764; 1638; 1890; 1731; 1574; 1581; 2255; 2312; 1701; 2078; 1977; 1678; 1227; 1422; 1632; 2117; 1383; 1700; 1681; 1738; 1681; 1702; 1699; 1681; 85; 1381; 171; 5; 198; 24; 1689; 1693; 1656; 1520; 1650; 1653; 1627; 1278;BATT_WBH;TRUE;TRUE;TRUE;TRUE;TRUE;TRUE;TRUE;TRUE;TRUE;TRUE;TRUE;TRUE;TRUE;TRUE;FALSE;TRUE;FALSE;FALSE;FALSE;FALSE;TRUE;TRUE;
SATNOGS;2022-11-16 11:29:42;SAFE; 284079371; 1685; 1679; 1670; 10; 2552; 1800; 730; 1090; 3219; 2104; 679; 479; 1238; 707; 1753; 1609; 1722; 1712; 1607; 1631; 1765; 1634; 1878; 1726; 1569; 1583; 2263; 2314; 1702; 1927; 1890; 1649; 1376; 1502; 1598; 1952; 1455; 1681; 1679; 1740; 1683; 1703; 1697; 1680; 6; 1386; 16; 45; 51; 337; 1690; 1696; 1657; 1518; 1651; 1651; 1628; 1273;BATT_WBH;TRUE;TRUE;TRUE;TRUE;TRUE;TRUE;TRUE;TRUE;TRUE;TRUE;TRUE;TRUE;TRUE;TRUE;FALSE;TRUE;FALSE;FALSE;FALSE;FALSE;TRUE;TRUE;
SATNOGS;2022-11-16 11:29:22;SAFE; 284079371; 1685; 1679; 1670; 10; 2552; 1800; 730; 1090; 3219; 2104; 679; 479; 1238; 707; 1753; 1609; 1722; 1712; 1607; 1631; 1765; 1634; 1878; 1726; 1569; 1583; 2263; 2314; 1702; 1927; 1890; 1649; 1376; 1502; 1598; 1952; 1455; 1681; 1679; 1740; 1683; 1703; 1697; 1680; 6; 1386; 16; 45; 51; 337; 1690; 1696; 1657; 1518; 1651; 1651; 1628; 1273;BATT_WBH;TRUE;TRUE;TRUE;TRUE;TRUE;TRUE;TRUE;TRUE;TRUE;TRUE;TRUE;TRUE;TRUE;TRUE;FALSE;TRUE;FALSE;FALSE;FALSE;FALSE;TRUE;TRUE;
SATNOGS;2022-11-16 11:28:02;SAFE; 284079126; 1687; 1681; 1672; 8; 2555; 1805; 730; 1090; 3219; 2103; 798; 512; 1232; 799; 1754; 1609; 1718; 1708; 1607; 1630; 1109; 1115; 1169; 1115; 1079; 1583; 2267; 2317; 1703; 1869; 1844; 1709; 1424; 1545; 1653; 1894; 1501; 1713; 1678; 1740; 1684; 1703; 1695; 1681; 6; 704; 1190; 5; 48; 61; 1691; 1697; 1657; 1518; 1651; 1652; 1628; 1271;BATT_WBH;TRUE;TRUE;TRUE;TRUE;TRUE;TRUE;TRUE;TRUE;TRUE;TRUE;TRUE;TRUE;TRUE;TRUE;FALSE;TRUE;FALSE;FALSE;FALSE;FALSE;TRUE;TRUE;
SATNOGS;2022-11-16 11:27:42;SAFE; 284078881; 1687; 1683; 1673; 8; 2556; 1809; 730; 1090; 3219; 2103; 666; 496; 1214; 688; 1753; 1609; 1714; 1703; 1607; 1627; 1764; 1636; 1878; 1721; 1566; 1584; 2270; 2319; 1704; 1801; 1803; 1651; 1490; 1577; 1657; 1813; 1533; 1723; 1679; 1740; 1684; 1704; 1695; 1681; 6; 1456; 10; 7; 46; 58; 1693; 1698; 1657; 1520; 1651; 1652; 1630; 1271;BATT_WBH;TRUE;TRUE;TRUE;TRUE;TRUE;TRUE;TRUE;TRUE;TRUE;TRUE;TRUE;TRUE;TRUE;TRUE;FALSE;TRUE;FALSE;FALSE;FALSE;FALSE;TRUE;TRUE;
SATNOGS;2022-11-16 04:51:07;SAFE; 283981876; 1682; 1683; 1670; 8; 2415; 1808; 730; 1091; 3221; 2105; 507; 476; 1253; 698; 1744; 1632; 1693; 1677; 1639; 1649; 1742; 1630; 1840; 1709; 1567; 1591; 2374; 2448; 1722; 1093; 1304; 1615; 2229; 2086; 1774; 1002; 2064; 1656; 1697; 1748; 1703; 1722; 1712; 1697; 6; 5; 5; 5; 6; 5; 1718; 1719; 1664; 1555; 1658; 1686; 1639; 1299;BATT_WBH;TRUE;TRUE;TRUE;TRUE;TRUE;TRUE;TRUE;TRUE;TRUE;TRUE;TRUE;TRUE;TRUE;TRUE;FALSE;TRUE;FALSE;FALSE;FALSE;FALSE;TRUE;TRUE;
SATNOGS;2022-11-16 04:51:06;SAFE; 283981876; 1682; 1683; 1670; 8; 2415; 1808; 730; 1091; 3221; 2105; 507; 476; 1253; 698; 1744; 1632; 1693; 1677; 1639; 1649; 1742; 1630; 1840; 1709; 1567; 1591; 2374; 2448; 1722; 1093; 1304; 1615; 2229; 2086; 1774; 1002; 2064; 1656; 1697; 1748; 1703; 1722; 1712; 1697; 6; 5; 5; 5; 6; 5; 1718; 1719; 1664; 1555; 1658; 1686; 1639; 1299;BATT_WBH;TRUE;TRUE;TRUE;TRUE;TRUE;TRUE;TRUE;TRUE;TRUE;TRUE;TRUE;TRUE;TRUE;TRUE;FALSE;TRUE;FALSE;FALSE;FALSE;FALSE;TRUE;TRUE;
SATNOGS;2022-11-16 04:50:47;SAFE; 283981631; 1682; 1683; 1670; 8; 2415; 1810; 730; 1090; 3219; 2106; 764; 479; 1252; 701; 1744; 1635; 1695; 1680; 1641; 1651; 1745; 1631; 1841; 1714; 1572; 1591; 2380; 2456; 1723; 1098; 1333; 1644; 2206; 2068; 1793; 1016; 2066; 1669; 1697; 1747; 1702; 1723; 1713; 1697; 6; 5; 5; 5; 6; 6; 1719; 1720; 1665; 1556; 1659; 1687; 1639; 1304;BATT_WBH;TRUE;TRUE;TRUE;TRUE;TRUE;TRUE;TRUE;TRUE;TRUE;TRUE;TRUE;TRUE;TRUE;TRUE;FALSE;TRUE;FALSE;FALSE;FALSE;FALSE;TRUE;TRUE;
SATNOGS;2022-11-16 04:50:27;SAFE; 283981631; 1682; 1683; 1670; 8; 2415; 1810; 730; 1090; 3219; 2106; 764; 479; 1252; 701; 1744; 1635; 1695; 1680; 1641; 1651; 1745; 1631; 1841; 1714; 1572; 1591; 2380; 2456; 1723; 1098; 1333; 1644; 2206; 2068; 1793; 1016; 2066; 1669; 1697; 1747; 1702; 1723; 1713; 1697; 6; 5; 5; 5; 6; 6; 1719; 1720; 1665; 1556; 1659; 1687; 1639; 1304;BATT_WBH;TRUE;TRUE;TRUE;TRUE;TRUE;TRUE;TRUE;TRUE;TRUE;TRUE;TRUE;TRUE;TRUE;TRUE;FALSE;TRUE;FALSE;FALSE;FALSE;FALSE;TRUE;TRUE;
SATNOGS;2022-11-16 04:50:07;SAFE; 283981631; 1682; 1683; 1670; 8; 2415; 1810; 730; 1090; 3219; 2106; 764; 479; 1252; 701; 1744; 1635; 1695; 1680; 1641; 1651; 1745; 1631; 1841; 1714; 1572; 1591; 2380; 2456; 1723; 1098; 1333; 1644; 2206; 2068; 1793; 1016; 2066; 1669; 1697; 1747; 1702; 1723; 1713; 1697; 6; 5; 5; 5; 6; 6; 1719; 1720; 1665; 1556; 1659; 1687; 1639; 1304;BATT_WBH;TRUE;TRUE;TRUE;TRUE;TRUE;TRUE;TRUE;TRUE;TRUE;TRUE;TRUE;TRUE;TRUE;TRUE;FALSE;TRUE;FALSE;FALSE;FALSE;FALSE;TRUE;TRUE;
SATNOGS;2022-11-16 04:49:47;SAFE; 283981386; 1682; 1683; 1669; 5; 2417; 1808; 730; 1090; 3217; 2106; 535; 487; 1246; 695; 1745; 1637; 1699; 1682; 1643; 1654; 1740; 1628; 1839; 1710; 1568; 1592; 2385; 2462; 1724; 1130; 1298; 1621; 2183; 2054; 1778; 1043; 2049; 1661; 1698; 1747; 1703; 1725; 1713; 1699; 5; 5; 5; 5; 5; 5; 1719; 1721; 1665; 1560; 1658; 1689; 1640; 1305;BATT_WBH;TRUE;TRUE;TRUE;TRUE;TRUE;TRUE;TRUE;TRUE;TRUE;TRUE;TRUE;TRUE;TRUE;TRUE;FALSE;TRUE;FALSE;FALSE;FALSE;FALSE;TRUE;TRUE;
SATNOGS;2022-11-16 04:49:27;SAFE; 283981386; 1682; 1683; 1669; 5; 2417; 1808; 730; 1090; 3217; 2106; 535; 487; 1246; 695; 1745; 1637; 1699; 1682; 1643; 1654; 1740; 1628; 1839; 1710; 1568; 1592; 2385; 2462; 1724; 1130; 1298; 1621; 2183; 2054; 1778; 1043; 2049; 1661; 1698; 1747; 1703; 1725; 1713; 1699; 5; 5; 5; 5; 5; 5; 1719; 1721; 1665; 1560; 1658; 1689; 1640; 1305;BATT_WBH;TRUE;TRUE;TRUE;TRUE;TRUE;TRUE;TRUE;TRUE;TRUE;TRUE;TRUE;TRUE;TRUE;TRUE;FALSE;TRUE;FALSE;FALSE;FALSE;FALSE;TRUE;TRUE;
SATNOGS;2022-11-15 11:47:22;SAFE; 283730995; 1643; 1642; 1632; 8; 2471; 1806; 729; 1090; 3218; 2106; 672; 500; 1238; 800; 1752; 1620; 1719; 1706; 1618; 1639; 1774; 2048; 3374; 1718; 1689; 1586; 2279; 2328; 1706; 2073; 1973; 1688; 1181; 1435; 1616; 2139; 1370; 1694; 1683; 1742; 1686; 1707; 1700; 1684; 32; 603; 1261; 5; 18; 112; 1695; 1701; 1662; 1530; 1656; 1657; 1635; 1288;NONE;TRUE;TRUE;TRUE;TRUE;TRUE;TRUE;TRUE;TRUE;TRUE;TRUE;TRUE;TRUE;TRUE;TRUE;FALSE;TRUE;FALSE;FALSE;FALSE;FALSE;TRUE;TRUE;
SATNOGS;2022-11-15 11:47:02;SAFE; 283730995; 1643; 1642; 1632; 8; 2471; 1806; 729; 1090; 3218; 2106; 672; 500; 1238; 800; 1752; 1620; 1719; 1706; 1618; 1639; 1774; 2048; 3374; 1718; 1689; 1586; 2279; 2328; 1706; 2073; 1973; 1688; 1181; 1435; 1616; 2139; 1370; 1694; 1683; 1742; 1686; 1707; 1700; 1684; 32; 603; 1261; 5; 18; 112; 1695; 1701; 1662; 1530; 1656; 1657; 1635; 1288;NONE;TRUE;TRUE;TRUE;TRUE;TRUE;TRUE;TRUE;TRUE;TRUE;TRUE;TRUE;TRUE;TRUE;TRUE;FALSE;TRUE;FALSE;FALSE;FALSE;FALSE;TRUE;TRUE;
SATNOGS;2022-11-15 11:46:22;SAFE; 283730750; 1643; 1642; 1632; 8; 2447; 1808; 729; 1090; 3216; 2105; 668; 499; 1228; 700; 1749; 1620; 1714; 1703; 1617; 1638; 1752; 3149; 1853; 1735; 1604; 1587; 2281; 2330; 1707; 2030; 1920; 1670; 1230; 1448; 1631; 2088; 1385; 1702; 1684; 1743; 1688; 1707; 1700; 1685; 6; 1457; 13; 16; 117; 42; 1696; 1702; 1663; 1531; 1656; 1657; 1635; 1287;NONE;TRUE;TRUE;TRUE;TRUE;TRUE;TRUE;TRUE;TRUE;TRUE;TRUE;TRUE;TRUE;TRUE;TRUE;FALSE;TRUE;FALSE;FALSE;FALSE;FALSE;TRUE;TRUE;
SATNOGS;2022-11-15 11:46:02;SAFE; 283730750; 1643; 1642; 1632; 8; 2447; 1808; 729; 1090; 3216; 2105; 668; 499; 1228; 700; 1749; 1620; 1714; 1703; 1617; 1638; 1752; 3149; 1853; 1735; 1604; 1587; 2281; 2330; 1707; 2030; 1920; 1670; 1230; 1448; 1631; 2088; 1385; 1702; 1684; 1743; 1688; 1707; 1700; 1685; 6; 1457; 13; 16; 117; 42; 1696; 1702; 1663; 1531; 1656; 1657; 1635; 1287;NONE;TRUE;TRUE;TRUE;TRUE;TRUE;TRUE;TRUE;TRUE;TRUE;TRUE;TRUE;TRUE;TRUE;TRUE;FALSE;TRUE;FALSE;FALSE;FALSE;FALSE;TRUE;TRUE;
SATNOGS;2022-11-15 11:45:42;SAFE; 283730505; 1646; 1641; 1630; 9; 2459; 1806; 729; 1090; 3218; 2105; 665; 484; 1256; 687; 1750; 1620; 1712; 1699; 1616; 1637; 1750; 2135; 3353; 1719; 1558; 1586; 2285; 2333; 1707; 1974; 1931; 1673; 1271; 1488; 1631; 2035; 1424; 1698; 1683; 1743; 1688; 1707; 1699; 1686; 5; 726; 1076; 5; 5; 262; 1697; 1703; 1663; 1531; 1657; 1658; 1635; 1286;NONE;TRUE;TRUE;TRUE;TRUE;TRUE;TRUE;TRUE;TRUE;TRUE;TRUE;TRUE;TRUE;TRUE;TRUE;FALSE;TRUE;FALSE;FALSE;FALSE;FALSE;TRUE;TRUE;
SATNOGS;2022-11-15 11:45:22;SAFE; 283730505; 1646; 1641; 1630; 9; 2459; 1806; 729; 1090; 3218; 2105; 665; 484; 1256; 687; 1750; 1620; 1712; 1699; 1616; 1637; 1750; 2135; 3353; 1719; 1558; 1586; 2285; 2333; 1707; 1974; 1931; 1673; 1271; 1488; 1631; 2035; 1424; 1698; 1683; 1743; 1688; 1707; 1699; 1686; 5; 726; 1076; 5; 5; 262; 1697; 1703; 1663; 1531; 1657; 1658; 1635; 1286;NONE;TRUE;TRUE;TRUE;TRUE;TRUE;TRUE;TRUE;TRUE;TRUE;TRUE;TRUE;TRUE;TRUE;TRUE;FALSE;TRUE;FALSE;FALSE;FALSE;FALSE;TRUE;TRUE;
SATNOGS;2022-11-15 11:44:42;SAFE; 283730261; 1643; 1640; 1629; 8; 2448; 1807; 730; 1090; 3218; 2104; 676; 476; 1222; 700; 1750; 1620; 1708; 1695; 1616; 1635; 1750; 2859; 2110; 1718; 1829; 1588; 2288; 2339; 1708; 1923; 1891; 1632; 1336; 1519; 1599; 1973; 1451; 1717; 1683; 1743; 1688; 1709; 1699; 1686; 6; 1203; 102; 5; 408; 6; 1698; 1703; 1664; 1533; 1657; 1656; 1635; 1285;NONE;TRUE;TRUE;TRUE;TRUE;TRUE;TRUE;TRUE;TRUE;TRUE;TRUE;TRUE;TRUE;TRUE;TRUE;FALSE;TRUE;FALSE;FALSE;FALSE;FALSE;TRUE;TRUE;
SATNOGS;2022-11-14 22:49:21;SAFE; 283540355; 1614; 1609; 1603; 8; 2535; 1803; 730; 1090; 3219; 2102; 636; 476; 1236; 685; 1751; 1616; 1684; 1666; 1626; 1638; 1746; 1620; 1851; 1721; 1560; 1582; 2329; 2401; 1713; 1281; 1413; 1626; 2024; 1944; 1742; 1227; 1923; 1662; 1685; 1739; 1690; 1712; 1701; 1685; 5; 5; 5; 5; 6; 6; 1705; 1708; 1656; 1544; 1651; 1673; 1632; 1307;BATT_WBH;TRUE;TRUE;TRUE;TRUE;TRUE;TRUE;TRUE;TRUE;TRUE;TRUE;TRUE;TRUE;TRUE;TRUE;FALSE;TRUE;FALSE;FALSE;FALSE;FALSE;TRUE;TRUE;
SATNOGS;2022-11-14 22:49:01;SAFE; 283540355; 1614; 1609; 1603; 8; 2535; 1803; 730; 1090; 3219; 2102; 636; 476; 1236; 685; 1751; 1616; 1684; 1666; 1626; 1638; 1746; 1620; 1851; 1721; 1560; 1582; 2329; 2401; 1713; 1281; 1413; 1626; 2024; 1944; 1742; 1227; 1923; 1662; 1685; 1739; 1690; 1712; 1701; 1685; 5; 5; 5; 5; 6; 6; 1705; 1708; 1656; 1544; 1651; 1673; 1632; 1307;BATT_WBH;TRUE;TRUE;TRUE;TRUE;TRUE;TRUE;TRUE;TRUE;TRUE;TRUE;TRUE;TRUE;TRUE;TRUE;FALSE;TRUE;FALSE;FALSE;FALSE;FALSE;TRUE;TRUE;
SATNOGS;2022-11-14 22:48:41;SAFE; 283540110; 1615; 1608; 1602; 8; 2535; 1800; 729; 1090; 3220; 2104; 669; 513; 1257; 623; 1752; 1619; 1686; 1669; 1629; 1639; 1747; 1627; 1850; 1717; 1554; 1582; 2333; 2408; 1714; 1274; 1439; 1639; 2022; 1963; 1748; 1227; 1930; 1658; 1687; 1739; 1690; 1713; 1702; 1687; 6; 5; 6; 5; 5; 6; 1707; 1708; 1657; 1547; 1651; 1675; 1632; 1309;BATT_WBH;TRUE;TRUE;TRUE;TRUE;TRUE;TRUE;TRUE;TRUE;TRUE;TRUE;TRUE;TRUE;TRUE;TRUE;FALSE;TRUE;FALSE;FALSE;FALSE;FALSE;TRUE;TRUE;
SATNOGS;2022-11-14 12:06:44;SAFE; 283382778; 1665; 1660; 1652; 8; 2444; 1801; 730; 1091; 3222; 2103; 670; 483; 1230; 777; 1749; 1625; 1714; 1704; 1622; 1647; 1810; 2264; 2701; 1717; 1923; 1580; 2258; 2309; 1702; 2192; 2124; 1672; 1055; 1343; 1576; 2273; 1292; 1674; 1679; 1736; 1682; 1702; 1695; 1681; 75; 768; 791; 5; 639; 38; 1690; 1695; 1660; 1537; 1653; 1655; 1632; 1310;NONE;TRUE;TRUE;TRUE;TRUE;TRUE;TRUE;TRUE;TRUE;TRUE;TRUE;TRUE;TRUE;TRUE;TRUE;FALSE;TRUE;FALSE;FALSE;FALSE;FALSE;TRUE;TRUE;
SATNOGS;2022-11-14 12:06:44;SAFE; 283382778; 1665; 1660; 1652; 8; 2444; 1801; 730; 1091; 3222; 2103; 670; 483; 1230; 777; 1749; 1625; 1714; 1704; 1622; 1647; 1810; 2264; 2701; 1717; 1923; 1580; 2258; 2309; 1702; 2192; 2124; 1672; 1055; 1343; 1576; 2273; 1292; 1674; 1679; 1736; 1682; 1702; 1695; 1681; 75; 768; 791; 5; 639; 38; 1690; 1695; 1660; 1537; 1653; 1655; 1632; 1310;NONE;TRUE;TRUE;TRUE;TRUE;TRUE;TRUE;TRUE;TRUE;TRUE;TRUE;TRUE;TRUE;TRUE;TRUE;FALSE;TRUE;FALSE;FALSE;FALSE;FALSE;TRUE;TRUE;
SATNOGS;2022-11-14 12:06:24;SAFE; 283382778; 1665; 1660; 1652; 8; 2444; 1801; 730; 1091; 3222; 2103; 670; 483; 1230; 777; 1749; 1625; 1714; 1704; 1622; 1647; 1810; 2264; 2701; 1717; 1923; 1580; 2258; 2309; 1702; 2192; 2124; 1672; 1055; 1343; 1576; 2273; 1292; 1674; 1679; 1736; 1682; 1702; 1695; 1681; 75; 768; 791; 5; 639; 38; 1690; 1695; 1660; 1537; 1653; 1655; 1632; 1310;NONE;TRUE;TRUE;TRUE;TRUE;TRUE;TRUE;TRUE;TRUE;TRUE;TRUE;TRUE;TRUE;TRUE;TRUE;FALSE;TRUE;FALSE;FALSE;FALSE;FALSE;TRUE;TRUE;
SATNOGS;2022-11-14 12:06:24;SAFE; 283382778; 1665; 1660; 1652; 8; 2444; 1801; 730; 1091; 3222; 2103; 670; 483; 1230; 777; 1749; 1625; 1714; 1704; 1622; 1647; 1810; 2264; 2701; 1717; 1923; 1580; 2258; 2309; 1702; 2192; 2124; 1672; 1055; 1343; 1576; 2273; 1292; 1674; 1679; 1736; 1682; 1702; 1695; 1681; 75; 768; 791; 5; 639; 38; 1690; 1695; 1660; 1537; 1653; 1655; 1632; 1310;NONE;TRUE;TRUE;TRUE;TRUE;TRUE;TRUE;TRUE;TRUE;TRUE;TRUE;TRUE;TRUE;TRUE;TRUE;FALSE;TRUE;FALSE;FALSE;FALSE;FALSE;TRUE;TRUE;
SATNOGS;2022-11-14 12:06:04;SAFE; 283382778; 1665; 1660; 1652; 8; 2444; 1801; 730; 1091; 3222; 2103; 670; 483; 1230; 777; 1749; 1625; 1714; 1704; 1622; 1647; 1810; 2264; 2701; 1717; 1923; 1580; 2258; 2309; 1702; 2192; 2124; 1672; 1055; 1343; 1576; 2273; 1292; 1674; 1679; 1736; 1682; 1702; 1695; 1681; 75; 768; 791; 5; 639; 38; 1690; 1695; 1660; 1537; 1653; 1655; 1632; 1310;NONE;TRUE;TRUE;TRUE;TRUE;TRUE;TRUE;TRUE;TRUE;TRUE;TRUE;TRUE;TRUE;TRUE;TRUE;FALSE;TRUE;FALSE;FALSE;FALSE;FALSE;TRUE;TRUE;
SATNOGS;2022-11-14 12:06:04;SAFE; 283382778; 1665; 1660; 1652; 8; 2444; 1801; 730; 1091; 3222; 2103; 670; 483; 1230; 777; 1749; 1625; 1714; 1704; 1622; 1647; 1810; 2264; 2701; 1717; 1923; 1580; 2258; 2309; 1702; 2192; 2124; 1672; 1055; 1343; 1576; 2273; 1292; 1674; 1679; 1736; 1682; 1702; 1695; 1681; 75; 768; 791; 5; 639; 38; 1690; 1695; 1660; 1537; 1653; 1655; 1632; 1310;NONE;TRUE;TRUE;TRUE;TRUE;TRUE;TRUE;TRUE;TRUE;TRUE;TRUE;TRUE;TRUE;TRUE;TRUE;FALSE;TRUE;FALSE;FALSE;FALSE;FALSE;TRUE;TRUE;
SATNOGS;2022-11-14 12:03:42;SAFE; 283382043; 1662; 1659; 1651; 7; 2425; 1797; 729; 1090; 3220; 2103; 672; 492; 1223; 686; 1748; 1620; 1705; 1693; 1618; 1641; 1750; 2961; 1893; 1714; 1878; 1581; 2266; 2302; 1703; 2129; 2041; 1655; 1128; 1375; 1588; 2204; 1323; 1691; 1680; 1739; 1685; 1703; 1694; 1682; 5; 1206; 56; 5; 651; 6; 1692; 1697; 1661; 1536; 1655; 1654; 1632; 1305;NONE;TRUE;TRUE;TRUE;TRUE;TRUE;TRUE;TRUE;TRUE;TRUE;TRUE;TRUE;TRUE;TRUE;TRUE;FALSE;TRUE;FALSE;FALSE;FALSE;FALSE;TRUE;TRUE;
SATNOGS;2022-11-14 12:03:22;SAFE; 283382043; 1662; 1659; 1651; 7; 2425; 1797; 729; 1090; 3220; 2103; 672; 492; 1223; 686; 1748; 1620; 1705; 1693; 1618; 1641; 1750; 2961; 1893; 1714; 1878; 1581; 2266; 2302; 1703; 2129; 2041; 1655; 1128; 1375; 1588; 2204; 1323; 1691; 1680; 1739; 1685; 1703; 1694; 1682; 5; 1206; 56; 5; 651; 6; 1692; 1697; 1661; 1536; 1655; 1654; 1632; 1305;NONE;TRUE;TRUE;TRUE;TRUE;TRUE;TRUE;TRUE;TRUE;TRUE;TRUE;TRUE;TRUE;TRUE;TRUE;FALSE;TRUE;FALSE;FALSE;FALSE;FALSE;TRUE;TRUE;
SATNOGS;2022-11-14 12:03:02;SAFE; 283382043; 1662; 1659; 1651; 7; 2425; 1797; 729; 1090; 3220; 2103; 672; 492; 1223; 686; 1748; 1620; 1705; 1693; 1618; 1641; 1750; 2961; 1893; 1714; 1878; 1581; 2266; 2302; 1703; 2129; 2041; 1655; 1128; 1375; 1588; 2204; 1323; 1691; 1680; 1739; 1685; 1703; 1694; 1682; 5; 1206; 56; 5; 651; 6; 1692; 1697; 1661; 1536; 1655; 1654; 1632; 1305;NONE;TRUE;TRUE;TRUE;TRUE;TRUE;TRUE;TRUE;TRUE;TRUE;TRUE;TRUE;TRUE;TRUE;TRUE;FALSE;TRUE;FALSE;FALSE;FALSE;FALSE;TRUE;TRUE;
SATNOGS;2022-11-14 12:02:42;SAFE; 283381798; 1663; 1658; 1650; 8; 2426; 1802; 730; 1090; 3221; 2104; 672; 508; 1257; 692; 1746; 1621; 1701; 1690; 1616; 1638; 1741; 2745; 2260; 1727; 1570; 1582; 2271; 2320; 1704; 2098; 2013; 1630; 1166; 1404; 1571; 2164; 1345; 1683; 1679; 1738; 1684; 1704; 1693; 1682; 6; 1210; 15; 13; 6; 829; 1693; 1699; 1661; 1537; 1654; 1655; 1634; 1303;NONE;TRUE;TRUE;TRUE;TRUE;TRUE;TRUE;TRUE;TRUE;TRUE;TRUE;TRUE;TRUE;TRUE;TRUE;FALSE;TRUE;FALSE;FALSE;FALSE;FALSE;TRUE;TRUE;
