Source;Received;Operating_Mode;Misison_Clock;BATT_TBAT1_TM;BATT_TBAT2_TM;BATT_TBAT3_TM;RESERVED;BATT_VBAT_TM;PSU_T_TM;P3V3_TM;P5V_TM;P15V_TM;N15V_TM;PSU_IP5V_TM;PSU_IP15V_TM;PSU_IN15V_TM;PSU_IP3V3_TM;PDU_IVBUS_TM;PV_TPSXP_TM;PV_TPSXN_TM;PV_TPSYP_TM;PV_TPSYN_TM;PV_TPSZP_TM;PV_ISPXP_TM;PV_ISPXN_TM;PV_ISPYP_TM;PV_ISPYN_TM;PV_ISPZP_TM;OBC_T_TM;MGM1_T_TM;MGM2_T_TM;MGM3_T_TM;MGM1_X_TM;MGM1_Y_TM;MGM1_Z_TM;MGM2_X_TM;MGM2_Y_TM;MGM2_Z_TM;MGM3_X_TM;MGM3_Y_TM;MGM3_Z_TM;MGT_TX_TM;MODEM_T_TR_TM;EBOX_T_INT_TM;EBOX_T_EXT_TM;BATT_T_EXT_TM;BATT_T_INT_TM;SS6_XP_TM;SS6_XN_TM;SS6_YP_TM;SS6_YN_TM;SS6_ZP_TM;SS6_ZN_TM;RW1_T_TM;RW2_T_TM;TP1_TM;TP2_TM;TP3_TM;TP4_TM;TP5_TM;TP6_TM;Battery_Warning;DAS_P3V;DAS_P5V;DAS_P15V;DAS_N15V;PDU_P3V3;PDU_P5V;MGM1_P5V;MGM2_P5V;MGM3_P15V;MGM3_N15V;MGT_X_VBUS;TEMP_A_P5V;TEMP_B_P5V;MODEM_VBUS;RW_P5V;RW_VBUS;MTS_VBUS;BOOM1_VBUS;BOOM2_VBUS;TTC_STAT;SMA_SB01;SMA_SB02;
SATNOGS;2022-12-04 12:33:55;SAFE; 290451802; 1671; 1666; 1658; 8; 2441; 1799; 730; 1091; 3219; 2102; 472; 490; 1246; 695; 1748; 1627; 1712; 1704; 1624; 1650; 1769; 2121; 2728; 1836; 1568; 1580; 2257; 2308; 1701; 2200; 2148; 1661; 1044; 1341; 1566; 2275; 1291; 1658; 1680; 1737; 1682; 1702; 1695; 1682; 12; 680; 782; 25; 6; 876; 1690; 1695; 1660; 1538; 1654; 1656; 1634; 1311;NONE;TRUE;TRUE;TRUE;TRUE;TRUE;TRUE;TRUE;TRUE;TRUE;TRUE;TRUE;TRUE;TRUE;TRUE;FALSE;TRUE;FALSE;FALSE;FALSE;FALSE;TRUE;TRUE;
SATNOGS;2022-12-04 12:33:55;SAFE; 290451802; 1671; 1666; 1658; 8; 2441; 1799; 730; 1091; 3219; 2102; 472; 490; 1246; 695; 1748; 1627; 1712; 1704; 1624; 1650; 1769; 2121; 2728; 1836; 1568; 1580; 2257; 2308; 1701; 2200; 2148; 1661; 1044; 1341; 1566; 2275; 1291; 1658; 1680; 1737; 1682; 1702; 1695; 1682; 12; 680; 782; 25; 6; 876; 1690; 1695; 1660; 1538; 1654; 1656; 1634; 1311;NONE;TRUE;TRUE;TRUE;TRUE;TRUE;TRUE;TRUE;TRUE;TRUE;TRUE;TRUE;TRUE;TRUE;TRUE;FALSE;TRUE;FALSE;FALSE;FALSE;FALSE;TRUE;TRUE;
SATNOGS;2022-12-04 12:33:37;SAFE; 290451557; 1670; 1665; 1657; 9; 2449; 1804; 730; 1090; 3219; 2102; 666; 492; 1232; 649; 1750; 1624; 1710; 1703; 1623; 1648; 1808; 2243; 2529; 1720; 1942; 1581; 2261; 2310; 1702; 2199; 2133; 1669; 1041; 1339; 1574; 2282; 1293; 1671; 1679; 1738; 1683; 1702; 1695; 1682; 75; 646; 921; 5; 676; 35; 1690; 1696; 1660; 1537; 1655; 1656; 1633; 1309;NONE;TRUE;TRUE;TRUE;TRUE;TRUE;TRUE;TRUE;TRUE;TRUE;TRUE;TRUE;TRUE;TRUE;TRUE;FALSE;TRUE;FALSE;FALSE;FALSE;FALSE;TRUE;TRUE;
SATNOGS;2022-12-04 12:33:37;SAFE; 290451557; 1670; 1665; 1657; 9; 2449; 1804; 730; 1090; 3219; 2102; 666; 492; 1232; 649; 1750; 1624; 1710; 1703; 1623; 1648; 1808; 2243; 2529; 1720; 1942; 1581; 2261; 2310; 1702; 2199; 2133; 1669; 1041; 1339; 1574; 2282; 1293; 1671; 1679; 1738; 1683; 1702; 1695; 1682; 75; 646; 921; 5; 676; 35; 1690; 1696; 1660; 1537; 1655; 1656; 1633; 1309;NONE;TRUE;TRUE;TRUE;TRUE;TRUE;TRUE;TRUE;TRUE;TRUE;TRUE;TRUE;TRUE;TRUE;TRUE;FALSE;TRUE;FALSE;FALSE;FALSE;FALSE;TRUE;TRUE;
SATNOGS;2022-12-04 12:33:35;SAFE; 290451557; 1670; 1665; 1657; 9; 2449; 1804; 730; 1090; 3219; 2102; 666; 492; 1232; 649; 1750; 1624; 1710; 1703; 1623; 1648; 1808; 2243; 2529; 1720; 1942; 1581; 2261; 2310; 1702; 2199; 2133; 1669; 1041; 1339; 1574; 2282; 1293; 1671; 1679; 1738; 1683; 1702; 1695; 1682; 75; 646; 921; 5; 676; 35; 1690; 1696; 1660; 1537; 1655; 1656; 1633; 1309;NONE;TRUE;TRUE;TRUE;TRUE;TRUE;TRUE;TRUE;TRUE;TRUE;TRUE;TRUE;TRUE;TRUE;TRUE;FALSE;TRUE;FALSE;FALSE;FALSE;FALSE;TRUE;TRUE;
SATNOGS;2022-12-04 12:33:35;SAFE; 290451557; 1670; 1665; 1657; 9; 2449; 1804; 730; 1090; 3219; 2102; 666; 492; 1232; 649; 1750; 1624; 1710; 1703; 1623; 1648; 1808; 2243; 2529; 1720; 1942; 1581; 2261; 2310; 1702; 2199; 2133; 1669; 1041; 1339; 1574; 2282; 1293; 1671; 1679; 1738; 1683; 1702; 1695; 1682; 75; 646; 921; 5; 676; 35; 1690; 1696; 1660; 1537; 1655; 1656; 1633; 1309;NONE;TRUE;TRUE;TRUE;TRUE;TRUE;TRUE;TRUE;TRUE;TRUE;TRUE;TRUE;TRUE;TRUE;TRUE;FALSE;TRUE;FALSE;FALSE;FALSE;FALSE;TRUE;TRUE;
SATNOGS;2022-12-04 12:33:17;SAFE; 290451557; 1670; 1665; 1657; 9; 2449; 1804; 730; 1090; 3219; 2102; 666; 492; 1232; 649; 1750; 1624; 1710; 1703; 1623; 1648; 1808; 2243; 2529; 1720; 1942; 1581; 2261; 2310; 1702; 2199; 2133; 1669; 1041; 1339; 1574; 2282; 1293; 1671; 1679; 1738; 1683; 1702; 1695; 1682; 75; 646; 921; 5; 676; 35; 1690; 1696; 1660; 1537; 1655; 1656; 1633; 1309;NONE;TRUE;TRUE;TRUE;TRUE;TRUE;TRUE;TRUE;TRUE;TRUE;TRUE;TRUE;TRUE;TRUE;TRUE;FALSE;TRUE;FALSE;FALSE;FALSE;FALSE;TRUE;TRUE;
SATNOGS;2022-12-04 12:33:17;SAFE; 290451557; 1670; 1665; 1657; 9; 2449; 1804; 730; 1090; 3219; 2102; 666; 492; 1232; 649; 1750; 1624; 1710; 1703; 1623; 1648; 1808; 2243; 2529; 1720; 1942; 1581; 2261; 2310; 1702; 2199; 2133; 1669; 1041; 1339; 1574; 2282; 1293; 1671; 1679; 1738; 1683; 1702; 1695; 1682; 75; 646; 921; 5; 676; 35; 1690; 1696; 1660; 1537; 1655; 1656; 1633; 1309;NONE;TRUE;TRUE;TRUE;TRUE;TRUE;TRUE;TRUE;TRUE;TRUE;TRUE;TRUE;TRUE;TRUE;TRUE;FALSE;TRUE;FALSE;FALSE;FALSE;FALSE;TRUE;TRUE;
SATNOGS;2022-12-04 12:33:15;SAFE; 290451557; 1670; 1665; 1657; 9; 2449; 1804; 730; 1090; 3219; 2102; 666; 492; 1232; 649; 1750; 1624; 1710; 1703; 1623; 1648; 1808; 2243; 2529; 1720; 1942; 1581; 2261; 2310; 1702; 2199; 2133; 1669; 1041; 1339; 1574; 2282; 1293; 1671; 1679; 1738; 1683; 1702; 1695; 1682; 75; 646; 921; 5; 676; 35; 1690; 1696; 1660; 1537; 1655; 1656; 1633; 1309;NONE;TRUE;TRUE;TRUE;TRUE;TRUE;TRUE;TRUE;TRUE;TRUE;TRUE;TRUE;TRUE;TRUE;TRUE;FALSE;TRUE;FALSE;FALSE;FALSE;FALSE;TRUE;TRUE;
SATNOGS;2022-12-04 12:33:15;SAFE; 290451557; 1670; 1665; 1657; 9; 2449; 1804; 730; 1090; 3219; 2102; 666; 492; 1232; 649; 1750; 1624; 1710; 1703; 1623; 1648; 1808; 2243; 2529; 1720; 1942; 1581; 2261; 2310; 1702; 2199; 2133; 1669; 1041; 1339; 1574; 2282; 1293; 1671; 1679; 1738; 1683; 1702; 1695; 1682; 75; 646; 921; 5; 676; 35; 1690; 1696; 1660; 1537; 1655; 1656; 1633; 1309;NONE;TRUE;TRUE;TRUE;TRUE;TRUE;TRUE;TRUE;TRUE;TRUE;TRUE;TRUE;TRUE;TRUE;TRUE;FALSE;TRUE;FALSE;FALSE;FALSE;FALSE;TRUE;TRUE;
SATNOGS;2022-12-04 12:32:57;SAFE; 290451557; 1670; 1665; 1657; 9; 2449; 1804; 730; 1090; 3219; 2102; 666; 492; 1232; 649; 1750; 1624; 1710; 1703; 1623; 1648; 1808; 2243; 2529; 1720; 1942; 1581; 2261; 2310; 1702; 2199; 2133; 1669; 1041; 1339; 1574; 2282; 1293; 1671; 1679; 1738; 1683; 1702; 1695; 1682; 75; 646; 921; 5; 676; 35; 1690; 1696; 1660; 1537; 1655; 1656; 1633; 1309;NONE;TRUE;TRUE;TRUE;TRUE;TRUE;TRUE;TRUE;TRUE;TRUE;TRUE;TRUE;TRUE;TRUE;TRUE;FALSE;TRUE;FALSE;FALSE;FALSE;FALSE;TRUE;TRUE;
SATNOGS;2022-12-04 12:32:57;SAFE; 290451557; 1670; 1665; 1657; 9; 2449; 1804; 730; 1090; 3219; 2102; 666; 492; 1232; 649; 1750; 1624; 1710; 1703; 1623; 1648; 1808; 2243; 2529; 1720; 1942; 1581; 2261; 2310; 1702; 2199; 2133; 1669; 1041; 1339; 1574; 2282; 1293; 1671; 1679; 1738; 1683; 1702; 1695; 1682; 75; 646; 921; 5; 676; 35; 1690; 1696; 1660; 1537; 1655; 1656; 1633; 1309;NONE;TRUE;TRUE;TRUE;TRUE;TRUE;TRUE;TRUE;TRUE;TRUE;TRUE;TRUE;TRUE;TRUE;TRUE;FALSE;TRUE;FALSE;FALSE;FALSE;FALSE;TRUE;TRUE;
SATNOGS;2022-12-04 12:32:55;SAFE; 290451557; 1670; 1665; 1657; 9; 2449; 1804; 730; 1090; 3219; 2102; 666; 492; 1232; 649; 1750; 1624; 1710; 1703; 1623; 1648; 1808; 2243; 2529; 1720; 1942; 1581; 2261; 2310; 1702; 2199; 2133; 1669; 1041; 1339; 1574; 2282; 1293; 1671; 1679; 1738; 1683; 1702; 1695; 1682; 75; 646; 921; 5; 676; 35; 1690; 1696; 1660; 1537; 1655; 1656; 1633; 1309;NONE;TRUE;TRUE;TRUE;TRUE;TRUE;TRUE;TRUE;TRUE;TRUE;TRUE;TRUE;TRUE;TRUE;TRUE;FALSE;TRUE;FALSE;FALSE;FALSE;FALSE;TRUE;TRUE;
SATNOGS;2022-12-04 12:32:55;SAFE; 290451557; 1670; 1665; 1657; 9; 2449; 1804; 730; 1090; 3219; 2102; 666; 492; 1232; 649; 1750; 1624; 1710; 1703; 1623; 1648; 1808; 2243; 2529; 1720; 1942; 1581; 2261; 2310; 1702; 2199; 2133; 1669; 1041; 1339; 1574; 2282; 1293; 1671; 1679; 1738; 1683; 1702; 1695; 1682; 75; 646; 921; 5; 676; 35; 1690; 1696; 1660; 1537; 1655; 1656; 1633; 1309;NONE;TRUE;TRUE;TRUE;TRUE;TRUE;TRUE;TRUE;TRUE;TRUE;TRUE;TRUE;TRUE;TRUE;TRUE;FALSE;TRUE;FALSE;FALSE;FALSE;FALSE;TRUE;TRUE;
SATNOGS;2022-12-04 12:32:35;SAFE; 290451312; 1670; 1665; 1657; 8; 2433; 1798; 730; 1091; 3219; 2103; 869; 488; 1231; 660; 1749; 1623; 1708; 1699; 1620; 1645; 1742; 3216; 1853; 1835; 1576; 1581; 2264; 2312; 1702; 2197; 2102; 1649; 1063; 1333; 1576; 2271; 1285; 1670; 1679; 1738; 1683; 1703; 1695; 1682; 5; 1453; 5; 69; 85; 114; 1692; 1697; 1660; 1536; 1655; 1656; 1634; 1307;NONE;TRUE;TRUE;TRUE;TRUE;TRUE;TRUE;TRUE;TRUE;TRUE;TRUE;TRUE;TRUE;TRUE;TRUE;FALSE;TRUE;FALSE;FALSE;FALSE;FALSE;TRUE;TRUE;
SATNOGS;2022-12-04 12:32:35;SAFE; 290451312; 1670; 1665; 1657; 8; 2433; 1798; 730; 1091; 3219; 2103; 869; 488; 1231; 660; 1749; 1623; 1708; 1699; 1620; 1645; 1742; 3216; 1853; 1835; 1576; 1581; 2264; 2312; 1702; 2197; 2102; 1649; 1063; 1333; 1576; 2271; 1285; 1670; 1679; 1738; 1683; 1703; 1695; 1682; 5; 1453; 5; 69; 85; 114; 1692; 1697; 1660; 1536; 1655; 1656; 1634; 1307;NONE;TRUE;TRUE;TRUE;TRUE;TRUE;TRUE;TRUE;TRUE;TRUE;TRUE;TRUE;TRUE;TRUE;TRUE;FALSE;TRUE;FALSE;FALSE;FALSE;FALSE;TRUE;TRUE;
SATNOGS;2022-12-04 10:59:37;SAFE; 290428522; 1635; 1626; 1622; 8; 2391; 1800; 730; 1091; 3222; 2101; 668; 508; 1244; 785; 1741; 1622; 1717; 1712; 1622; 1654; 1127; 1123; 1273; 1116; 1125; 1577; 2249; 2300; 1699; 2212; 2128; 1671; 1092; 1315; 1578; 2277; 1283; 1666; 1678; 1734; 1679; 1700; 1694; 1680; 23; 328; 1102; 5; 6; 644; 1688; 1691; 1655; 1534; 1650; 1656; 1630; 1309;BATT_WBH;TRUE;TRUE;TRUE;TRUE;TRUE;TRUE;TRUE;TRUE;TRUE;TRUE;TRUE;TRUE;TRUE;TRUE;FALSE;TRUE;FALSE;FALSE;FALSE;FALSE;TRUE;TRUE;
SATNOGS;2022-12-04 10:59:17;SAFE; 290428522; 1635; 1626; 1622; 8; 2391; 1800; 730; 1091; 3222; 2101; 668; 508; 1244; 785; 1741; 1622; 1717; 1712; 1622; 1654; 1127; 1123; 1273; 1116; 1125; 1577; 2249; 2300; 1699; 2212; 2128; 1671; 1092; 1315; 1578; 2277; 1283; 1666; 1678; 1734; 1679; 1700; 1694; 1680; 23; 328; 1102; 5; 6; 644; 1688; 1691; 1655; 1534; 1650; 1656; 1630; 1309;BATT_WBH;TRUE;TRUE;TRUE;TRUE;TRUE;TRUE;TRUE;TRUE;TRUE;TRUE;TRUE;TRUE;TRUE;TRUE;FALSE;TRUE;FALSE;FALSE;FALSE;FALSE;TRUE;TRUE;
SATNOGS;2022-12-04 10:58:57;SAFE; 290428522; 1635; 1626; 1622; 8; 2391; 1800; 730; 1091; 3222; 2101; 668; 508; 1244; 785; 1741; 1622; 1717; 1712; 1622; 1654; 1127; 1123; 1273; 1116; 1125; 1577; 2249; 2300; 1699; 2212; 2128; 1671; 1092; 1315; 1578; 2277; 1283; 1666; 1678; 1734; 1679; 1700; 1694; 1680; 23; 328; 1102; 5; 6; 644; 1688; 1691; 1655; 1534; 1650; 1656; 1630; 1309;BATT_WBH;TRUE;TRUE;TRUE;TRUE;TRUE;TRUE;TRUE;TRUE;TRUE;TRUE;TRUE;TRUE;TRUE;TRUE;FALSE;TRUE;FALSE;FALSE;FALSE;FALSE;TRUE;TRUE;
SATNOGS;2022-12-04 10:58:37;SAFE; 290428277; 1634; 1626; 1621; 8; 2391; 1803; 730; 1090; 3219; 2102; 670; 513; 1222; 755; 1743; 1621; 1714; 1708; 1620; 1652; 1116; 1113; 1153; 1111; 1095; 1577; 2251; 2302; 1700; 2207; 2137; 1685; 1093; 1310; 1594; 2275; 1281; 1680; 1677; 1735; 1679; 1700; 1692; 1680; 79; 816; 525; 5; 852; 9; 1689; 1694; 1656; 1534; 1650; 1655; 1629; 1308;BATT_WBH;TRUE;TRUE;TRUE;TRUE;TRUE;TRUE;TRUE;TRUE;TRUE;TRUE;TRUE;TRUE;TRUE;TRUE;FALSE;TRUE;FALSE;FALSE;FALSE;FALSE;TRUE;TRUE;
SATNOGS;2022-12-03 22:03:38;SAFE; 290238301; 1619; 1610; 1605; 7; 2424; 1801; 730; 1091; 3224; 2101; 663; 509; 1254; 655; 1744; 1612; 1668; 1650; 1619; 1630; 1746; 1630; 1849; 1706; 1549; 1577; 2295; 2357; 1705; 1581; 1706; 1622; 1697; 1782; 1621; 1567; 1725; 1671; 1679; 1734; 1685; 1705; 1692; 1680; 6; 5; 5; 5; 7; 6; 1696; 1700; 1657; 1548; 1651; 1665; 1631; 1323;NONE;TRUE;TRUE;TRUE;TRUE;TRUE;TRUE;TRUE;TRUE;TRUE;TRUE;TRUE;TRUE;TRUE;TRUE;FALSE;TRUE;FALSE;FALSE;FALSE;FALSE;TRUE;TRUE;
SATNOGS;2022-12-03 22:02:58;SAFE; 290238301; 1619; 1610; 1605; 7; 2424; 1801; 730; 1091; 3224; 2101; 663; 509; 1254; 655; 1744; 1612; 1668; 1650; 1619; 1630; 1746; 1630; 1849; 1706; 1549; 1577; 2295; 2357; 1705; 1581; 1706; 1622; 1697; 1782; 1621; 1567; 1725; 1671; 1679; 1734; 1685; 1705; 1692; 1680; 6; 5; 5; 5; 7; 6; 1696; 1700; 1657; 1548; 1651; 1665; 1631; 1323;NONE;TRUE;TRUE;TRUE;TRUE;TRUE;TRUE;TRUE;TRUE;TRUE;TRUE;TRUE;TRUE;TRUE;TRUE;FALSE;TRUE;FALSE;FALSE;FALSE;FALSE;TRUE;TRUE;
SATNOGS;2022-12-03 22:02:38;SAFE; 290238056; 1618; 1608; 1605; 8; 2424; 1799; 730; 1091; 3222; 2101; 673; 506; 1223; 625; 1744; 1614; 1671; 1652; 1621; 1633; 1744; 1625; 1846; 1713; 1569; 1578; 2299; 2365; 1706; 1537; 1687; 1620; 1743; 1778; 1639; 1521; 1747; 1686; 1680; 1735; 1686; 1706; 1693; 1682; 5; 5; 5; 4; 6; 5; 1698; 1701; 1657; 1549; 1651; 1667; 1633; 1326;NONE;TRUE;TRUE;TRUE;TRUE;TRUE;TRUE;TRUE;TRUE;TRUE;TRUE;TRUE;TRUE;TRUE;TRUE;FALSE;TRUE;FALSE;FALSE;FALSE;FALSE;TRUE;TRUE;
SATNOGS;2022-12-03 22:02:18;SAFE; 290238056; 1618; 1608; 1605; 8; 2424; 1799; 730; 1091; 3222; 2101; 673; 506; 1223; 625; 1744; 1614; 1671; 1652; 1621; 1633; 1744; 1625; 1846; 1713; 1569; 1578; 2299; 2365; 1706; 1537; 1687; 1620; 1743; 1778; 1639; 1521; 1747; 1686; 1680; 1735; 1686; 1706; 1693; 1682; 5; 5; 5; 4; 6; 5; 1698; 1701; 1657; 1549; 1651; 1667; 1633; 1326;NONE;TRUE;TRUE;TRUE;TRUE;TRUE;TRUE;TRUE;TRUE;TRUE;TRUE;TRUE;TRUE;TRUE;TRUE;FALSE;TRUE;FALSE;FALSE;FALSE;FALSE;TRUE;TRUE;
SATNOGS;2022-12-03 22:00:17;SAFE; 290237566; 1616; 1608; 1604; 8; 2427; 1792; 730; 1091; 3221; 2103; 661; 496; 1262; 671; 1744; 1617; 1675; 1658; 1624; 1638; 1744; 1625; 1846; 1713; 1562; 1578; 2310; 2378; 1708; 1459; 1595; 1666; 1833; 1867; 1735; 1428; 1824; 1686; 1681; 1735; 1686; 1708; 1696; 1682; 6; 5; 5; 5; 6; 5; 1701; 1703; 1657; 1553; 1651; 1671; 1634; 1332;NONE;TRUE;TRUE;TRUE;TRUE;TRUE;TRUE;TRUE;TRUE;TRUE;TRUE;TRUE;TRUE;TRUE;TRUE;FALSE;TRUE;FALSE;FALSE;FALSE;FALSE;TRUE;TRUE;
SATNOGS;2022-12-03 21:59:57;SAFE; 290237566; 1616; 1608; 1604; 8; 2427; 1792; 730; 1091; 3221; 2103; 661; 496; 1262; 671; 1744; 1617; 1675; 1658; 1624; 1638; 1744; 1625; 1846; 1713; 1562; 1578; 2310; 2378; 1708; 1459; 1595; 1666; 1833; 1867; 1735; 1428; 1824; 1686; 1681; 1735; 1686; 1708; 1696; 1682; 6; 5; 5; 5; 6; 5; 1701; 1703; 1657; 1553; 1651; 1671; 1634; 1332;NONE;TRUE;TRUE;TRUE;TRUE;TRUE;TRUE;TRUE;TRUE;TRUE;TRUE;TRUE;TRUE;TRUE;TRUE;FALSE;TRUE;FALSE;FALSE;FALSE;FALSE;TRUE;TRUE;
SATNOGS;2022-12-03 21:59:37;SAFE; 290237321; 1614; 1605; 1603; 7; 2426; 1798; 732; 1090; 3219; 2101; 660; 489; 1220; 731; 1744; 1619; 1679; 1662; 1626; 1640; 1740; 1627; 1847; 1708; 1561; 1576; 2312; 2383; 1708; 1420; 1562; 1666; 1865; 1899; 1701; 1387; 1852; 1682; 1682; 1736; 1688; 1709; 1698; 1683; 6; 5; 4; 5; 6; 5; 1701; 1702; 1657; 1556; 1652; 1673; 1634; 1336;NONE;TRUE;TRUE;TRUE;TRUE;TRUE;TRUE;TRUE;TRUE;TRUE;TRUE;TRUE;TRUE;TRUE;TRUE;FALSE;TRUE;FALSE;FALSE;FALSE;FALSE;TRUE;TRUE;
SATNOGS;2022-12-03 20:28:20;SAFE; 290215015; 1685; 1680; 1672; 8; 2329; 1798; 730; 1091; 3222; 2102; 670; 488; 1261; 532; 1738; 1623; 1674; 1657; 1627; 1641; 1742; 1626; 1843; 1716; 1567; 1580; 2319; 2387; 1710; 1613; 1738; 1607; 1666; 1751; 1597; 1605; 1701; 1670; 1682; 1737; 1690; 1711; 1698; 1685; 5; 5; 5; 5; 5; 5; 1703; 1707; 1660; 1558; 1654; 1673; 1636; 1332;NONE;TRUE;TRUE;TRUE;TRUE;TRUE;TRUE;TRUE;TRUE;TRUE;TRUE;TRUE;TRUE;TRUE;TRUE;FALSE;TRUE;FALSE;FALSE;FALSE;FALSE;TRUE;TRUE;
SATNOGS;2022-12-03 20:27:00;SAFE; 290214770; 1683; 1680; 1671; 8; 2329; 1799; 730; 1091; 3222; 2103; 671; 474; 1228; 834; 1738; 1625; 1677; 1660; 1629; 1643; 1742; 1632; 1844; 1712; 1563; 1580; 2324; 2393; 1710; 1566; 1704; 1623; 1713; 1742; 1646; 1551; 1728; 1702; 1684; 1736; 1690; 1711; 1698; 1685; 5; 5; 5; 5; 6; 5; 1705; 1706; 1660; 1559; 1654; 1677; 1636; 1335;NONE;TRUE;TRUE;TRUE;TRUE;TRUE;TRUE;TRUE;TRUE;TRUE;TRUE;TRUE;TRUE;TRUE;TRUE;FALSE;TRUE;FALSE;FALSE;FALSE;FALSE;TRUE;TRUE;
SATNOGS;2022-12-03 20:26:20;SAFE; 290214525; 1683; 1679; 1670; 8; 2331; 1801; 730; 1091; 3222; 2104; 620; 480; 1225; 660; 1738; 1627; 1679; 1664; 1631; 1647; 1745; 1625; 1843; 1712; 1579; 1579; 2329; 2398; 1712; 1518; 1604; 1665; 1773; 1788; 1731; 1487; 1774; 1714; 1686; 1737; 1691; 1712; 1700; 1687; 6; 5; 5; 5; 6; 6; 1706; 1708; 1661; 1563; 1655; 1679; 1637; 1338;NONE;TRUE;TRUE;TRUE;TRUE;TRUE;TRUE;TRUE;TRUE;TRUE;TRUE;TRUE;TRUE;TRUE;TRUE;FALSE;TRUE;FALSE;FALSE;FALSE;FALSE;TRUE;TRUE;
SATNOGS;2022-12-03 20:26:00;SAFE; 290214525; 1683; 1679; 1670; 8; 2331; 1801; 730; 1091; 3222; 2104; 620; 480; 1225; 660; 1738; 1627; 1679; 1664; 1631; 1647; 1745; 1625; 1843; 1712; 1579; 1579; 2329; 2398; 1712; 1518; 1604; 1665; 1773; 1788; 1731; 1487; 1774; 1714; 1686; 1737; 1691; 1712; 1700; 1687; 6; 5; 5; 5; 6; 6; 1706; 1708; 1661; 1563; 1655; 1679; 1637; 1338;NONE;TRUE;TRUE;TRUE;TRUE;TRUE;TRUE;TRUE;TRUE;TRUE;TRUE;TRUE;TRUE;TRUE;TRUE;FALSE;TRUE;FALSE;FALSE;FALSE;FALSE;TRUE;TRUE;
SATNOGS;2022-12-03 20:24:20;SAFE; 290214035; 1682; 1678; 1669; 8; 2330; 1799; 730; 1091; 3221; 2103; 658; 478; 1226; 686; 1738; 1630; 1685; 1669; 1635; 1651; 1743; 1629; 1844; 1710; 1566; 1579; 2339; 2414; 1712; 1428; 1576; 1630; 1863; 1853; 1660; 1395; 1836; 1680; 1688; 1738; 1692; 1714; 1703; 1689; 6; 5; 5; 5; 5; 6; 1707; 1710; 1661; 1566; 1654; 1682; 1638; 1344;NONE;TRUE;TRUE;TRUE;TRUE;TRUE;TRUE;TRUE;TRUE;TRUE;TRUE;TRUE;TRUE;TRUE;TRUE;FALSE;TRUE;FALSE;FALSE;FALSE;FALSE;TRUE;TRUE;
SATNOGS;2022-12-03 20:24:00;SAFE; 290214035; 1682; 1678; 1669; 8; 2330; 1799; 730; 1091; 3221; 2103; 658; 478; 1226; 686; 1738; 1630; 1685; 1669; 1635; 1651; 1743; 1629; 1844; 1710; 1566; 1579; 2339; 2414; 1712; 1428; 1576; 1630; 1863; 1853; 1660; 1395; 1836; 1680; 1688; 1738; 1692; 1714; 1703; 1689; 6; 5; 5; 5; 5; 6; 1707; 1710; 1661; 1566; 1654; 1682; 1638; 1344;NONE;TRUE;TRUE;TRUE;TRUE;TRUE;TRUE;TRUE;TRUE;TRUE;TRUE;TRUE;TRUE;TRUE;TRUE;FALSE;TRUE;FALSE;FALSE;FALSE;FALSE;TRUE;TRUE;
SATNOGS;2022-12-03 20:23:40;SAFE; 290213790; 1681; 1678; 1668; 8; 2332; 1801; 729; 1091; 3222; 2101; 636; 500; 1232; 685; 1738; 1631; 1687; 1672; 1638; 1654; 1738; 1626; 1844; 1705; 1563; 1579; 2344; 2420; 1713; 1396; 1511; 1640; 1910; 1854; 1730; 1349; 1850; 1687; 1688; 1738; 1692; 1714; 1703; 1689; 6; 5; 5; 5; 6; 5; 1709; 1711; 1661; 1569; 1655; 1684; 1638; 1348;NONE;TRUE;TRUE;TRUE;TRUE;TRUE;TRUE;TRUE;TRUE;TRUE;TRUE;TRUE;TRUE;TRUE;TRUE;FALSE;TRUE;FALSE;FALSE;FALSE;FALSE;TRUE;TRUE;
SATNOGS;2022-12-03 20:23:20;SAFE; 290213790; 1681; 1678; 1668; 8; 2332; 1801; 729; 1091; 3222; 2101; 636; 500; 1232; 685; 1738; 1631; 1687; 1672; 1638; 1654; 1738; 1626; 1844; 1705; 1563; 1579; 2344; 2420; 1713; 1396; 1511; 1640; 1910; 1854; 1730; 1349; 1850; 1687; 1688; 1738; 1692; 1714; 1703; 1689; 6; 5; 5; 5; 6; 5; 1709; 1711; 1661; 1569; 1655; 1684; 1638; 1348;NONE;TRUE;TRUE;TRUE;TRUE;TRUE;TRUE;TRUE;TRUE;TRUE;TRUE;TRUE;TRUE;TRUE;TRUE;FALSE;TRUE;FALSE;FALSE;FALSE;FALSE;TRUE;TRUE;
SATNOGS;2022-12-03 20:23:00;SAFE; 290213790; 1681; 1678; 1668; 8; 2332; 1801; 729; 1091; 3222; 2101; 636; 500; 1232; 685; 1738; 1631; 1687; 1672; 1638; 1654; 1738; 1626; 1844; 1705; 1563; 1579; 2344; 2420; 1713; 1396; 1511; 1640; 1910; 1854; 1730; 1349; 1850; 1687; 1688; 1738; 1692; 1714; 1703; 1689; 6; 5; 5; 5; 6; 5; 1709; 1711; 1661; 1569; 1655; 1684; 1638; 1348;NONE;TRUE;TRUE;TRUE;TRUE;TRUE;TRUE;TRUE;TRUE;TRUE;TRUE;TRUE;TRUE;TRUE;TRUE;FALSE;TRUE;FALSE;FALSE;FALSE;FALSE;TRUE;TRUE;
SATNOGS;2022-12-03 12:51:15;SAFE; 290102979; 1627; 1617; 1614; 8; 2419; 1798; 730; 1090; 3220; 2103; 669; 475; 1247; 678; 1745; 1627; 1699; 1695; 1630; 1653; 1767; 1843; 3043; 1760; 1556; 1575; 2239; 2288; 1697; 2208; 2132; 1661; 1036; 1327; 1564; 2282; 1282; 1662; 1675; 1732; 1678; 1697; 1689; 1678; 20; 71; 1102; 5; 6; 889; 1685; 1690; 1656; 1541; 1651; 1654; 1630; 1327;NONE;TRUE;TRUE;TRUE;TRUE;TRUE;TRUE;TRUE;TRUE;TRUE;TRUE;TRUE;TRUE;TRUE;TRUE;FALSE;TRUE;FALSE;FALSE;FALSE;FALSE;TRUE;TRUE;
SATNOGS;2022-12-03 12:51:15;SAFE; 290102979; 1627; 1617; 1614; 8; 2419; 1798; 730; 1090; 3220; 2103; 669; 475; 1247; 678; 1745; 1627; 1699; 1695; 1630; 1653; 1767; 1843; 3043; 1760; 1556; 1575; 2239; 2288; 1697; 2208; 2132; 1661; 1036; 1327; 1564; 2282; 1282; 1662; 1675; 1732; 1678; 1697; 1689; 1678; 20; 71; 1102; 5; 6; 889; 1685; 1690; 1656; 1541; 1651; 1654; 1630; 1327;NONE;TRUE;TRUE;TRUE;TRUE;TRUE;TRUE;TRUE;TRUE;TRUE;TRUE;TRUE;TRUE;TRUE;TRUE;FALSE;TRUE;FALSE;FALSE;FALSE;FALSE;TRUE;TRUE;
SATNOGS;2022-12-03 12:50:35;SAFE; 290102733; 1626; 1617; 1614; 8; 2430; 1798; 730; 1090; 3224; 2103; 670; 479; 1223; 625; 1748; 1625; 1695; 1692; 1627; 1651; 1789; 2281; 2259; 1720; 2059; 1575; 2244; 2292; 1697; 2224; 2148; 1671; 1022; 1317; 1576; 2301; 1273; 1672; 1674; 1732; 1678; 1697; 1689; 1678; 45; 444; 568; 5; 1066; 5; 1686; 1692; 1657; 1542; 1650; 1653; 1630; 1325;NONE;TRUE;TRUE;TRUE;TRUE;TRUE;TRUE;TRUE;TRUE;TRUE;TRUE;TRUE;TRUE;TRUE;TRUE;FALSE;TRUE;FALSE;FALSE;FALSE;FALSE;TRUE;TRUE;
SATNOGS;2022-12-03 12:50:35;SAFE; 290102733; 1626; 1617; 1614; 8; 2430; 1798; 730; 1090; 3224; 2103; 670; 479; 1223; 625; 1748; 1625; 1695; 1692; 1627; 1651; 1789; 2281; 2259; 1720; 2059; 1575; 2244; 2292; 1697; 2224; 2148; 1671; 1022; 1317; 1576; 2301; 1273; 1672; 1674; 1732; 1678; 1697; 1689; 1678; 45; 444; 568; 5; 1066; 5; 1686; 1692; 1657; 1542; 1650; 1653; 1630; 1325;NONE;TRUE;TRUE;TRUE;TRUE;TRUE;TRUE;TRUE;TRUE;TRUE;TRUE;TRUE;TRUE;TRUE;TRUE;FALSE;TRUE;FALSE;FALSE;FALSE;FALSE;TRUE;TRUE;
SATNOGS;2022-12-03 12:50:15;SAFE; 290102733; 1626; 1617; 1614; 8; 2430; 1798; 730; 1090; 3224; 2103; 670; 479; 1223; 625; 1748; 1625; 1695; 1692; 1627; 1651; 1789; 2281; 2259; 1720; 2059; 1575; 2244; 2292; 1697; 2224; 2148; 1671; 1022; 1317; 1576; 2301; 1273; 1672; 1674; 1732; 1678; 1697; 1689; 1678; 45; 444; 568; 5; 1066; 5; 1686; 1692; 1657; 1542; 1650; 1653; 1630; 1325;NONE;TRUE;TRUE;TRUE;TRUE;TRUE;TRUE;TRUE;TRUE;TRUE;TRUE;TRUE;TRUE;TRUE;TRUE;FALSE;TRUE;FALSE;FALSE;FALSE;FALSE;TRUE;TRUE;
SATNOGS;2022-12-03 12:50:15;SAFE; 290102733; 1626; 1617; 1614; 8; 2430; 1798; 730; 1090; 3224; 2103; 670; 479; 1223; 625; 1748; 1625; 1695; 1692; 1627; 1651; 1789; 2281; 2259; 1720; 2059; 1575; 2244; 2292; 1697; 2224; 2148; 1671; 1022; 1317; 1576; 2301; 1273; 1672; 1674; 1732; 1678; 1697; 1689; 1678; 45; 444; 568; 5; 1066; 5; 1686; 1692; 1657; 1542; 1650; 1653; 1630; 1325;NONE;TRUE;TRUE;TRUE;TRUE;TRUE;TRUE;TRUE;TRUE;TRUE;TRUE;TRUE;TRUE;TRUE;TRUE;FALSE;TRUE;FALSE;FALSE;FALSE;FALSE;TRUE;TRUE;
SATNOGS;2022-12-03 11:17:53;SAFE; 290080180; 1664; 1642; 1648; 7; 2371; 1785; 730; 1091; 3223; 2101; 641; 480; 1239; 652; 1739; 1629; 1705; 1706; 1634; 1664; 1118; 1120; 1147; 1128; 1094; 1569; 2224; 2273; 1692; 2162; 2115; 1666; 1130; 1345; 1584; 2215; 1314; 1662; 1673; 1727; 1672; 1692; 1687; 1675; 66; 48; 1252; 5; 5; 598; 1681; 1685; 1651; 1536; 1645; 1653; 1625; 1327;BATT_WBH;TRUE;TRUE;TRUE;TRUE;TRUE;TRUE;TRUE;TRUE;TRUE;TRUE;TRUE;TRUE;TRUE;TRUE;FALSE;TRUE;FALSE;FALSE;FALSE;FALSE;TRUE;TRUE;
SATNOGS;2022-12-03 11:17:37;SAFE; 290079935; 1666; 1647; 1652; 8; 2373; 1791; 729; 1090; 3227; 2101; 599; 500; 1221; 632; 1741; 1625; 1704; 1704; 1631; 1661; 1114; 1122; 1155; 1127; 1100; 1569; 2226; 2275; 1692; 2195; 2134; 1674; 1098; 1329; 1587; 2253; 1304; 1672; 1672; 1727; 1674; 1693; 1686; 1675; 112; 536; 373; 5; 1111; 13; 1681; 1686; 1651; 1537; 1645; 1652; 1625; 1325;BATT_WBH;TRUE;TRUE;TRUE;TRUE;TRUE;TRUE;TRUE;TRUE;TRUE;TRUE;TRUE;TRUE;TRUE;TRUE;FALSE;TRUE;FALSE;FALSE;FALSE;FALSE;TRUE;TRUE;
SATNOGS;2022-12-03 11:17:17;SAFE; 290079935; 1666; 1647; 1652; 8; 2373; 1791; 729; 1090; 3227; 2101; 599; 500; 1221; 632; 1741; 1625; 1704; 1704; 1631; 1661; 1114; 1122; 1155; 1127; 1100; 1569; 2226; 2275; 1692; 2195; 2134; 1674; 1098; 1329; 1587; 2253; 1304; 1672; 1672; 1727; 1674; 1693; 1686; 1675; 112; 536; 373; 5; 1111; 13; 1681; 1686; 1651; 1537; 1645; 1652; 1625; 1325;BATT_WBH;TRUE;TRUE;TRUE;TRUE;TRUE;TRUE;TRUE;TRUE;TRUE;TRUE;TRUE;TRUE;TRUE;TRUE;FALSE;TRUE;FALSE;FALSE;FALSE;FALSE;TRUE;TRUE;
SATNOGS;2022-12-03 11:17:12;SAFE; 290079935; 1666; 1647; 1652; 8; 2373; 1791; 729; 1090; 3227; 2101; 599; 500; 1221; 632; 1741; 1625; 1704; 1704; 1631; 1661; 1114; 1122; 1155; 1127; 1100; 1569; 2226; 2275; 1692; 2195; 2134; 1674; 1098; 1329; 1587; 2253; 1304; 1672; 1672; 1727; 1674; 1693; 1686; 1675; 112; 536; 373; 5; 1111; 13; 1681; 1686; 1651; 1537; 1645; 1652; 1625; 1325;BATT_WBH;TRUE;TRUE;TRUE;TRUE;TRUE;TRUE;TRUE;TRUE;TRUE;TRUE;TRUE;TRUE;TRUE;TRUE;FALSE;TRUE;FALSE;FALSE;FALSE;FALSE;TRUE;TRUE;
SATNOGS;2022-12-03 11:16:32;SAFE; 290079690; 1670; 1650; 1653; 8; 2374; 1791; 730; 1091; 3222; 2100; 540; 514; 1233; 839; 1742; 1623; 1701; 1701; 1628; 1657; 1113; 1120; 1152; 1125; 1098; 1570; 2230; 2277; 1692; 2224; 2114; 1656; 1085; 1309; 1585; 2277; 1282; 1677; 1671; 1726; 1674; 1693; 1685; 1674; 12; 1398; 5; 89; 123; 140; 1682; 1687; 1651; 1536; 1645; 1651; 1625; 1324;BATT_WBH;TRUE;TRUE;TRUE;TRUE;TRUE;TRUE;TRUE;TRUE;TRUE;TRUE;TRUE;TRUE;TRUE;TRUE;FALSE;TRUE;FALSE;FALSE;FALSE;FALSE;TRUE;TRUE;
SATNOGS;2022-12-03 11:16:17;SAFE; 290079690; 1670; 1650; 1653; 8; 2374; 1791; 730; 1091; 3222; 2100; 540; 514; 1233; 839; 1742; 1623; 1701; 1701; 1628; 1657; 1113; 1120; 1152; 1125; 1098; 1570; 2230; 2277; 1692; 2224; 2114; 1656; 1085; 1309; 1585; 2277; 1282; 1677; 1671; 1726; 1674; 1693; 1685; 1674; 12; 1398; 5; 89; 123; 140; 1682; 1687; 1651; 1536; 1645; 1651; 1625; 1324;BATT_WBH;TRUE;TRUE;TRUE;TRUE;TRUE;TRUE;TRUE;TRUE;TRUE;TRUE;TRUE;TRUE;TRUE;TRUE;FALSE;TRUE;FALSE;FALSE;FALSE;FALSE;TRUE;TRUE;
SATNOGS;2022-12-03 11:16:12;SAFE; 290079690; 1670; 1650; 1653; 8; 2374; 1791; 730; 1091; 3222; 2100; 540; 514; 1233; 839; 1742; 1623; 1701; 1701; 1628; 1657; 1113; 1120; 1152; 1125; 1098; 1570; 2230; 2277; 1692; 2224; 2114; 1656; 1085; 1309; 1585; 2277; 1282; 1677; 1671; 1726; 1674; 1693; 1685; 1674; 12; 1398; 5; 89; 123; 140; 1682; 1687; 1651; 1536; 1645; 1651; 1625; 1324;BATT_WBH;TRUE;TRUE;TRUE;TRUE;TRUE;TRUE;TRUE;TRUE;TRUE;TRUE;TRUE;TRUE;TRUE;TRUE;FALSE;TRUE;FALSE;FALSE;FALSE;FALSE;TRUE;TRUE;
SATNOGS;2022-12-03 11:15:57;SAFE; 290079690; 1670; 1650; 1653; 8; 2374; 1791; 730; 1091; 3222; 2100; 540; 514; 1233; 839; 1742; 1623; 1701; 1701; 1628; 1657; 1113; 1120; 1152; 1125; 1098; 1570; 2230; 2277; 1692; 2224; 2114; 1656; 1085; 1309; 1585; 2277; 1282; 1677; 1671; 1726; 1674; 1693; 1685; 1674; 12; 1398; 5; 89; 123; 140; 1682; 1687; 1651; 1536; 1645; 1651; 1625; 1324;BATT_WBH;TRUE;TRUE;TRUE;TRUE;TRUE;TRUE;TRUE;TRUE;TRUE;TRUE;TRUE;TRUE;TRUE;TRUE;FALSE;TRUE;FALSE;FALSE;FALSE;FALSE;TRUE;TRUE;
SATNOGS;2022-12-03 11:15:17;SAFE; 290079444; 1673; 1654; 1656; 8; 2375; 1797; 730; 1090; 3226; 2102; 615; 495; 1241; 688; 1739; 1622; 1697; 1696; 1627; 1655; 1109; 1125; 1115; 1116; 1098; 1570; 2231; 2278; 1693; 2230; 2124; 1680; 1072; 1309; 1584; 2296; 1277; 1676; 1670; 1728; 1674; 1693; 1685; 1674; 22; 31; 1201; 5; 5; 739; 1681; 1687; 1652; 1537; 1646; 1650; 1626; 1323;BATT_WBH;TRUE;TRUE;TRUE;TRUE;TRUE;TRUE;TRUE;TRUE;TRUE;TRUE;TRUE;TRUE;TRUE;TRUE;FALSE;TRUE;FALSE;FALSE;FALSE;FALSE;TRUE;TRUE;
SATNOGS;2022-12-03 04:36:12;SAFE; 289981611; 1622; 1613; 1608; 8; 2313; 1795; 730; 1090; 3222; 2100; 675; 512; 1217; 777; 1737; 1626; 1676; 1659; 1630; 1647; 1740; 1626; 1841; 1715; 1569; 1573; 2313; 2383; 1707; 1452; 1608; 1642; 1827; 1878; 1659; 1424; 1835; 1684; 1682; 1731; 1686; 1708; 1695; 1682; 6; 4; 5; 5; 6; 6; 1701; 1704; 1653; 1558; 1650; 1677; 1631; 1342;NONE;TRUE;TRUE;TRUE;TRUE;TRUE;TRUE;TRUE;TRUE;TRUE;TRUE;TRUE;TRUE;TRUE;TRUE;FALSE;TRUE;FALSE;FALSE;FALSE;FALSE;TRUE;TRUE;
SATNOGS;2022-12-03 04:35:52;SAFE; 289981611; 1622; 1613; 1608; 8; 2313; 1795; 730; 1090; 3222; 2100; 675; 512; 1217; 777; 1737; 1626; 1676; 1659; 1630; 1647; 1740; 1626; 1841; 1715; 1569; 1573; 2313; 2383; 1707; 1452; 1608; 1642; 1827; 1878; 1659; 1424; 1835; 1684; 1682; 1731; 1686; 1708; 1695; 1682; 6; 4; 5; 5; 6; 6; 1701; 1704; 1653; 1558; 1650; 1677; 1631; 1342;NONE;TRUE;TRUE;TRUE;TRUE;TRUE;TRUE;TRUE;TRUE;TRUE;TRUE;TRUE;TRUE;TRUE;TRUE;FALSE;TRUE;FALSE;FALSE;FALSE;FALSE;TRUE;TRUE;
SATNOGS;2022-12-03 04:35:17;SAFE; 289981366; 1621; 1612; 1608; 8; 2314; 1797; 730; 1090; 3224; 2100; 512; 489; 1235; 807; 1736; 1627; 1678; 1663; 1631; 1650; 1739; 1626; 1841; 1710; 1562; 1573; 2318; 2388; 1709; 1413; 1529; 1629; 1889; 1835; 1695; 1372; 1835; 1686; 1683; 1731; 1686; 1708; 1698; 1683; 6; 5; 4; 5; 6; 5; 1702; 1704; 1654; 1561; 1649; 1680; 1632; 1346;NONE;TRUE;TRUE;TRUE;TRUE;TRUE;TRUE;TRUE;TRUE;TRUE;TRUE;TRUE;TRUE;TRUE;TRUE;FALSE;TRUE;FALSE;FALSE;FALSE;FALSE;TRUE;TRUE;
SATNOGS;2022-12-03 04:34:12;SAFE; 289981121; 1621; 1610; 1608; 8; 2314; 1793; 730; 1091; 3221; 2101; 813; 473; 1258; 683; 1737; 1628; 1681; 1666; 1632; 1652; 1740; 1627; 1840; 1711; 1565; 1574; 2323; 2395; 1709; 1367; 1524; 1652; 1921; 1939; 1720; 1330; 1892; 1673; 1684; 1731; 1686; 1709; 1698; 1685; 6; 5; 5; 5; 6; 5; 1703; 1705; 1654; 1562; 1649; 1681; 1632; 1349;NONE;TRUE;TRUE;TRUE;TRUE;TRUE;TRUE;TRUE;TRUE;TRUE;TRUE;TRUE;TRUE;TRUE;TRUE;FALSE;TRUE;FALSE;FALSE;FALSE;FALSE;TRUE;TRUE;
SATNOGS;2022-12-03 04:33:58;SAFE; 289981121; 1621; 1610; 1608; 8; 2314; 1793; 730; 1091; 3221; 2101; 813; 473; 1258; 683; 1737; 1628; 1681; 1666; 1632; 1652; 1740; 1627; 1840; 1711; 1565; 1574; 2323; 2395; 1709; 1367; 1524; 1652; 1921; 1939; 1720; 1330; 1892; 1673; 1684; 1731; 1686; 1709; 1698; 1685; 6; 5; 5; 5; 6; 5; 1703; 1705; 1654; 1562; 1649; 1681; 1632; 1349;NONE;TRUE;TRUE;TRUE;TRUE;TRUE;TRUE;TRUE;TRUE;TRUE;TRUE;TRUE;TRUE;TRUE;TRUE;FALSE;TRUE;FALSE;FALSE;FALSE;FALSE;TRUE;TRUE;
SATNOGS;2022-12-03 04:33:52;SAFE; 289981121; 1621; 1610; 1608; 8; 2314; 1793; 730; 1091; 3221; 2101; 813; 473; 1258; 683; 1737; 1628; 1681; 1666; 1632; 1652; 1740; 1627; 1840; 1711; 1565; 1574; 2323; 2395; 1709; 1367; 1524; 1652; 1921; 1939; 1720; 1330; 1892; 1673; 1684; 1731; 1686; 1709; 1698; 1685; 6; 5; 5; 5; 6; 5; 1703; 1705; 1654; 1562; 1649; 1681; 1632; 1349;NONE;TRUE;TRUE;TRUE;TRUE;TRUE;TRUE;TRUE;TRUE;TRUE;TRUE;TRUE;TRUE;TRUE;TRUE;FALSE;TRUE;FALSE;FALSE;FALSE;FALSE;TRUE;TRUE;
SATNOGS;2022-12-03 04:33:32;SAFE; 289980876; 1619; 1609; 1607; 8; 2316; 1798; 730; 1091; 3225; 2098; 668; 508; 1228; 651; 1736; 1630; 1684; 1668; 1635; 1653; 1739; 1623; 1841; 1711; 1564; 1573; 2326; 2405; 1709; 1336; 1483; 1646; 1957; 1924; 1711; 1294; 1892; 1667; 1684; 1731; 1688; 1709; 1700; 1685; 5; 5; 5; 4; 5; 6; 1705; 1706; 1654; 1564; 1650; 1684; 1633; 1351;NONE;TRUE;TRUE;TRUE;TRUE;TRUE;TRUE;TRUE;TRUE;TRUE;TRUE;TRUE;TRUE;TRUE;TRUE;FALSE;TRUE;FALSE;FALSE;FALSE;FALSE;TRUE;TRUE;
SATNOGS;2022-12-02 11:31:18;SAFE; 289730231; 1652; 1639; 1641; 8; 2657; 1787; 730; 1091; 3227; 2097; 675; 491; 1240; 823; 1761; 1605; 1666; 1664; 1618; 1633; 1773; 1628; 3241; 1711; 1726; 1559; 2187; 2227; 1681; 2236; 2088; 1700; 1033; 1328; 1584; 2290; 1271; 1682; 1658; 1718; 1663; 1680; 1670; 1664; 33; 5; 1446; 5; 17; 24; 1668; 1675; 1638; 1519; 1635; 1634; 1615; 1320;BATT_WBH;TRUE;TRUE;TRUE;TRUE;TRUE;TRUE;TRUE;TRUE;TRUE;TRUE;TRUE;TRUE;TRUE;TRUE;FALSE;TRUE;FALSE;FALSE;FALSE;FALSE;TRUE;TRUE;
SATNOGS;2022-12-02 11:30:59;SAFE; 289730231; 1652; 1639; 1641; 8; 2657; 1787; 730; 1091; 3227; 2097; 675; 491; 1240; 823; 1761; 1605; 1666; 1664; 1618; 1633; 1773; 1628; 3241; 1711; 1726; 1559; 2187; 2227; 1681; 2236; 2088; 1700; 1033; 1328; 1584; 2290; 1271; 1682; 1658; 1718; 1663; 1680; 1670; 1664; 33; 5; 1446; 5; 17; 24; 1668; 1675; 1638; 1519; 1635; 1634; 1615; 1320;BATT_WBH;TRUE;TRUE;TRUE;TRUE;TRUE;TRUE;TRUE;TRUE;TRUE;TRUE;TRUE;TRUE;TRUE;TRUE;FALSE;TRUE;FALSE;FALSE;FALSE;FALSE;TRUE;TRUE;
SATNOGS;2022-12-02 11:30:38;SAFE; 289729986; 1652; 1637; 1639; 8; 2677; 1777; 730; 1090; 3227; 2096; 516; 491; 1212; 705; 1764; 1604; 1663; 1659; 1617; 1629; 1745; 2979; 1855; 2158; 1848; 1559; 2191; 2231; 1682; 2245; 2093; 1659; 1025; 1297; 1580; 2300; 1259; 1678; 1658; 1718; 1665; 1682; 1670; 1663; 6; 1116; 5; 48; 865; 5; 1669; 1676; 1639; 1518; 1635; 1634; 1615; 1318;BATT_WBH;TRUE;TRUE;TRUE;TRUE;TRUE;TRUE;TRUE;TRUE;TRUE;TRUE;TRUE;TRUE;TRUE;TRUE;FALSE;TRUE;FALSE;FALSE;FALSE;FALSE;TRUE;TRUE;
SATNOGS;2022-12-02 11:30:18;SAFE; 289729986; 1652; 1637; 1639; 8; 2677; 1777; 730; 1090; 3227; 2096; 516; 491; 1212; 705; 1764; 1604; 1663; 1659; 1617; 1629; 1745; 2979; 1855; 2158; 1848; 1559; 2191; 2231; 1682; 2245; 2093; 1659; 1025; 1297; 1580; 2300; 1259; 1678; 1658; 1718; 1665; 1682; 1670; 1663; 6; 1116; 5; 48; 865; 5; 1669; 1676; 1639; 1518; 1635; 1634; 1615; 1318;BATT_WBH;TRUE;TRUE;TRUE;TRUE;TRUE;TRUE;TRUE;TRUE;TRUE;TRUE;TRUE;TRUE;TRUE;TRUE;FALSE;TRUE;FALSE;FALSE;FALSE;FALSE;TRUE;TRUE;
SATNOGS;2022-12-02 11:29:38;SAFE; 289729741; 1649; 1636; 1637; 8; 2626; 1786; 730; 1091; 3228; 2097; 665; 478; 1253; 648; 1757; 1604; 1661; 1654; 1614; 1627; 1741; 2150; 1999; 1707; 1562; 1560; 2195; 2235; 1682; 2247; 2087; 1640; 1019; 1308; 1566; 2307; 1265; 1675; 1658; 1718; 1665; 1682; 1671; 1663; 5; 603; 4; 5; 5; 1452; 1670; 1676; 1639; 1519; 1635; 1633; 1616; 1316;BATT_WBH;TRUE;TRUE;TRUE;TRUE;TRUE;TRUE;TRUE;TRUE;TRUE;TRUE;TRUE;TRUE;TRUE;TRUE;FALSE;TRUE;FALSE;FALSE;FALSE;FALSE;TRUE;TRUE;
SATNOGS;2022-12-01 22:34:54;SAFE; 289539883; 1646; 1631; 1633; 9; 2541; 1777; 730; 1091; 3227; 2095; 561; 479; 1213; 701; 1751; 1614; 1655; 1636; 1616; 1629; 1735; 1622; 1833; 1713; 1547; 1559; 2247; 2305; 1692; 1730; 1752; 1670; 1546; 1644; 1701; 1732; 1596; 1707; 1666; 1719; 1672; 1691; 1679; 1669; 5; 5; 5; 5; 6; 5; 1684; 1687; 1639; 1541; 1635; 1660; 1618; 1343;BATT_WBH;TRUE;TRUE;TRUE;TRUE;TRUE;TRUE;TRUE;TRUE;TRUE;TRUE;TRUE;TRUE;TRUE;TRUE;FALSE;TRUE;FALSE;FALSE;FALSE;FALSE;TRUE;TRUE;
SATNOGS;2022-12-01 22:34:33;SAFE; 289539638; 1644; 1629; 1631; 8; 2542; 1782; 730; 1091; 3229; 2098; 462; 485; 1238; 599; 1751; 1615; 1657; 1640; 1618; 1634; 1731; 1624; 1836; 1710; 1562; 1559; 2251; 2310; 1692; 1682; 1758; 1642; 1601; 1690; 1636; 1671; 1631; 1671; 1668; 1719; 1673; 1693; 1681; 1670; 5; 5; 5; 5; 5; 5; 1685; 1687; 1639; 1543; 1635; 1663; 1618; 1346;BATT_WBH;TRUE;TRUE;TRUE;TRUE;TRUE;TRUE;TRUE;TRUE;TRUE;TRUE;TRUE;TRUE;TRUE;TRUE;FALSE;TRUE;FALSE;FALSE;FALSE;FALSE;TRUE;TRUE;
SATNOGS;2022-12-01 22:34:13;SAFE; 289539638; 1644; 1629; 1631; 8; 2542; 1782; 730; 1091; 3229; 2098; 462; 485; 1238; 599; 1751; 1615; 1657; 1640; 1618; 1634; 1731; 1624; 1836; 1710; 1562; 1559; 2251; 2310; 1692; 1682; 1758; 1642; 1601; 1690; 1636; 1671; 1631; 1671; 1668; 1719; 1673; 1693; 1681; 1670; 5; 5; 5; 5; 5; 5; 1685; 1687; 1639; 1543; 1635; 1663; 1618; 1346;BATT_WBH;TRUE;TRUE;TRUE;TRUE;TRUE;TRUE;TRUE;TRUE;TRUE;TRUE;TRUE;TRUE;TRUE;TRUE;FALSE;TRUE;FALSE;FALSE;FALSE;FALSE;TRUE;TRUE;
SATNOGS;2022-12-01 11:48:39;SAFE; 289381179; 1651; 1635; 1638; 8; 2412; 1776; 730; 1090; 3227; 2099; 674; 497; 1228; 621; 1743; 1624; 1663; 1667; 1641; 1651; 1124; 1133; 1161; 1132; 1102; 1559; 2202; 2238; 1683; 2202; 2079; 1696; 1090; 1330; 1606; 2262; 1304; 1697; 1663; 1718; 1666; 1684; 1672; 1667; 21; 5; 1278; 5; 619; 6; 1673; 1680; 1641; 1532; 1637; 1640; 1617; 1328;BATT_WBH;TRUE;TRUE;TRUE;TRUE;TRUE;TRUE;TRUE;TRUE;TRUE;TRUE;TRUE;TRUE;TRUE;TRUE;FALSE;TRUE;FALSE;FALSE;FALSE;FALSE;TRUE;TRUE;
SATNOGS;2022-12-01 11:47:59;SAFE; 289381179; 1651; 1635; 1638; 8; 2412; 1776; 730; 1090; 3227; 2099; 674; 497; 1228; 621; 1743; 1624; 1663; 1667; 1641; 1651; 1124; 1133; 1161; 1132; 1102; 1559; 2202; 2238; 1683; 2202; 2079; 1696; 1090; 1330; 1606; 2262; 1304; 1697; 1663; 1718; 1666; 1684; 1672; 1667; 21; 5; 1278; 5; 619; 6; 1673; 1680; 1641; 1532; 1637; 1640; 1617; 1328;BATT_WBH;TRUE;TRUE;TRUE;TRUE;TRUE;TRUE;TRUE;TRUE;TRUE;TRUE;TRUE;TRUE;TRUE;TRUE;FALSE;TRUE;FALSE;FALSE;FALSE;FALSE;TRUE;TRUE;
SATNOGS;2022-12-01 11:47:39;SAFE; 289380933; 1650; 1635; 1636; 8; 2412; 1788; 730; 1091; 3229; 2099; 669; 502; 1222; 697; 1741; 1622; 1661; 1662; 1640; 1646; 1126; 1135; 1157; 1133; 1107; 1560; 2205; 2243; 1684; 2232; 2065; 1677; 1077; 1297; 1599; 2287; 1273; 1691; 1662; 1718; 1668; 1685; 1672; 1667; 5; 1099; 5; 449; 292; 6; 1674; 1680; 1641; 1532; 1637; 1642; 1617; 1327;BATT_WBH;TRUE;TRUE;TRUE;TRUE;TRUE;TRUE;TRUE;TRUE;TRUE;TRUE;TRUE;TRUE;TRUE;TRUE;FALSE;TRUE;FALSE;FALSE;FALSE;FALSE;TRUE;TRUE;
SATNOGS;2022-11-30 22:53:57;SAFE; 289191312; 1620; 1600; 1608; 8; 2373; 1785; 730; 1091; 3227; 2098; 551; 496; 1238; 685; 1740; 1630; 1652; 1634; 1628; 1637; 1728; 1619; 1832; 1705; 1565; 1560; 2259; 2308; 1694; 1948; 1985; 1653; 1333; 1487; 1610; 1982; 1445; 1685; 1669; 1720; 1677; 1695; 1680; 1674; 6; 5; 5; 5; 5; 5; 1688; 1691; 1643; 1546; 1638; 1665; 1622; 1348;BATT_WBH;TRUE;TRUE;TRUE;TRUE;TRUE;TRUE;TRUE;TRUE;TRUE;TRUE;TRUE;TRUE;TRUE;TRUE;FALSE;TRUE;FALSE;FALSE;FALSE;FALSE;TRUE;TRUE;
SATNOGS;2022-11-30 22:53:57;SAFE; 289191312; 1620; 1600; 1608; 8; 2373; 1785; 730; 1091; 3227; 2098; 551; 496; 1238; 685; 1740; 1630; 1652; 1634; 1628; 1637; 1728; 1619; 1832; 1705; 1565; 1560; 2259; 2308; 1694; 1948; 1985; 1653; 1333; 1487; 1610; 1982; 1445; 1685; 1669; 1720; 1677; 1695; 1680; 1674; 6; 5; 5; 5; 5; 5; 1688; 1691; 1643; 1546; 1638; 1665; 1622; 1348;BATT_WBH;TRUE;TRUE;TRUE;TRUE;TRUE;TRUE;TRUE;TRUE;TRUE;TRUE;TRUE;TRUE;TRUE;TRUE;FALSE;TRUE;FALSE;FALSE;FALSE;FALSE;TRUE;TRUE;
SATNOGS;2022-11-30 22:53:37;SAFE; 289191067; 1618; 1599; 1606; 8; 2373; 1779; 730; 1091; 3227; 2097; 671; 506; 1217; 762; 1740; 1631; 1654; 1637; 1630; 1640; 1737; 1621; 1833; 1702; 1557; 1561; 2263; 2315; 1696; 1895; 1898; 1693; 1384; 1519; 1653; 1926; 1472; 1696; 1671; 1721; 1677; 1696; 1681; 1675; 5; 5; 6; 5; 5; 6; 1689; 1693; 1641; 1550; 1638; 1666; 1623; 1352;BATT_WBH;TRUE;TRUE;TRUE;TRUE;TRUE;TRUE;TRUE;TRUE;TRUE;TRUE;TRUE;TRUE;TRUE;TRUE;FALSE;TRUE;FALSE;FALSE;FALSE;FALSE;TRUE;TRUE;
SATNOGS;2022-11-30 22:53:37;SAFE; 289191067; 1618; 1599; 1606; 8; 2373; 1779; 730; 1091; 3227; 2097; 671; 506; 1217; 762; 1740; 1631; 1654; 1637; 1630; 1640; 1737; 1621; 1833; 1702; 1557; 1561; 2263; 2315; 1696; 1895; 1898; 1693; 1384; 1519; 1653; 1926; 1472; 1696; 1671; 1721; 1677; 1696; 1681; 1675; 5; 5; 6; 5; 5; 6; 1689; 1693; 1641; 1550; 1638; 1666; 1623; 1352;BATT_WBH;TRUE;TRUE;TRUE;TRUE;TRUE;TRUE;TRUE;TRUE;TRUE;TRUE;TRUE;TRUE;TRUE;TRUE;FALSE;TRUE;FALSE;FALSE;FALSE;FALSE;TRUE;TRUE;
SATNOGS;2022-11-30 22:53:17;SAFE; 289191067; 1618; 1599; 1606; 8; 2373; 1779; 730; 1091; 3227; 2097; 671; 506; 1217; 762; 1740; 1631; 1654; 1637; 1630; 1640; 1737; 1621; 1833; 1702; 1557; 1561; 2263; 2315; 1696; 1895; 1898; 1693; 1384; 1519; 1653; 1926; 1472; 1696; 1671; 1721; 1677; 1696; 1681; 1675; 5; 5; 6; 5; 5; 6; 1689; 1693; 1641; 1550; 1638; 1666; 1623; 1352;BATT_WBH;TRUE;TRUE;TRUE;TRUE;TRUE;TRUE;TRUE;TRUE;TRUE;TRUE;TRUE;TRUE;TRUE;TRUE;FALSE;TRUE;FALSE;FALSE;FALSE;FALSE;TRUE;TRUE;
SATNOGS;2022-11-30 22:53:17;SAFE; 289191067; 1618; 1599; 1606; 8; 2373; 1779; 730; 1091; 3227; 2097; 671; 506; 1217; 762; 1740; 1631; 1654; 1637; 1630; 1640; 1737; 1621; 1833; 1702; 1557; 1561; 2263; 2315; 1696; 1895; 1898; 1693; 1384; 1519; 1653; 1926; 1472; 1696; 1671; 1721; 1677; 1696; 1681; 1675; 5; 5; 6; 5; 5; 6; 1689; 1693; 1641; 1550; 1638; 1666; 1623; 1352;BATT_WBH;TRUE;TRUE;TRUE;TRUE;TRUE;TRUE;TRUE;TRUE;TRUE;TRUE;TRUE;TRUE;TRUE;TRUE;FALSE;TRUE;FALSE;FALSE;FALSE;FALSE;TRUE;TRUE;
SATNOGS;2022-11-30 22:52:57;SAFE; 289191067; 1618; 1599; 1606; 8; 2373; 1779; 730; 1091; 3227; 2097; 671; 506; 1217; 762; 1740; 1631; 1654; 1637; 1630; 1640; 1737; 1621; 1833; 1702; 1557; 1561; 2263; 2315; 1696; 1895; 1898; 1693; 1384; 1519; 1653; 1926; 1472; 1696; 1671; 1721; 1677; 1696; 1681; 1675; 5; 5; 6; 5; 5; 6; 1689; 1693; 1641; 1550; 1638; 1666; 1623; 1352;BATT_WBH;TRUE;TRUE;TRUE;TRUE;TRUE;TRUE;TRUE;TRUE;TRUE;TRUE;TRUE;TRUE;TRUE;TRUE;FALSE;TRUE;FALSE;FALSE;FALSE;FALSE;TRUE;TRUE;
SATNOGS;2022-11-30 22:52:57;SAFE; 289191067; 1618; 1599; 1606; 8; 2373; 1779; 730; 1091; 3227; 2097; 671; 506; 1217; 762; 1740; 1631; 1654; 1637; 1630; 1640; 1737; 1621; 1833; 1702; 1557; 1561; 2263; 2315; 1696; 1895; 1898; 1693; 1384; 1519; 1653; 1926; 1472; 1696; 1671; 1721; 1677; 1696; 1681; 1675; 5; 5; 6; 5; 5; 6; 1689; 1693; 1641; 1550; 1638; 1666; 1623; 1352;BATT_WBH;TRUE;TRUE;TRUE;TRUE;TRUE;TRUE;TRUE;TRUE;TRUE;TRUE;TRUE;TRUE;TRUE;TRUE;FALSE;TRUE;FALSE;FALSE;FALSE;FALSE;TRUE;TRUE;
SATNOGS;2022-11-30 21:22:00;SAFE; 289168741; 1629; 1610; 1618; 7; 2467; 1781; 730; 1091; 3228; 2099; 743; 497; 1254; 696; 1746; 1622; 1644; 1621; 1619; 1625; 1735; 1621; 1834; 1707; 1561; 1557; 2235; 2282; 1689; 2146; 2068; 1684; 1152; 1353; 1585; 2204; 1316; 1680; 1663; 1716; 1671; 1690; 1673; 1668; 5; 4; 5; 5; 6; 5; 1681; 1687; 1638; 1538; 1635; 1656; 1617; 1342;BATT_WBH;TRUE;TRUE;TRUE;TRUE;TRUE;TRUE;TRUE;TRUE;TRUE;TRUE;TRUE;TRUE;TRUE;TRUE;FALSE;TRUE;FALSE;FALSE;FALSE;FALSE;TRUE;TRUE;
SATNOGS;2022-11-30 12:07:20;SAFE; 289032595; 1660; 1644; 1648; 8; 2591; 1785; 730; 1091; 3228; 2096; 663; 483; 1237; 683; 1754; 1627; 1648; 1651; 1643; 1643; 1748; 1598; 1842; 1491; 1396; 1556; 2173; 2202; 1677; 2048; 1958; 1665; 1247; 1416; 1602; 2074; 1382; 1684; 1657; 1715; 1663; 1678; 1664; 1663; 5; 175; 5; 110; 16; 1346; 1665; 1671; 1636; 1527; 1630; 1631; 1611; 1332;BATT_WBH;TRUE;TRUE;TRUE;TRUE;TRUE;TRUE;TRUE;TRUE;TRUE;TRUE;TRUE;TRUE;TRUE;TRUE;FALSE;TRUE;FALSE;FALSE;FALSE;FALSE;TRUE;TRUE;
SATNOGS;2022-11-30 12:06:20;SAFE; 289032350; 1659; 1642; 1646; 8; 2665; 1787; 731; 1091; 3225; 2097; 670; 499; 1247; 649; 1761; 1626; 1646; 1647; 1640; 1638; 2059; 1626; 3241; 1716; 1571; 1555; 2177; 2205; 1678; 2084; 2020; 1641; 1176; 1408; 1565; 2113; 1368; 1678; 1656; 1714; 1662; 1678; 1665; 1663; 75; 5; 1398; 5; 6; 55; 1665; 1672; 1635; 1526; 1631; 1630; 1612; 1329;BATT_WBH;TRUE;TRUE;TRUE;TRUE;TRUE;TRUE;TRUE;TRUE;TRUE;TRUE;TRUE;TRUE;TRUE;TRUE;FALSE;TRUE;FALSE;FALSE;FALSE;FALSE;TRUE;TRUE;
SATNOGS;2022-11-30 12:05:40;SAFE; 289032104; 1657; 1642; 1645; 8; 2679; 1774; 731; 1091; 3230; 2097; 573; 485; 1213; 620; 1763; 1624; 1644; 1643; 1637; 1635; 1746; 2157; 1856; 2182; 2083; 1556; 2179; 2210; 1679; 2131; 1987; 1683; 1138; 1376; 1627; 2159; 1336; 1706; 1656; 1716; 1663; 1679; 1665; 1663; 6; 127; 5; 28; 1395; 5; 1666; 1674; 1636; 1526; 1633; 1630; 1612; 1327;BATT_WBH;TRUE;TRUE;TRUE;TRUE;TRUE;TRUE;TRUE;TRUE;TRUE;TRUE;TRUE;TRUE;TRUE;TRUE;FALSE;TRUE;FALSE;FALSE;FALSE;FALSE;TRUE;TRUE;
SATNOGS;2022-11-29 21:39:20;SAFE; 288819669; 1641; 1625; 1628; 8; 2458; 1789; 730; 1091; 3226; 2096; 868; 487; 1220; 892; 1747; 1625; 1640; 1614; 1623; 1622; 1737; 1627; 1844; 1711; 1565; 1561; 2229; 2265; 1690; 2229; 2095; 1662; 1070; 1305; 1585; 2287; 1276; 1679; 1664; 1721; 1674; 1690; 1673; 1670; 6; 5; 5; 4; 6; 5; 1682; 1687; 1642; 1543; 1637; 1652; 1621; 1344;NONE;TRUE;TRUE;TRUE;TRUE;TRUE;TRUE;TRUE;TRUE;TRUE;TRUE;TRUE;TRUE;TRUE;TRUE;FALSE;TRUE;FALSE;FALSE;FALSE;FALSE;TRUE;TRUE;
SATNOGS;2022-11-29 21:39:00;SAFE; 288819669; 1641; 1625; 1628; 8; 2458; 1789; 730; 1091; 3226; 2096; 868; 487; 1220; 892; 1747; 1625; 1640; 1614; 1623; 1622; 1737; 1627; 1844; 1711; 1565; 1561; 2229; 2265; 1690; 2229; 2095; 1662; 1070; 1305; 1585; 2287; 1276; 1679; 1664; 1721; 1674; 1690; 1673; 1670; 6; 5; 5; 4; 6; 5; 1682; 1687; 1642; 1543; 1637; 1652; 1621; 1344;NONE;TRUE;TRUE;TRUE;TRUE;TRUE;TRUE;TRUE;TRUE;TRUE;TRUE;TRUE;TRUE;TRUE;TRUE;FALSE;TRUE;FALSE;FALSE;FALSE;FALSE;TRUE;TRUE;
SATNOGS;2022-11-28 23:28:38;SAFE; 288493181; 1623; 1602; 1611; 8; 2422; 1782; 730; 1091; 3230; 2099; 661; 478; 1240; 805; 1744; 1646; 1646; 1627; 1640; 1642; 1738; 1626; 1833; 1708; 1562; 1560; 2253; 2290; 1695; 2128; 2046; 1649; 1160; 1362; 1592; 2177; 1324; 1669; 1669; 1719; 1679; 1695; 1677; 1677; 6; 5; 5; 5; 5; 6; 1689; 1692; 1640; 1548; 1636; 1666; 1621; 1354;BATT_WBH;TRUE;TRUE;TRUE;TRUE;TRUE;TRUE;TRUE;TRUE;TRUE;TRUE;TRUE;TRUE;TRUE;TRUE;FALSE;TRUE;FALSE;FALSE;FALSE;FALSE;TRUE;TRUE;
SATNOGS;2022-11-28 23:28:38;SAFE; 288493181; 1623; 1602; 1611; 8; 2422; 1782; 730; 1091; 3230; 2099; 661; 478; 1240; 805; 1744; 1646; 1646; 1627; 1640; 1642; 1738; 1626; 1833; 1708; 1562; 1560; 2253; 2290; 1695; 2128; 2046; 1649; 1160; 1362; 1592; 2177; 1324; 1669; 1669; 1719; 1679; 1695; 1677; 1677; 6; 5; 5; 5; 5; 6; 1689; 1692; 1640; 1548; 1636; 1666; 1621; 1354;BATT_WBH;TRUE;TRUE;TRUE;TRUE;TRUE;TRUE;TRUE;TRUE;TRUE;TRUE;TRUE;TRUE;TRUE;TRUE;FALSE;TRUE;FALSE;FALSE;FALSE;FALSE;TRUE;TRUE;
SATNOGS;2022-11-28 21:57:01;SAFE; 288470855; 1638; 1619; 1625; 8; 2527; 1780; 730; 1091; 3229; 2098; 590; 484; 1248; 880; 1750; 1632; 1635; 1611; 1627; 1624; 1733; 1623; 1836; 1707; 1569; 1557; 2224; 2257; 1689; 2277; 2163; 1677; 1011; 1284; 1575; 2348; 1251; 1679; 1663; 1717; 1673; 1690; 1671; 1669; 5; 5; 4; 5; 5; 5; 1679; 1687; 1637; 1534; 1633; 1654; 1617; 1336;BATT_WBH;TRUE;TRUE;TRUE;TRUE;TRUE;TRUE;TRUE;TRUE;TRUE;TRUE;TRUE;TRUE;TRUE;TRUE;FALSE;TRUE;FALSE;FALSE;FALSE;FALSE;TRUE;TRUE;
SATNOGS;2022-11-28 21:56:41;SAFE; 288470610; 1638; 1618; 1625; 8; 2527; 1787; 730; 1091; 3231; 2098; 666; 486; 1219; 627; 1748; 1635; 1637; 1613; 1629; 1627; 1734; 1626; 1834; 1707; 1563; 1558; 2226; 2260; 1690; 2265; 2158; 1682; 1027; 1282; 1581; 2333; 1255; 1681; 1665; 1718; 1673; 1690; 1671; 1671; 5; 5; 5; 5; 5; 5; 1682; 1686; 1639; 1536; 1635; 1656; 1616; 1341;BATT_WBH;TRUE;TRUE;TRUE;TRUE;TRUE;TRUE;TRUE;TRUE;TRUE;TRUE;TRUE;TRUE;TRUE;TRUE;FALSE;TRUE;FALSE;FALSE;FALSE;FALSE;TRUE;TRUE;
SATNOGS;2022-11-28 21:53:40;SAFE; 288469874; 1633; 1613; 1620; 8; 2534; 1784; 730; 1091; 3229; 2096; 872; 499; 1220; 592; 1750; 1641; 1642; 1623; 1635; 1637; 1732; 1625; 1834; 1708; 1570; 1558; 2238; 2275; 1692; 2176; 2121; 1670; 1108; 1339; 1589; 2237; 1306; 1674; 1667; 1718; 1676; 1692; 1675; 1674; 6; 5; 5; 5; 6; 5; 1684; 1689; 1639; 1543; 1634; 1662; 1619; 1353;BATT_WBH;TRUE;TRUE;TRUE;TRUE;TRUE;TRUE;TRUE;TRUE;TRUE;TRUE;TRUE;TRUE;TRUE;TRUE;FALSE;TRUE;FALSE;FALSE;FALSE;FALSE;TRUE;TRUE;
SATNOGS;2022-11-28 21:53:20;SAFE; 288469874; 1633; 1613; 1620; 8; 2534; 1784; 730; 1091; 3229; 2096; 872; 499; 1220; 592; 1750; 1641; 1642; 1623; 1635; 1637; 1732; 1625; 1834; 1708; 1570; 1558; 2238; 2275; 1692; 2176; 2121; 1670; 1108; 1339; 1589; 2237; 1306; 1674; 1667; 1718; 1676; 1692; 1675; 1674; 6; 5; 5; 5; 6; 5; 1684; 1689; 1639; 1543; 1634; 1662; 1619; 1353;BATT_WBH;TRUE;TRUE;TRUE;TRUE;TRUE;TRUE;TRUE;TRUE;TRUE;TRUE;TRUE;TRUE;TRUE;TRUE;FALSE;TRUE;FALSE;FALSE;FALSE;FALSE;TRUE;TRUE;
SATNOGS;2022-11-28 21:53:00;SAFE; 288469874; 1633; 1613; 1620; 8; 2534; 1784; 730; 1091; 3229; 2096; 872; 499; 1220; 592; 1750; 1641; 1642; 1623; 1635; 1637; 1732; 1625; 1834; 1708; 1570; 1558; 2238; 2275; 1692; 2176; 2121; 1670; 1108; 1339; 1589; 2237; 1306; 1674; 1667; 1718; 1676; 1692; 1675; 1674; 6; 5; 5; 5; 6; 5; 1684; 1689; 1639; 1543; 1634; 1662; 1619; 1353;BATT_WBH;TRUE;TRUE;TRUE;TRUE;TRUE;TRUE;TRUE;TRUE;TRUE;TRUE;TRUE;TRUE;TRUE;TRUE;FALSE;TRUE;FALSE;FALSE;FALSE;FALSE;TRUE;TRUE;
SATNOGS;2022-11-28 21:52:40;SAFE; 288469628; 1633; 1612; 1619; 8; 2534; 1785; 730; 1091; 3231; 2098; 665; 482; 1232; 582; 1748; 1645; 1643; 1626; 1638; 1640; 1739; 1624; 1836; 1708; 1556; 1557; 2242; 2279; 1693; 2139; 2038; 1654; 1153; 1361; 1597; 2186; 1322; 1678; 1667; 1718; 1677; 1693; 1675; 1674; 6; 5; 5; 5; 6; 5; 1686; 1690; 1638; 1545; 1635; 1664; 1619; 1358;BATT_WBH;TRUE;TRUE;TRUE;TRUE;TRUE;TRUE;TRUE;TRUE;TRUE;TRUE;TRUE;TRUE;TRUE;TRUE;FALSE;TRUE;FALSE;FALSE;FALSE;FALSE;TRUE;TRUE;
SATNOGS;2022-11-28 21:52:20;SAFE; 288469628; 1633; 1612; 1619; 8; 2534; 1785; 730; 1091; 3231; 2098; 665; 482; 1232; 582; 1748; 1645; 1643; 1626; 1638; 1640; 1739; 1624; 1836; 1708; 1556; 1557; 2242; 2279; 1693; 2139; 2038; 1654; 1153; 1361; 1597; 2186; 1322; 1678; 1667; 1718; 1677; 1693; 1675; 1674; 6; 5; 5; 5; 6; 5; 1686; 1690; 1638; 1545; 1635; 1664; 1619; 1358;BATT_WBH;TRUE;TRUE;TRUE;TRUE;TRUE;TRUE;TRUE;TRUE;TRUE;TRUE;TRUE;TRUE;TRUE;TRUE;FALSE;TRUE;FALSE;FALSE;FALSE;FALSE;TRUE;TRUE;
SATNOGS;2022-11-28 21:52:00;SAFE; 288469628; 1633; 1612; 1619; 8; 2534; 1785; 730; 1091; 3231; 2098; 665; 482; 1232; 582; 1748; 1645; 1643; 1626; 1638; 1640; 1739; 1624; 1836; 1708; 1556; 1557; 2242; 2279; 1693; 2139; 2038; 1654; 1153; 1361; 1597; 2186; 1322; 1678; 1667; 1718; 1677; 1693; 1675; 1674; 6; 5; 5; 5; 6; 5; 1686; 1690; 1638; 1545; 1635; 1664; 1619; 1358;BATT_WBH;TRUE;TRUE;TRUE;TRUE;TRUE;TRUE;TRUE;TRUE;TRUE;TRUE;TRUE;TRUE;TRUE;TRUE;FALSE;TRUE;FALSE;FALSE;FALSE;FALSE;TRUE;TRUE;
