Source;Received;Operating_Mode;Misison_Clock;BATT_TBAT1_TM;BATT_TBAT2_TM;BATT_TBAT3_TM;RESERVED;BATT_VBAT_TM;PSU_T_TM;P3V3_TM;P5V_TM;P15V_TM;N15V_TM;PSU_IP5V_TM;PSU_IP15V_TM;PSU_IN15V_TM;PSU_IP3V3_TM;PDU_IVBUS_TM;PV_TPSXP_TM;PV_TPSXN_TM;PV_TPSYP_TM;PV_TPSYN_TM;PV_TPSZP_TM;PV_ISPXP_TM;PV_ISPXN_TM;PV_ISPYP_TM;PV_ISPYN_TM;PV_ISPZP_TM;OBC_T_TM;MGM1_T_TM;MGM2_T_TM;MGM3_T_TM;MGM1_X_TM;MGM1_Y_TM;MGM1_Z_TM;MGM2_X_TM;MGM2_Y_TM;MGM2_Z_TM;MGM3_X_TM;MGM3_Y_TM;MGM3_Z_TM;MGT_TX_TM;MODEM_T_TR_TM;EBOX_T_INT_TM;EBOX_T_EXT_TM;BATT_T_EXT_TM;BATT_T_INT_TM;SS6_XP_TM;SS6_XN_TM;SS6_YP_TM;SS6_YN_TM;SS6_ZP_TM;SS6_ZN_TM;RW1_T_TM;RW2_T_TM;TP1_TM;TP2_TM;TP3_TM;TP4_TM;TP5_TM;TP6_TM;Battery_Warning;DAS_P3V;DAS_P5V;DAS_P15V;DAS_N15V;PDU_P3V3;PDU_P5V;MGM1_P5V;MGM2_P5V;MGM3_P15V;MGM3_N15V;MGT_X_VBUS;TEMP_A_P5V;TEMP_B_P5V;MODEM_VBUS;RW_P5V;RW_VBUS;MTS_VBUS;BOOM1_VBUS;BOOM2_VBUS;TTC_STAT;SMA_SB01;SMA_SB02;
SATNOGS;2023-01-23 00:18:17;SAFE; 307921074; 1626; 1606; 1613; 8; 2559; 1784; 731; 1090; 3227; 2096; 720; 464; 1252; 919; 1751; 1643; 1646; 1629; 1638; 1642; 1734; 1624; 1837; 1714; 1561; 1557; 2239; 2277; 1693; 2040; 2112; 1655; 1236; 1403; 1590; 2079; 1364; 1654; 1669; 1717; 1676; 1693; 1677; 1675; 5; 5; 5; 5; 4; 5; 1684; 1688; 1638; 1548; 1634; 1664; 1619; 1365;BATT_WBH;TRUE;TRUE;TRUE;TRUE;TRUE;TRUE;TRUE;TRUE;TRUE;TRUE;TRUE;TRUE;TRUE;TRUE;FALSE;TRUE;FALSE;FALSE;FALSE;FALSE;TRUE;TRUE;
SATNOGS;2023-01-23 00:17:37;SAFE; 307921074; 1626; 1606; 1613; 8; 2559; 1784; 731; 1090; 3227; 2096; 720; 464; 1252; 919; 1751; 1643; 1646; 1629; 1638; 1642; 1734; 1624; 1837; 1714; 1561; 1557; 2239; 2277; 1693; 2040; 2112; 1655; 1236; 1403; 1590; 2079; 1364; 1654; 1669; 1717; 1676; 1693; 1677; 1675; 5; 5; 5; 5; 4; 5; 1684; 1688; 1638; 1548; 1634; 1664; 1619; 1365;BATT_WBH;TRUE;TRUE;TRUE;TRUE;TRUE;TRUE;TRUE;TRUE;TRUE;TRUE;TRUE;TRUE;TRUE;TRUE;FALSE;TRUE;FALSE;FALSE;FALSE;FALSE;TRUE;TRUE;
SATNOGS;2023-01-22 00:38:18;SAFE; 307572809; 1620; 1601; 1607; 7; 2434; 1776; 730; 1090; 3227; 2096; 855; 498; 1236; 654; 1743; 1644; 1655; 1641; 1640; 1648; 1735; 1619; 1835; 1709; 1566; 1560; 2265; 2308; 1698; 1861; 1871; 1643; 1423; 1567; 1643; 1874; 1519; 1670; 1673; 1719; 1679; 1699; 1682; 1676; 6; 5; 5; 5; 5; 5; 1690; 1693; 1642; 1554; 1638; 1671; 1623; 1364;BATT_WBH;TRUE;TRUE;TRUE;TRUE;TRUE;TRUE;TRUE;TRUE;TRUE;TRUE;TRUE;TRUE;TRUE;TRUE;FALSE;TRUE;FALSE;FALSE;FALSE;FALSE;TRUE;TRUE;
SATNOGS;2023-01-21 12:18:13;SAFE; 307391320; 1640; 1623; 1627; 8; 2452; 1782; 731; 1091; 3227; 2099; 686; 481; 1230; 814; 1745; 1610; 1674; 1677; 1628; 1651; 1123; 1127; 1163; 1125; 1102; 1561; 2205; 2241; 1686; 1046; 1409; 1647; 2258; 1915; 1808; 1012; 1916; 1689; 1663; 1718; 1668; 1685; 1674; 1668; 6; 953; 5; 554; 11; 563; 1674; 1681; 1642; 1526; 1639; 1643; 1617; 1327;BATT_WBH;TRUE;TRUE;TRUE;TRUE;TRUE;TRUE;TRUE;TRUE;TRUE;TRUE;TRUE;TRUE;TRUE;TRUE;FALSE;TRUE;FALSE;FALSE;FALSE;FALSE;TRUE;TRUE;
SATNOGS;2023-01-21 12:17:13;SAFE; 307391075; 1640; 1621; 1626; 8; 2454; 1787; 730; 1091; 3226; 2099; 544; 487; 1259; 597; 1744; 1609; 1671; 1672; 1626; 1648; 1125; 1132; 1155; 1130; 1094; 1561; 2209; 2243; 1686; 1029; 1356; 1675; 2284; 2023; 1844; 994; 2022; 1696; 1663; 1720; 1668; 1686; 1674; 1668; 5; 5; 1406; 5; 5; 148; 1675; 1682; 1643; 1525; 1639; 1644; 1617; 1326;BATT_WBH;TRUE;TRUE;TRUE;TRUE;TRUE;TRUE;TRUE;TRUE;TRUE;TRUE;TRUE;TRUE;TRUE;TRUE;FALSE;TRUE;FALSE;FALSE;FALSE;FALSE;TRUE;TRUE;
SATNOGS;2023-01-21 04:06:27;SAFE; 307270676; 1611; 1589; 1597; 8; 2488; 1789; 730; 1090; 3226; 2099; 848; 488; 1227; 732; 1748; 1640; 1663; 1648; 1637; 1648; 1732; 1627; 1837; 1702; 1565; 1566; 2283; 2334; 1703; 1611; 1656; 1660; 1688; 1711; 1718; 1596; 1688; 1703; 1677; 1724; 1684; 1702; 1687; 1681; 6; 5; 5; 5; 6; 5; 1695; 1700; 1648; 1555; 1644; 1674; 1627; 1356;BATT_WBH;TRUE;TRUE;TRUE;TRUE;TRUE;TRUE;TRUE;TRUE;TRUE;TRUE;TRUE;TRUE;TRUE;TRUE;FALSE;TRUE;FALSE;FALSE;FALSE;FALSE;TRUE;TRUE;
SATNOGS;2023-01-20 21:52:13;SAFE; 307178964; 1637; 1623; 1625; 8; 2551; 1790; 729; 1090; 3223; 2100; 480; 492; 1252; 654; 1752; 1617; 1652; 1631; 1616; 1624; 1742; 1626; 1846; 1716; 1568; 1565; 2245; 2289; 1694; 1410; 1457; 1626; 1883; 1939; 1678; 1391; 1918; 1691; 1668; 1724; 1676; 1694; 1679; 1672; 5; 5; 5; 5; 6; 5; 1685; 1689; 1646; 1539; 1642; 1656; 1623; 1336;BATT_WBH;TRUE;TRUE;TRUE;TRUE;TRUE;TRUE;TRUE;TRUE;TRUE;TRUE;TRUE;TRUE;TRUE;TRUE;FALSE;TRUE;FALSE;FALSE;FALSE;FALSE;TRUE;TRUE;
SATNOGS;2023-01-20 21:51:33;SAFE; 307178719; 1635; 1622; 1622; 7; 2551; 1788; 731; 1090; 3224; 2098; 658; 517; 1217; 740; 1751; 1619; 1653; 1634; 1619; 1626; 1742; 1634; 1846; 1716; 1566; 1565; 2249; 2295; 1695; 1485; 1484; 1622; 1813; 1894; 1677; 1469; 1843; 1699; 1669; 1724; 1677; 1694; 1679; 1673; 5; 5; 4; 5; 6; 5; 1687; 1691; 1646; 1542; 1642; 1658; 1623; 1340;BATT_WBH;TRUE;TRUE;TRUE;TRUE;TRUE;TRUE;TRUE;TRUE;TRUE;TRUE;TRUE;TRUE;TRUE;TRUE;FALSE;TRUE;FALSE;FALSE;FALSE;FALSE;TRUE;TRUE;
SATNOGS;2023-01-20 21:50:53;SAFE; 307178719; 1635; 1622; 1622; 7; 2551; 1788; 731; 1090; 3224; 2098; 658; 517; 1217; 740; 1751; 1619; 1653; 1634; 1619; 1626; 1742; 1634; 1846; 1716; 1566; 1565; 2249; 2295; 1695; 1485; 1484; 1622; 1813; 1894; 1677; 1469; 1843; 1699; 1669; 1724; 1677; 1694; 1679; 1673; 5; 5; 4; 5; 6; 5; 1687; 1691; 1646; 1542; 1642; 1658; 1623; 1340;BATT_WBH;TRUE;TRUE;TRUE;TRUE;TRUE;TRUE;TRUE;TRUE;TRUE;TRUE;TRUE;TRUE;TRUE;TRUE;FALSE;TRUE;FALSE;FALSE;FALSE;FALSE;TRUE;TRUE;
SATNOGS;2023-01-19 22:10:33;SAFE; 306830393; 1624; 1615; 1613; 8; 2555; 1792; 730; 1090; 3222; 2102; 796; 481; 1252; 693; 1752; 1620; 1664; 1643; 1623; 1630; 1740; 1631; 1851; 1713; 1571; 1574; 2279; 2330; 1703; 1419; 1309; 1633; 1859; 2115; 1646; 1393; 2060; 1646; 1676; 1732; 1684; 1704; 1688; 1680; 6; 5; 5; 5; 3; 5; 1695; 1698; 1655; 1546; 1649; 1664; 1630; 1329;BATT_WBH;TRUE;TRUE;TRUE;TRUE;TRUE;TRUE;TRUE;TRUE;TRUE;TRUE;TRUE;TRUE;TRUE;TRUE;FALSE;TRUE;FALSE;FALSE;FALSE;FALSE;TRUE;TRUE;
SATNOGS;2023-01-19 22:09:33;SAFE; 306830148; 1624; 1614; 1611; 8; 2555; 1795; 730; 1090; 3223; 2100; 635; 477; 1217; 794; 1752; 1623; 1664; 1646; 1626; 1634; 1748; 1625; 1850; 1718; 1563; 1574; 2284; 2334; 1706; 1454; 1338; 1642; 1860; 2034; 1713; 1431; 1986; 1688; 1678; 1732; 1685; 1704; 1688; 1682; 5; 5; 5; 5; 6; 5; 1695; 1700; 1655; 1549; 1649; 1665; 1630; 1334;BATT_WBH;TRUE;TRUE;TRUE;TRUE;TRUE;TRUE;TRUE;TRUE;TRUE;TRUE;TRUE;TRUE;TRUE;TRUE;FALSE;TRUE;FALSE;FALSE;FALSE;FALSE;TRUE;TRUE;
SATNOGS;2023-01-19 22:09:13;SAFE; 306830148; 1624; 1614; 1611; 8; 2555; 1795; 730; 1090; 3223; 2100; 635; 477; 1217; 794; 1752; 1623; 1664; 1646; 1626; 1634; 1748; 1625; 1850; 1718; 1563; 1574; 2284; 2334; 1706; 1454; 1338; 1642; 1860; 2034; 1713; 1431; 1986; 1688; 1678; 1732; 1685; 1704; 1688; 1682; 5; 5; 5; 5; 6; 5; 1695; 1700; 1655; 1549; 1649; 1665; 1630; 1334;BATT_WBH;TRUE;TRUE;TRUE;TRUE;TRUE;TRUE;TRUE;TRUE;TRUE;TRUE;TRUE;TRUE;TRUE;TRUE;FALSE;TRUE;FALSE;FALSE;FALSE;FALSE;TRUE;TRUE;
SATNOGS;2023-01-17 11:57:14;SAFE; 305974643; 1611; 1606; 1599; 7; 2658; 1804; 730; 1091; 3216; 2101; 695; 499; 1223; 696; 1763; 1612; 1714; 1704; 1612; 1633; 1754; 2821; 1859; 1794; 1575; 1587; 2283; 2329; 1707; 1586; 1646; 1632; 1671; 1779; 1639; 1589; 1714; 1694; 1683; 1742; 1688; 1707; 1699; 1685; 6; 1469; 15; 5; 46; 56; 1695; 1701; 1661; 1527; 1655; 1655; 1634; 1281;BATT_WBH;TRUE;TRUE;TRUE;TRUE;TRUE;TRUE;TRUE;TRUE;TRUE;TRUE;TRUE;TRUE;TRUE;TRUE;FALSE;TRUE;FALSE;FALSE;FALSE;FALSE;TRUE;TRUE;
SATNOGS;2023-01-17 11:56:34;SAFE; 305974398; 1610; 1605; 1598; 7; 2664; 1800; 729; 1090; 3217; 2104; 865; 521; 1258; 675; 1764; 1614; 1711; 1698; 1613; 1631; 1755; 2092; 2873; 1716; 1557; 1588; 2286; 2333; 1708; 1505; 1607; 1688; 1739; 1830; 1701; 1498; 1793; 1705; 1683; 1743; 1689; 1708; 1699; 1684; 6; 821; 1137; 5; 6; 56; 1696; 1702; 1662; 1528; 1655; 1656; 1633; 1280;BATT_WBH;TRUE;TRUE;TRUE;TRUE;TRUE;TRUE;TRUE;TRUE;TRUE;TRUE;TRUE;TRUE;TRUE;TRUE;FALSE;TRUE;FALSE;FALSE;FALSE;FALSE;TRUE;TRUE;
SATNOGS;2023-01-17 00:35:59;SAFE; 305807859; 1660; 1659; 1647; 8; 2566; 1814; 729; 1090; 3217; 2106; 486; 527; 1260; 722; 1754; 1635; 1697; 1679; 1642; 1651; 1744; 1631; 1844; 1714; 1568; 1592; 2377; 2452; 1724; 1215; 1454; 1609; 2081; 1916; 1746; 1148; 1876; 1648; 1697; 1748; 1703; 1724; 1712; 1698; 5; 5; 5; 5; 5; 5; 1718; 1719; 1664; 1557; 1657; 1687; 1640; 1311;BATT_WBH;TRUE;TRUE;TRUE;TRUE;TRUE;TRUE;TRUE;TRUE;TRUE;TRUE;TRUE;TRUE;TRUE;TRUE;FALSE;TRUE;FALSE;FALSE;FALSE;FALSE;TRUE;TRUE;
SATNOGS;2023-01-17 00:34:59;SAFE; 305807614; 1659; 1660; 1647; 8; 2566; 1809; 730; 1090; 3216; 2103; 673; 479; 1231; 604; 1754; 1636; 1699; 1683; 1644; 1651; 1743; 1628; 1844; 1707; 1565; 1591; 2381; 2459; 1724; 1256; 1522; 1652; 2031; 1913; 1757; 1203; 1860; 1671; 1698; 1748; 1703; 1724; 1714; 1699; 5; 5; 5; 5; 5; 5; 1719; 1720; 1664; 1560; 1658; 1688; 1639; 1313;BATT_WBH;TRUE;TRUE;TRUE;TRUE;TRUE;TRUE;TRUE;TRUE;TRUE;TRUE;TRUE;TRUE;TRUE;TRUE;FALSE;TRUE;FALSE;FALSE;FALSE;FALSE;TRUE;TRUE;
SATNOGS;2023-01-17 00:34:39;SAFE; 305807614; 1659; 1660; 1647; 8; 2566; 1809; 730; 1090; 3216; 2103; 673; 479; 1231; 604; 1754; 1636; 1699; 1683; 1644; 1651; 1743; 1628; 1844; 1707; 1565; 1591; 2381; 2459; 1724; 1256; 1522; 1652; 2031; 1913; 1757; 1203; 1860; 1671; 1698; 1748; 1703; 1724; 1714; 1699; 5; 5; 5; 5; 5; 5; 1719; 1720; 1664; 1560; 1658; 1688; 1639; 1313;BATT_WBH;TRUE;TRUE;TRUE;TRUE;TRUE;TRUE;TRUE;TRUE;TRUE;TRUE;TRUE;TRUE;TRUE;TRUE;FALSE;TRUE;FALSE;FALSE;FALSE;FALSE;TRUE;TRUE;
SATNOGS;2023-01-17 00:33:19;SAFE; 305807124; 1658; 1659; 1646; 8; 2569; 1801; 730; 1090; 3215; 2103; 850; 480; 1236; 696; 1754; 1640; 1704; 1687; 1647; 1656; 1738; 1631; 1842; 1714; 1578; 1592; 2391; 2475; 1726; 1411; 1518; 1654; 1884; 1893; 1728; 1371; 1849; 1670; 1701; 1748; 1703; 1725; 1716; 1700; 5; 5; 5; 5; 6; 6; 1722; 1722; 1665; 1562; 1658; 1692; 1640; 1317;BATT_WBH;TRUE;TRUE;TRUE;TRUE;TRUE;TRUE;TRUE;TRUE;TRUE;TRUE;TRUE;TRUE;TRUE;TRUE;FALSE;TRUE;FALSE;FALSE;FALSE;FALSE;TRUE;TRUE;
SATNOGS;2023-01-16 23:02:31;SAFE; 305784835; 1632; 1630; 1620; 7; 2552; 1808; 730; 1089; 3216; 2106; 864; 478; 1253; 691; 1753; 1630; 1693; 1675; 1637; 1645; 1751; 1635; 1854; 1713; 1573; 1592; 2369; 2440; 1722; 1213; 1411; 1637; 2090; 1986; 1775; 1146; 1941; 1673; 1696; 1749; 1701; 1722; 1710; 1696; 5; 5; 5; 5; 5; 6; 1717; 1718; 1664; 1560; 1658; 1682; 1637; 1296;BATT_WBH;TRUE;TRUE;TRUE;TRUE;TRUE;TRUE;TRUE;TRUE;TRUE;TRUE;TRUE;TRUE;TRUE;TRUE;FALSE;TRUE;FALSE;FALSE;FALSE;FALSE;TRUE;TRUE;
SATNOGS;2023-01-16 23:02:31;SAFE; 305784835; 1632; 1630; 1620; 7; 2552; 1808; 730; 1089; 3216; 2106; 864; 478; 1253; 691; 1753; 1630; 1693; 1675; 1637; 1645; 1751; 1635; 1854; 1713; 1573; 1592; 2369; 2440; 1722; 1213; 1411; 1637; 2090; 1986; 1775; 1146; 1941; 1673; 1696; 1749; 1701; 1722; 1710; 1696; 5; 5; 5; 5; 5; 6; 1717; 1718; 1664; 1560; 1658; 1682; 1637; 1296;BATT_WBH;TRUE;TRUE;TRUE;TRUE;TRUE;TRUE;TRUE;TRUE;TRUE;TRUE;TRUE;TRUE;TRUE;TRUE;FALSE;TRUE;FALSE;FALSE;FALSE;FALSE;TRUE;TRUE;
SATNOGS;2023-01-16 23:01:51;SAFE; 305784835; 1632; 1630; 1620; 7; 2552; 1808; 730; 1089; 3216; 2106; 864; 478; 1253; 691; 1753; 1630; 1693; 1675; 1637; 1645; 1751; 1635; 1854; 1713; 1573; 1592; 2369; 2440; 1722; 1213; 1411; 1637; 2090; 1986; 1775; 1146; 1941; 1673; 1696; 1749; 1701; 1722; 1710; 1696; 5; 5; 5; 5; 5; 6; 1717; 1718; 1664; 1560; 1658; 1682; 1637; 1296;BATT_WBH;TRUE;TRUE;TRUE;TRUE;TRUE;TRUE;TRUE;TRUE;TRUE;TRUE;TRUE;TRUE;TRUE;TRUE;FALSE;TRUE;FALSE;FALSE;FALSE;FALSE;TRUE;TRUE;
SATNOGS;2023-01-16 23:01:51;SAFE; 305784835; 1632; 1630; 1620; 7; 2552; 1808; 730; 1089; 3216; 2106; 864; 478; 1253; 691; 1753; 1630; 1693; 1675; 1637; 1645; 1751; 1635; 1854; 1713; 1573; 1592; 2369; 2440; 1722; 1213; 1411; 1637; 2090; 1986; 1775; 1146; 1941; 1673; 1696; 1749; 1701; 1722; 1710; 1696; 5; 5; 5; 5; 5; 6; 1717; 1718; 1664; 1560; 1658; 1682; 1637; 1296;BATT_WBH;TRUE;TRUE;TRUE;TRUE;TRUE;TRUE;TRUE;TRUE;TRUE;TRUE;TRUE;TRUE;TRUE;TRUE;FALSE;TRUE;FALSE;FALSE;FALSE;FALSE;TRUE;TRUE;
SATNOGS;2023-01-16 21:31:34;SAFE; 305762547; 1599; 1595; 1588; 8; 2494; 1803; 730; 1090; 3218; 2105; 658; 504; 1247; 848; 1749; 1622; 1684; 1667; 1631; 1636; 1747; 1631; 1852; 1717; 1571; 1591; 2348; 2415; 1718; 1182; 1354; 1637; 2133; 1990; 1720; 1113; 1990; 1678; 1692; 1747; 1698; 1719; 1706; 1693; 6; 5; 5; 5; 6; 6; 1711; 1715; 1664; 1545; 1657; 1675; 1638; 1290;NONE;TRUE;TRUE;TRUE;TRUE;TRUE;TRUE;TRUE;TRUE;TRUE;TRUE;TRUE;TRUE;TRUE;TRUE;FALSE;TRUE;FALSE;FALSE;FALSE;FALSE;TRUE;TRUE;
SATNOGS;2023-01-16 21:30:54;SAFE; 305762547; 1599; 1595; 1588; 8; 2494; 1803; 730; 1090; 3218; 2105; 658; 504; 1247; 848; 1749; 1622; 1684; 1667; 1631; 1636; 1747; 1631; 1852; 1717; 1571; 1591; 2348; 2415; 1718; 1182; 1354; 1637; 2133; 1990; 1720; 1113; 1990; 1678; 1692; 1747; 1698; 1719; 1706; 1693; 6; 5; 5; 5; 6; 6; 1711; 1715; 1664; 1545; 1657; 1675; 1638; 1290;NONE;TRUE;TRUE;TRUE;TRUE;TRUE;TRUE;TRUE;TRUE;TRUE;TRUE;TRUE;TRUE;TRUE;TRUE;FALSE;TRUE;FALSE;FALSE;FALSE;FALSE;TRUE;TRUE;
SATNOGS;2023-01-16 21:30:34;SAFE; 305762302; 1599; 1593; 1587; 8; 2495; 1810; 730; 1091; 3214; 2106; 666; 492; 1248; 685; 1748; 1624; 1686; 1668; 1633; 1639; 1746; 1630; 1851; 1720; 1572; 1590; 2354; 2422; 1720; 1211; 1323; 1660; 2098; 2093; 1740; 1150; 2081; 1676; 1692; 1749; 1699; 1718; 1707; 1694; 5; 6; 5; 5; 6; 6; 1713; 1715; 1664; 1548; 1658; 1677; 1637; 1292;NONE;TRUE;TRUE;TRUE;TRUE;TRUE;TRUE;TRUE;TRUE;TRUE;TRUE;TRUE;TRUE;TRUE;TRUE;FALSE;TRUE;FALSE;FALSE;FALSE;FALSE;TRUE;TRUE;
SATNOGS;2023-01-16 17:07:27;SAFE; 305697896; 1665; 1665; 1652; 8; 2428; 1814; 730; 1090; 3217; 2105; 656; 509; 1238; 593; 1746; 1624; 1743; 1734; 1624; 1642; 1769; 2272; 2199; 1863; 1628; 1591; 2286; 2348; 1711; 2120; 2080; 1637; 1152; 1380; 1575; 2184; 1329; 1654; 1690; 1746; 1690; 1711; 1709; 1689; 14; 1332; 79; 46; 197; 296; 1699; 1703; 1666; 1529; 1660; 1662; 1638; 1269;NONE;TRUE;TRUE;TRUE;TRUE;TRUE;TRUE;TRUE;TRUE;TRUE;TRUE;TRUE;TRUE;TRUE;TRUE;FALSE;TRUE;FALSE;FALSE;FALSE;FALSE;TRUE;TRUE;
SATNOGS;2023-01-16 17:07:07;SAFE; 305697896; 1665; 1665; 1652; 8; 2428; 1814; 730; 1090; 3217; 2105; 656; 509; 1238; 593; 1746; 1624; 1743; 1734; 1624; 1642; 1769; 2272; 2199; 1863; 1628; 1591; 2286; 2348; 1711; 2120; 2080; 1637; 1152; 1380; 1575; 2184; 1329; 1654; 1690; 1746; 1690; 1711; 1709; 1689; 14; 1332; 79; 46; 197; 296; 1699; 1703; 1666; 1529; 1660; 1662; 1638; 1269;NONE;TRUE;TRUE;TRUE;TRUE;TRUE;TRUE;TRUE;TRUE;TRUE;TRUE;TRUE;TRUE;TRUE;TRUE;FALSE;TRUE;FALSE;FALSE;FALSE;FALSE;TRUE;TRUE;
SATNOGS;2023-01-16 17:06:47;SAFE; 305697896; 1665; 1665; 1652; 8; 2428; 1814; 730; 1090; 3217; 2105; 656; 509; 1238; 593; 1746; 1624; 1743; 1734; 1624; 1642; 1769; 2272; 2199; 1863; 1628; 1591; 2286; 2348; 1711; 2120; 2080; 1637; 1152; 1380; 1575; 2184; 1329; 1654; 1690; 1746; 1690; 1711; 1709; 1689; 14; 1332; 79; 46; 197; 296; 1699; 1703; 1666; 1529; 1660; 1662; 1638; 1269;NONE;TRUE;TRUE;TRUE;TRUE;TRUE;TRUE;TRUE;TRUE;TRUE;TRUE;TRUE;TRUE;TRUE;TRUE;FALSE;TRUE;FALSE;FALSE;FALSE;FALSE;TRUE;TRUE;
SATNOGS;2023-01-16 17:05:07;SAFE; 305697406; 1664; 1664; 1652; 8; 2426; 1812; 730; 1091; 3215; 2104; 672; 506; 1226; 691; 1748; 1621; 1738; 1728; 1621; 1639; 1787; 2552; 2072; 1748; 1683; 1593; 2289; 2347; 1711; 2024; 2030; 1670; 1252; 1375; 1622; 2087; 1313; 1692; 1689; 1748; 1691; 1711; 1708; 1689; 46; 1419; 129; 5; 248; 62; 1701; 1703; 1667; 1528; 1661; 1661; 1638; 1266;NONE;TRUE;TRUE;TRUE;TRUE;TRUE;TRUE;TRUE;TRUE;TRUE;TRUE;TRUE;TRUE;TRUE;TRUE;FALSE;TRUE;FALSE;FALSE;FALSE;FALSE;TRUE;TRUE;
SATNOGS;2023-01-16 17:04:47;SAFE; 305697406; 1664; 1664; 1652; 8; 2426; 1812; 730; 1091; 3215; 2104; 672; 506; 1226; 691; 1748; 1621; 1738; 1728; 1621; 1639; 1787; 2552; 2072; 1748; 1683; 1593; 2289; 2347; 1711; 2024; 2030; 1670; 1252; 1375; 1622; 2087; 1313; 1692; 1689; 1748; 1691; 1711; 1708; 1689; 46; 1419; 129; 5; 248; 62; 1701; 1703; 1667; 1528; 1661; 1661; 1638; 1266;NONE;TRUE;TRUE;TRUE;TRUE;TRUE;TRUE;TRUE;TRUE;TRUE;TRUE;TRUE;TRUE;TRUE;TRUE;FALSE;TRUE;FALSE;FALSE;FALSE;FALSE;TRUE;TRUE;
SATNOGS;2023-01-16 17:04:27;SAFE; 305697161; 1664; 1663; 1652; 8; 2422; 1807; 730; 1090; 3215; 2107; 676; 508; 1266; 791; 1747; 1619; 1735; 1724; 1619; 1638; 1752; 1955; 3005; 1797; 1571; 1593; 2292; 2346; 1711; 1984; 1979; 1696; 1281; 1437; 1628; 2047; 1368; 1699; 1689; 1748; 1690; 1712; 1708; 1689; 6; 586; 1243; 5; 5; 192; 1701; 1704; 1667; 1528; 1660; 1661; 1638; 1266;NONE;TRUE;TRUE;TRUE;TRUE;TRUE;TRUE;TRUE;TRUE;TRUE;TRUE;TRUE;TRUE;TRUE;TRUE;FALSE;TRUE;FALSE;FALSE;FALSE;FALSE;TRUE;TRUE;
SATNOGS;2023-01-16 17:04:07;SAFE; 305697161; 1664; 1663; 1652; 8; 2422; 1807; 730; 1090; 3215; 2107; 676; 508; 1266; 791; 1747; 1619; 1735; 1724; 1619; 1638; 1752; 1955; 3005; 1797; 1571; 1593; 2292; 2346; 1711; 1984; 1979; 1696; 1281; 1437; 1628; 2047; 1368; 1699; 1689; 1748; 1690; 1712; 1708; 1689; 6; 586; 1243; 5; 5; 192; 1701; 1704; 1667; 1528; 1660; 1661; 1638; 1266;NONE;TRUE;TRUE;TRUE;TRUE;TRUE;TRUE;TRUE;TRUE;TRUE;TRUE;TRUE;TRUE;TRUE;TRUE;FALSE;TRUE;FALSE;FALSE;FALSE;FALSE;TRUE;TRUE;
SATNOGS;2023-01-16 12:16:34;SAFE; 305626647; 1652; 1650; 1639; 8; 2533; 1816; 730; 1091; 3214; 2105; 867; 494; 1234; 771; 1751; 1622; 1730; 1720; 1620; 1639; 1763; 1635; 1876; 1722; 1574; 1593; 2304; 2357; 1713; 1804; 1805; 1684; 1490; 1569; 1702; 1822; 1523; 1716; 1689; 1749; 1693; 1713; 1707; 1691; 7; 1429; 47; 5; 58; 62; 1703; 1709; 1666; 1533; 1660; 1663; 1638; 1276;BATT_WBH;TRUE;TRUE;TRUE;TRUE;TRUE;TRUE;TRUE;TRUE;TRUE;TRUE;TRUE;TRUE;TRUE;TRUE;FALSE;TRUE;FALSE;FALSE;FALSE;FALSE;TRUE;TRUE;
