Source;Received;Operating_Mode;Misison_Clock;BATT_TBAT1_TM;BATT_TBAT2_TM;BATT_TBAT3_TM;RESERVED;BATT_VBAT_TM;PSU_T_TM;P3V3_TM;P5V_TM;P15V_TM;N15V_TM;PSU_IP5V_TM;PSU_IP15V_TM;PSU_IN15V_TM;PSU_IP3V3_TM;PDU_IVBUS_TM;PV_TPSXP_TM;PV_TPSXN_TM;PV_TPSYP_TM;PV_TPSYN_TM;PV_TPSZP_TM;PV_ISPXP_TM;PV_ISPXN_TM;PV_ISPYP_TM;PV_ISPYN_TM;PV_ISPZP_TM;OBC_T_TM;MGM1_T_TM;MGM2_T_TM;MGM3_T_TM;MGM1_X_TM;MGM1_Y_TM;MGM1_Z_TM;MGM2_X_TM;MGM2_Y_TM;MGM2_Z_TM;MGM3_X_TM;MGM3_Y_TM;MGM3_Z_TM;MGT_TX_TM;MODEM_T_TR_TM;EBOX_T_INT_TM;EBOX_T_EXT_TM;BATT_T_EXT_TM;BATT_T_INT_TM;SS6_XP_TM;SS6_XN_TM;SS6_YP_TM;SS6_YN_TM;SS6_ZP_TM;SS6_ZN_TM;RW1_T_TM;RW2_T_TM;TP1_TM;TP2_TM;TP3_TM;TP4_TM;TP5_TM;TP6_TM;Battery_Warning;DAS_P3V;DAS_P5V;DAS_P15V;DAS_N15V;PDU_P3V3;PDU_P5V;MGM1_P5V;MGM2_P5V;MGM3_P15V;MGM3_N15V;MGT_X_VBUS;TEMP_A_P5V;TEMP_B_P5V;MODEM_VBUS;RW_P5V;RW_VBUS;MTS_VBUS;BOOM1_VBUS;BOOM2_VBUS;TTC_STAT;SMA_SB01;SMA_SB02;
SATNOGS;2023-01-15 23:21:31;SAFE; 305436869; 1671; 1673; 1659; 8; 2464; 1814; 729; 1090; 3213; 2105; 786; 501; 1240; 692; 1747; 1637; 1698; 1682; 1643; 1652; 1745; 1629; 1842; 1708; 1565; 1597; 2394; 2470; 1727; 1218; 1369; 1625; 2088; 1986; 1742; 1148; 1969; 1665; 1701; 1753; 1706; 1728; 1716; 1702; 6; 5; 5; 5; 6; 5; 1722; 1725; 1668; 1559; 1662; 1688; 1642; 1297;BATT_WBH;TRUE;TRUE;TRUE;TRUE;TRUE;TRUE;TRUE;TRUE;TRUE;TRUE;TRUE;TRUE;TRUE;TRUE;FALSE;TRUE;FALSE;FALSE;FALSE;FALSE;TRUE;TRUE;
SATNOGS;2023-01-15 23:21:31;SAFE; 305436869; 1671; 1673; 1659; 8; 2464; 1814; 729; 1090; 3213; 2105; 786; 501; 1240; 692; 1747; 1637; 1698; 1682; 1643; 1652; 1745; 1629; 1842; 1708; 1565; 1597; 2394; 2470; 1727; 1218; 1369; 1625; 2088; 1986; 1742; 1148; 1969; 1665; 1701; 1753; 1706; 1728; 1716; 1702; 6; 5; 5; 5; 6; 5; 1722; 1725; 1668; 1559; 1662; 1688; 1642; 1297;BATT_WBH;TRUE;TRUE;TRUE;TRUE;TRUE;TRUE;TRUE;TRUE;TRUE;TRUE;TRUE;TRUE;TRUE;TRUE;FALSE;TRUE;FALSE;FALSE;FALSE;FALSE;TRUE;TRUE;
SATNOGS;2023-01-15 23:21:11;SAFE; 305436869; 1671; 1673; 1659; 8; 2464; 1814; 729; 1090; 3213; 2105; 786; 501; 1240; 692; 1747; 1637; 1698; 1682; 1643; 1652; 1745; 1629; 1842; 1708; 1565; 1597; 2394; 2470; 1727; 1218; 1369; 1625; 2088; 1986; 1742; 1148; 1969; 1665; 1701; 1753; 1706; 1728; 1716; 1702; 6; 5; 5; 5; 6; 5; 1722; 1725; 1668; 1559; 1662; 1688; 1642; 1297;BATT_WBH;TRUE;TRUE;TRUE;TRUE;TRUE;TRUE;TRUE;TRUE;TRUE;TRUE;TRUE;TRUE;TRUE;TRUE;FALSE;TRUE;FALSE;FALSE;FALSE;FALSE;TRUE;TRUE;
SATNOGS;2023-01-15 23:21:11;SAFE; 305436869; 1671; 1673; 1659; 8; 2464; 1814; 729; 1090; 3213; 2105; 786; 501; 1240; 692; 1747; 1637; 1698; 1682; 1643; 1652; 1745; 1629; 1842; 1708; 1565; 1597; 2394; 2470; 1727; 1218; 1369; 1625; 2088; 1986; 1742; 1148; 1969; 1665; 1701; 1753; 1706; 1728; 1716; 1702; 6; 5; 5; 5; 6; 5; 1722; 1725; 1668; 1559; 1662; 1688; 1642; 1297;BATT_WBH;TRUE;TRUE;TRUE;TRUE;TRUE;TRUE;TRUE;TRUE;TRUE;TRUE;TRUE;TRUE;TRUE;TRUE;FALSE;TRUE;FALSE;FALSE;FALSE;FALSE;TRUE;TRUE;
SATNOGS;2023-01-15 23:20:51;SAFE; 305436869; 1671; 1673; 1659; 8; 2464; 1814; 729; 1090; 3213; 2105; 786; 501; 1240; 692; 1747; 1637; 1698; 1682; 1643; 1652; 1745; 1629; 1842; 1708; 1565; 1597; 2394; 2470; 1727; 1218; 1369; 1625; 2088; 1986; 1742; 1148; 1969; 1665; 1701; 1753; 1706; 1728; 1716; 1702; 6; 5; 5; 5; 6; 5; 1722; 1725; 1668; 1559; 1662; 1688; 1642; 1297;BATT_WBH;TRUE;TRUE;TRUE;TRUE;TRUE;TRUE;TRUE;TRUE;TRUE;TRUE;TRUE;TRUE;TRUE;TRUE;FALSE;TRUE;FALSE;FALSE;FALSE;FALSE;TRUE;TRUE;
SATNOGS;2023-01-15 23:20:51;SAFE; 305436869; 1671; 1673; 1659; 8; 2464; 1814; 729; 1090; 3213; 2105; 786; 501; 1240; 692; 1747; 1637; 1698; 1682; 1643; 1652; 1745; 1629; 1842; 1708; 1565; 1597; 2394; 2470; 1727; 1218; 1369; 1625; 2088; 1986; 1742; 1148; 1969; 1665; 1701; 1753; 1706; 1728; 1716; 1702; 6; 5; 5; 5; 6; 5; 1722; 1725; 1668; 1559; 1662; 1688; 1642; 1297;BATT_WBH;TRUE;TRUE;TRUE;TRUE;TRUE;TRUE;TRUE;TRUE;TRUE;TRUE;TRUE;TRUE;TRUE;TRUE;FALSE;TRUE;FALSE;FALSE;FALSE;FALSE;TRUE;TRUE;
SATNOGS;2023-01-15 21:50:14;SAFE; 305414583; 1660; 1661; 1648; 8; 2559; 1811; 729; 1090; 3214; 2104; 679; 514; 1261; 771; 1754; 1625; 1687; 1667; 1633; 1638; 1747; 1630; 1845; 1714; 1558; 1594; 2359; 2427; 1720; 1278; 1427; 1628; 2038; 1917; 1748; 1215; 1936; 1680; 1694; 1750; 1701; 1720; 1707; 1694; 5; 5; 5; 5; 5; 6; 1715; 1718; 1665; 1555; 1658; 1677; 1637; 1284;BATT_WBH;TRUE;TRUE;TRUE;TRUE;TRUE;TRUE;TRUE;TRUE;TRUE;TRUE;TRUE;TRUE;TRUE;TRUE;FALSE;TRUE;FALSE;FALSE;FALSE;FALSE;TRUE;TRUE;
SATNOGS;2023-01-15 21:49:54;SAFE; 305414583; 1660; 1661; 1648; 8; 2559; 1811; 729; 1090; 3214; 2104; 679; 514; 1261; 771; 1754; 1625; 1687; 1667; 1633; 1638; 1747; 1630; 1845; 1714; 1558; 1594; 2359; 2427; 1720; 1278; 1427; 1628; 2038; 1917; 1748; 1215; 1936; 1680; 1694; 1750; 1701; 1720; 1707; 1694; 5; 5; 5; 5; 5; 6; 1715; 1718; 1665; 1555; 1658; 1677; 1637; 1284;BATT_WBH;TRUE;TRUE;TRUE;TRUE;TRUE;TRUE;TRUE;TRUE;TRUE;TRUE;TRUE;TRUE;TRUE;TRUE;FALSE;TRUE;FALSE;FALSE;FALSE;FALSE;TRUE;TRUE;
SATNOGS;2023-01-15 21:49:34;SAFE; 305414338; 1660; 1661; 1648; 8; 2561; 1812; 729; 1090; 3215; 2105; 670; 491; 1240; 712; 1754; 1625; 1689; 1671; 1636; 1642; 1743; 1635; 1844; 1714; 1572; 1594; 2363; 2433; 1722; 1247; 1444; 1654; 2057; 1933; 1732; 1190; 1945; 1685; 1695; 1750; 1701; 1722; 1710; 1695; 5; 5; 5; 5; 6; 5; 1715; 1718; 1664; 1556; 1659; 1680; 1638; 1286;BATT_WBH;TRUE;TRUE;TRUE;TRUE;TRUE;TRUE;TRUE;TRUE;TRUE;TRUE;TRUE;TRUE;TRUE;TRUE;FALSE;TRUE;FALSE;FALSE;FALSE;FALSE;TRUE;TRUE;
SATNOGS;2023-01-15 21:49:14;SAFE; 305414338; 1660; 1661; 1648; 8; 2561; 1812; 729; 1090; 3215; 2105; 670; 491; 1240; 712; 1754; 1625; 1689; 1671; 1636; 1642; 1743; 1635; 1844; 1714; 1572; 1594; 2363; 2433; 1722; 1247; 1444; 1654; 2057; 1933; 1732; 1190; 1945; 1685; 1695; 1750; 1701; 1722; 1710; 1695; 5; 5; 5; 5; 6; 5; 1715; 1718; 1664; 1556; 1659; 1680; 1638; 1286;BATT_WBH;TRUE;TRUE;TRUE;TRUE;TRUE;TRUE;TRUE;TRUE;TRUE;TRUE;TRUE;TRUE;TRUE;TRUE;FALSE;TRUE;FALSE;FALSE;FALSE;FALSE;TRUE;TRUE;
SATNOGS;2023-01-14 23:38:55;SAFE; 305088474; 1655; 1656; 1641; 8; 2331; 1810; 730; 1089; 3213; 2106; 732; 507; 1242; 614; 1739; 1638; 1699; 1683; 1644; 1655; 1744; 1634; 1844; 1716; 1576; 1596; 2395; 2474; 1727; 1267; 1421; 1646; 2033; 1992; 1763; 1208; 1972; 1670; 1701; 1753; 1706; 1727; 1716; 1702; 6; 5; 5; 5; 6; 5; 1722; 1723; 1671; 1566; 1664; 1690; 1644; 1311;NONE;TRUE;TRUE;TRUE;TRUE;TRUE;TRUE;TRUE;TRUE;TRUE;TRUE;TRUE;TRUE;TRUE;TRUE;FALSE;TRUE;FALSE;FALSE;FALSE;FALSE;TRUE;TRUE;
SATNOGS;2023-01-14 23:38:55;SAFE; 305088474; 1655; 1656; 1641; 8; 2331; 1810; 730; 1089; 3213; 2106; 732; 507; 1242; 614; 1739; 1638; 1699; 1683; 1644; 1655; 1744; 1634; 1844; 1716; 1576; 1596; 2395; 2474; 1727; 1267; 1421; 1646; 2033; 1992; 1763; 1208; 1972; 1670; 1701; 1753; 1706; 1727; 1716; 1702; 6; 5; 5; 5; 6; 5; 1722; 1723; 1671; 1566; 1664; 1690; 1644; 1311;NONE;TRUE;TRUE;TRUE;TRUE;TRUE;TRUE;TRUE;TRUE;TRUE;TRUE;TRUE;TRUE;TRUE;TRUE;FALSE;TRUE;FALSE;FALSE;FALSE;FALSE;TRUE;TRUE;
SATNOGS;2023-01-14 23:38:35;SAFE; 305088474; 1655; 1656; 1641; 8; 2331; 1810; 730; 1089; 3213; 2106; 732; 507; 1242; 614; 1739; 1638; 1699; 1683; 1644; 1655; 1744; 1634; 1844; 1716; 1576; 1596; 2395; 2474; 1727; 1267; 1421; 1646; 2033; 1992; 1763; 1208; 1972; 1670; 1701; 1753; 1706; 1727; 1716; 1702; 6; 5; 5; 5; 6; 5; 1722; 1723; 1671; 1566; 1664; 1690; 1644; 1311;NONE;TRUE;TRUE;TRUE;TRUE;TRUE;TRUE;TRUE;TRUE;TRUE;TRUE;TRUE;TRUE;TRUE;TRUE;FALSE;TRUE;FALSE;FALSE;FALSE;FALSE;TRUE;TRUE;
SATNOGS;2023-01-14 23:38:35;SAFE; 305088474; 1655; 1656; 1641; 8; 2331; 1810; 730; 1089; 3213; 2106; 732; 507; 1242; 614; 1739; 1638; 1699; 1683; 1644; 1655; 1744; 1634; 1844; 1716; 1576; 1596; 2395; 2474; 1727; 1267; 1421; 1646; 2033; 1992; 1763; 1208; 1972; 1670; 1701; 1753; 1706; 1727; 1716; 1702; 6; 5; 5; 5; 6; 5; 1722; 1723; 1671; 1566; 1664; 1690; 1644; 1311;NONE;TRUE;TRUE;TRUE;TRUE;TRUE;TRUE;TRUE;TRUE;TRUE;TRUE;TRUE;TRUE;TRUE;TRUE;FALSE;TRUE;FALSE;FALSE;FALSE;FALSE;TRUE;TRUE;
SATNOGS;2023-01-14 23:38:16;SAFE; 305088474; 1655; 1656; 1641; 8; 2331; 1810; 730; 1089; 3213; 2106; 732; 507; 1242; 614; 1739; 1638; 1699; 1683; 1644; 1655; 1744; 1634; 1844; 1716; 1576; 1596; 2395; 2474; 1727; 1267; 1421; 1646; 2033; 1992; 1763; 1208; 1972; 1670; 1701; 1753; 1706; 1727; 1716; 1702; 6; 5; 5; 5; 6; 5; 1722; 1723; 1671; 1566; 1664; 1690; 1644; 1311;NONE;TRUE;TRUE;TRUE;TRUE;TRUE;TRUE;TRUE;TRUE;TRUE;TRUE;TRUE;TRUE;TRUE;TRUE;FALSE;TRUE;FALSE;FALSE;FALSE;FALSE;TRUE;TRUE;
SATNOGS;2023-01-14 23:38:16;SAFE; 305088474; 1655; 1656; 1641; 8; 2331; 1810; 730; 1089; 3213; 2106; 732; 507; 1242; 614; 1739; 1638; 1699; 1683; 1644; 1655; 1744; 1634; 1844; 1716; 1576; 1596; 2395; 2474; 1727; 1267; 1421; 1646; 2033; 1992; 1763; 1208; 1972; 1670; 1701; 1753; 1706; 1727; 1716; 1702; 6; 5; 5; 5; 6; 5; 1722; 1723; 1671; 1566; 1664; 1690; 1644; 1311;NONE;TRUE;TRUE;TRUE;TRUE;TRUE;TRUE;TRUE;TRUE;TRUE;TRUE;TRUE;TRUE;TRUE;TRUE;FALSE;TRUE;FALSE;FALSE;FALSE;FALSE;TRUE;TRUE;
SATNOGS;2023-01-14 17:43:52;SAFE; 305001516; 1664; 1660; 1650; 8; 2614; 1803; 729; 1091; 3220; 2103; 657; 503; 1245; 638; 1759; 1622; 1732; 1722; 1620; 1640; 1770; 2080; 2213; 1959; 1570; 1582; 2256; 2315; 1702; 2265; 2109; 1648; 1011; 1308; 1564; 2334; 1264; 1665; 1682; 1738; 1682; 1703; 1701; 1682; 17; 1274; 116; 127; 94; 526; 1689; 1694; 1658; 1523; 1652; 1656; 1630; 1278;BATT_WBH;TRUE;TRUE;TRUE;TRUE;TRUE;TRUE;TRUE;TRUE;TRUE;TRUE;TRUE;TRUE;TRUE;TRUE;FALSE;TRUE;FALSE;FALSE;FALSE;FALSE;TRUE;TRUE;
SATNOGS;2023-01-14 17:43:32;SAFE; 305001516; 1664; 1660; 1650; 8; 2614; 1803; 729; 1091; 3220; 2103; 657; 503; 1245; 638; 1759; 1622; 1732; 1722; 1620; 1640; 1770; 2080; 2213; 1959; 1570; 1582; 2256; 2315; 1702; 2265; 2109; 1648; 1011; 1308; 1564; 2334; 1264; 1665; 1682; 1738; 1682; 1703; 1701; 1682; 17; 1274; 116; 127; 94; 526; 1689; 1694; 1658; 1523; 1652; 1656; 1630; 1278;BATT_WBH;TRUE;TRUE;TRUE;TRUE;TRUE;TRUE;TRUE;TRUE;TRUE;TRUE;TRUE;TRUE;TRUE;TRUE;FALSE;TRUE;FALSE;FALSE;FALSE;FALSE;TRUE;TRUE;
SATNOGS;2023-01-14 17:43:12;SAFE; 305001516; 1664; 1660; 1650; 8; 2614; 1803; 729; 1091; 3220; 2103; 657; 503; 1245; 638; 1759; 1622; 1732; 1722; 1620; 1640; 1770; 2080; 2213; 1959; 1570; 1582; 2256; 2315; 1702; 2265; 2109; 1648; 1011; 1308; 1564; 2334; 1264; 1665; 1682; 1738; 1682; 1703; 1701; 1682; 17; 1274; 116; 127; 94; 526; 1689; 1694; 1658; 1523; 1652; 1656; 1630; 1278;BATT_WBH;TRUE;TRUE;TRUE;TRUE;TRUE;TRUE;TRUE;TRUE;TRUE;TRUE;TRUE;TRUE;TRUE;TRUE;FALSE;TRUE;FALSE;FALSE;FALSE;FALSE;TRUE;TRUE;
SATNOGS;2023-01-14 17:42:58;SAFE; 305001271; 1663; 1659; 1650; 8; 2618; 1796; 730; 1090; 3219; 2103; 472; 503; 1235; 642; 1758; 1619; 1729; 1720; 1616; 1637; 1825; 1866; 2821; 1719; 1706; 1582; 2242; 2293; 1702; 2256; 2124; 1692; 1011; 1317; 1573; 2341; 1261; 1673; 1681; 1738; 1682; 1703; 1701; 1682; 97; 718; 1233; 5; 42; 179; 1690; 1694; 1659; 1521; 1652; 1656; 1628; 1277;BATT_WBH;TRUE;TRUE;TRUE;TRUE;TRUE;TRUE;TRUE;TRUE;TRUE;TRUE;TRUE;TRUE;TRUE;TRUE;FALSE;TRUE;FALSE;FALSE;FALSE;FALSE;TRUE;TRUE;
SATNOGS;2023-01-14 17:42:52;SAFE; 305001271; 1663; 1659; 1650; 8; 2618; 1796; 730; 1090; 3219; 2103; 472; 503; 1235; 642; 1758; 1619; 1729; 1720; 1616; 1637; 1825; 1866; 2821; 1719; 1706; 1582; 2242; 2293; 1702; 2256; 2124; 1692; 1011; 1317; 1573; 2341; 1261; 1673; 1681; 1738; 1682; 1703; 1701; 1682; 97; 718; 1233; 5; 42; 179; 1690; 1694; 1659; 1521; 1652; 1656; 1628; 1277;BATT_WBH;TRUE;TRUE;TRUE;TRUE;TRUE;TRUE;TRUE;TRUE;TRUE;TRUE;TRUE;TRUE;TRUE;TRUE;FALSE;TRUE;FALSE;FALSE;FALSE;FALSE;TRUE;TRUE;
SATNOGS;2023-01-14 17:42:38;SAFE; 305001271; 1663; 1659; 1650; 8; 2618; 1796; 730; 1090; 3219; 2103; 472; 503; 1235; 642; 1758; 1619; 1729; 1720; 1616; 1637; 1825; 1866; 2821; 1719; 1706; 1582; 2242; 2293; 1702; 2256; 2124; 1692; 1011; 1317; 1573; 2341; 1261; 1673; 1681; 1738; 1682; 1703; 1701; 1682; 97; 718; 1233; 5; 42; 179; 1690; 1694; 1659; 1521; 1652; 1656; 1628; 1277;BATT_WBH;TRUE;TRUE;TRUE;TRUE;TRUE;TRUE;TRUE;TRUE;TRUE;TRUE;TRUE;TRUE;TRUE;TRUE;FALSE;TRUE;FALSE;FALSE;FALSE;FALSE;TRUE;TRUE;
SATNOGS;2023-01-14 17:42:32;SAFE; 305001271; 1663; 1659; 1650; 8; 2618; 1796; 730; 1090; 3219; 2103; 472; 503; 1235; 642; 1758; 1619; 1729; 1720; 1616; 1637; 1825; 1866; 2821; 1719; 1706; 1582; 2242; 2293; 1702; 2256; 2124; 1692; 1011; 1317; 1573; 2341; 1261; 1673; 1681; 1738; 1682; 1703; 1701; 1682; 97; 718; 1233; 5; 42; 179; 1690; 1694; 1659; 1521; 1652; 1656; 1628; 1277;BATT_WBH;TRUE;TRUE;TRUE;TRUE;TRUE;TRUE;TRUE;TRUE;TRUE;TRUE;TRUE;TRUE;TRUE;TRUE;FALSE;TRUE;FALSE;FALSE;FALSE;FALSE;TRUE;TRUE;
SATNOGS;2023-01-14 17:42:18;SAFE; 305001271; 1663; 1659; 1650; 8; 2618; 1796; 730; 1090; 3219; 2103; 472; 503; 1235; 642; 1758; 1619; 1729; 1720; 1616; 1637; 1825; 1866; 2821; 1719; 1706; 1582; 2242; 2293; 1702; 2256; 2124; 1692; 1011; 1317; 1573; 2341; 1261; 1673; 1681; 1738; 1682; 1703; 1701; 1682; 97; 718; 1233; 5; 42; 179; 1690; 1694; 1659; 1521; 1652; 1656; 1628; 1277;BATT_WBH;TRUE;TRUE;TRUE;TRUE;TRUE;TRUE;TRUE;TRUE;TRUE;TRUE;TRUE;TRUE;TRUE;TRUE;FALSE;TRUE;FALSE;FALSE;FALSE;FALSE;TRUE;TRUE;
SATNOGS;2023-01-14 17:42:12;SAFE; 305001271; 1663; 1659; 1650; 8; 2618; 1796; 730; 1090; 3219; 2103; 472; 503; 1235; 642; 1758; 1619; 1729; 1720; 1616; 1637; 1825; 1866; 2821; 1719; 1706; 1582; 2242; 2293; 1702; 2256; 2124; 1692; 1011; 1317; 1573; 2341; 1261; 1673; 1681; 1738; 1682; 1703; 1701; 1682; 97; 718; 1233; 5; 42; 179; 1690; 1694; 1659; 1521; 1652; 1656; 1628; 1277;BATT_WBH;TRUE;TRUE;TRUE;TRUE;TRUE;TRUE;TRUE;TRUE;TRUE;TRUE;TRUE;TRUE;TRUE;TRUE;FALSE;TRUE;FALSE;FALSE;FALSE;FALSE;TRUE;TRUE;
SATNOGS;2023-01-14 17:41:58;SAFE; 305001026; 1663; 1658; 1650; 7; 2605; 1808; 730; 1090; 3217; 2102; 665; 456; 1221; 618; 1758; 1617; 1726; 1717; 1615; 1635; 1778; 2578; 1857; 1761; 1654; 1583; 2260; 2314; 1703; 2249; 2107; 1661; 1029; 1293; 1579; 2325; 1249; 1680; 1681; 1739; 1683; 1703; 1700; 1682; 41; 1436; 54; 12; 219; 38; 1691; 1694; 1659; 1523; 1653; 1653; 1630; 1276;BATT_WBH;TRUE;TRUE;TRUE;TRUE;TRUE;TRUE;TRUE;TRUE;TRUE;TRUE;TRUE;TRUE;TRUE;TRUE;FALSE;TRUE;FALSE;FALSE;FALSE;FALSE;TRUE;TRUE;
SATNOGS;2023-01-14 17:41:52;SAFE; 305001026; 1663; 1658; 1650; 7; 2605; 1808; 730; 1090; 3217; 2102; 665; 456; 1221; 618; 1758; 1617; 1726; 1717; 1615; 1635; 1778; 2578; 1857; 1761; 1654; 1583; 2260; 2314; 1703; 2249; 2107; 1661; 1029; 1293; 1579; 2325; 1249; 1680; 1681; 1739; 1683; 1703; 1700; 1682; 41; 1436; 54; 12; 219; 38; 1691; 1694; 1659; 1523; 1653; 1653; 1630; 1276;BATT_WBH;TRUE;TRUE;TRUE;TRUE;TRUE;TRUE;TRUE;TRUE;TRUE;TRUE;TRUE;TRUE;TRUE;TRUE;FALSE;TRUE;FALSE;FALSE;FALSE;FALSE;TRUE;TRUE;
SATNOGS;2023-01-14 17:41:32;SAFE; 305001026; 1663; 1658; 1650; 7; 2605; 1808; 730; 1090; 3217; 2102; 665; 456; 1221; 618; 1758; 1617; 1726; 1717; 1615; 1635; 1778; 2578; 1857; 1761; 1654; 1583; 2260; 2314; 1703; 2249; 2107; 1661; 1029; 1293; 1579; 2325; 1249; 1680; 1681; 1739; 1683; 1703; 1700; 1682; 41; 1436; 54; 12; 219; 38; 1691; 1694; 1659; 1523; 1653; 1653; 1630; 1276;BATT_WBH;TRUE;TRUE;TRUE;TRUE;TRUE;TRUE;TRUE;TRUE;TRUE;TRUE;TRUE;TRUE;TRUE;TRUE;FALSE;TRUE;FALSE;FALSE;FALSE;FALSE;TRUE;TRUE;
SATNOGS;2023-01-14 17:41:18;SAFE; 305001026; 1663; 1658; 1650; 7; 2605; 1808; 730; 1090; 3217; 2102; 665; 456; 1221; 618; 1758; 1617; 1726; 1717; 1615; 1635; 1778; 2578; 1857; 1761; 1654; 1583; 2260; 2314; 1703; 2249; 2107; 1661; 1029; 1293; 1579; 2325; 1249; 1680; 1681; 1739; 1683; 1703; 1700; 1682; 41; 1436; 54; 12; 219; 38; 1691; 1694; 1659; 1523; 1653; 1653; 1630; 1276;BATT_WBH;TRUE;TRUE;TRUE;TRUE;TRUE;TRUE;TRUE;TRUE;TRUE;TRUE;TRUE;TRUE;TRUE;TRUE;FALSE;TRUE;FALSE;FALSE;FALSE;FALSE;TRUE;TRUE;
SATNOGS;2023-01-14 17:41:12;SAFE; 305001026; 1663; 1658; 1650; 7; 2605; 1808; 730; 1090; 3217; 2102; 665; 456; 1221; 618; 1758; 1617; 1726; 1717; 1615; 1635; 1778; 2578; 1857; 1761; 1654; 1583; 2260; 2314; 1703; 2249; 2107; 1661; 1029; 1293; 1579; 2325; 1249; 1680; 1681; 1739; 1683; 1703; 1700; 1682; 41; 1436; 54; 12; 219; 38; 1691; 1694; 1659; 1523; 1653; 1653; 1630; 1276;BATT_WBH;TRUE;TRUE;TRUE;TRUE;TRUE;TRUE;TRUE;TRUE;TRUE;TRUE;TRUE;TRUE;TRUE;TRUE;FALSE;TRUE;FALSE;FALSE;FALSE;FALSE;TRUE;TRUE;
SATNOGS;2023-01-14 17:40:58;SAFE; 305000781; 1662; 1658; 1649; 8; 2606; 1803; 730; 1090; 3216; 2102; 530; 492; 1252; 650; 1758; 1615; 1723; 1713; 1613; 1634; 1757; 2041; 2614; 1801; 1570; 1582; 2262; 2316; 1704; 2223; 2126; 1678; 1052; 1307; 1576; 2301; 1259; 1674; 1680; 1740; 1684; 1704; 1700; 1682; 6; 1004; 805; 5; 6; 491; 1692; 1695; 1659; 1522; 1653; 1653; 1630; 1274;BATT_WBH;TRUE;TRUE;TRUE;TRUE;TRUE;TRUE;TRUE;TRUE;TRUE;TRUE;TRUE;TRUE;TRUE;TRUE;FALSE;TRUE;FALSE;FALSE;FALSE;FALSE;TRUE;TRUE;
SATNOGS;2023-01-14 17:40:52;SAFE; 305000781; 1662; 1658; 1649; 8; 2606; 1803; 730; 1090; 3216; 2102; 530; 492; 1252; 650; 1758; 1615; 1723; 1713; 1613; 1634; 1757; 2041; 2614; 1801; 1570; 1582; 2262; 2316; 1704; 2223; 2126; 1678; 1052; 1307; 1576; 2301; 1259; 1674; 1680; 1740; 1684; 1704; 1700; 1682; 6; 1004; 805; 5; 6; 491; 1692; 1695; 1659; 1522; 1653; 1653; 1630; 1274;BATT_WBH;TRUE;TRUE;TRUE;TRUE;TRUE;TRUE;TRUE;TRUE;TRUE;TRUE;TRUE;TRUE;TRUE;TRUE;FALSE;TRUE;FALSE;FALSE;FALSE;FALSE;TRUE;TRUE;
SATNOGS;2023-01-13 11:36:18;SAFE; 304558805; 1677; 1665; 1663; 8; 2520; 1800; 730; 1090; 3219; 2099; 650; 499; 1222; 694; 1753; 1617; 1702; 1692; 1614; 1639; 1748; 3199; 1855; 1830; 1632; 1579; 2252; 2301; 1700; 2176; 2027; 1666; 1083; 1350; 1596; 2250; 1293; 1689; 1676; 1736; 1681; 1700; 1691; 1678; 6; 1421; 5; 26; 165; 17; 1688; 1693; 1659; 1535; 1653; 1650; 1632; 1308;NONE;TRUE;TRUE;TRUE;TRUE;TRUE;TRUE;TRUE;TRUE;TRUE;TRUE;TRUE;TRUE;TRUE;TRUE;FALSE;TRUE;FALSE;FALSE;FALSE;FALSE;TRUE;TRUE;
SATNOGS;2023-01-13 11:35:58;SAFE; 304558560; 1680; 1669; 1664; 9; 2514; 1804; 730; 1091; 3221; 2104; 578; 489; 1250; 694; 1753; 1616; 1699; 1688; 1614; 1636; 1748; 2211; 2665; 1720; 1556; 1580; 2257; 2305; 1702; 2152; 2048; 1681; 1103; 1363; 1596; 2233; 1306; 1685; 1677; 1736; 1680; 1700; 1692; 1679; 5; 763; 604; 5; 6; 936; 1689; 1695; 1660; 1536; 1653; 1650; 1631; 1308;NONE;TRUE;TRUE;TRUE;TRUE;TRUE;TRUE;TRUE;TRUE;TRUE;TRUE;TRUE;TRUE;TRUE;TRUE;FALSE;TRUE;FALSE;FALSE;FALSE;FALSE;TRUE;TRUE;
SATNOGS;2023-01-13 11:35:38;SAFE; 304558560; 1680; 1669; 1664; 9; 2514; 1804; 730; 1091; 3221; 2104; 578; 489; 1250; 694; 1753; 1616; 1699; 1688; 1614; 1636; 1748; 2211; 2665; 1720; 1556; 1580; 2257; 2305; 1702; 2152; 2048; 1681; 1103; 1363; 1596; 2233; 1306; 1685; 1677; 1736; 1680; 1700; 1692; 1679; 5; 763; 604; 5; 6; 936; 1689; 1695; 1660; 1536; 1653; 1650; 1631; 1308;NONE;TRUE;TRUE;TRUE;TRUE;TRUE;TRUE;TRUE;TRUE;TRUE;TRUE;TRUE;TRUE;TRUE;TRUE;FALSE;TRUE;FALSE;FALSE;FALSE;FALSE;TRUE;TRUE;
SATNOGS;2023-01-13 11:35:18;SAFE; 304558560; 1680; 1669; 1664; 9; 2514; 1804; 730; 1091; 3221; 2104; 578; 489; 1250; 694; 1753; 1616; 1699; 1688; 1614; 1636; 1748; 2211; 2665; 1720; 1556; 1580; 2257; 2305; 1702; 2152; 2048; 1681; 1103; 1363; 1596; 2233; 1306; 1685; 1677; 1736; 1680; 1700; 1692; 1679; 5; 763; 604; 5; 6; 936; 1689; 1695; 1660; 1536; 1653; 1650; 1631; 1308;NONE;TRUE;TRUE;TRUE;TRUE;TRUE;TRUE;TRUE;TRUE;TRUE;TRUE;TRUE;TRUE;TRUE;TRUE;FALSE;TRUE;FALSE;FALSE;FALSE;FALSE;TRUE;TRUE;
SATNOGS;2023-01-13 11:34:38;SAFE; 304558315; 1683; 1674; 1668; 8; 2520; 1802; 730; 1090; 3219; 2102; 664; 475; 1214; 830; 1753; 1616; 1694; 1683; 1614; 1635; 1750; 2219; 2578; 1717; 1903; 1580; 2262; 2309; 1701; 2122; 2039; 1698; 1135; 1375; 1605; 2202; 1317; 1699; 1675; 1736; 1682; 1701; 1691; 1680; 6; 512; 997; 5; 563; 6; 1690; 1695; 1659; 1536; 1653; 1652; 1634; 1307;NONE;TRUE;TRUE;TRUE;TRUE;TRUE;TRUE;TRUE;TRUE;TRUE;TRUE;TRUE;TRUE;TRUE;TRUE;FALSE;TRUE;FALSE;FALSE;FALSE;FALSE;TRUE;TRUE;
SATNOGS;2023-01-13 11:33:58;SAFE; 304558070; 1685; 1678; 1670; 8; 2505; 1805; 730; 1090; 3219; 2101; 468; 485; 1243; 795; 1752; 1616; 1692; 1678; 1614; 1632; 1750; 3283; 1855; 1748; 1556; 1580; 2265; 2314; 1702; 2093; 2000; 1650; 1173; 1389; 1575; 2162; 1331; 1684; 1677; 1737; 1682; 1701; 1691; 1680; 5; 1442; 5; 9; 7; 71; 1690; 1696; 1660; 1537; 1654; 1652; 1633; 1306;NONE;TRUE;TRUE;TRUE;TRUE;TRUE;TRUE;TRUE;TRUE;TRUE;TRUE;TRUE;TRUE;TRUE;TRUE;FALSE;TRUE;FALSE;FALSE;FALSE;FALSE;TRUE;TRUE;
SATNOGS;2023-01-11 22:59:16;SAFE; 304020269; 1610; 1595; 1598; 7; 2478; 1788; 729; 1091; 3225; 2100; 474; 467; 1256; 697; 1747; 1620; 1666; 1649; 1624; 1640; 1736; 1624; 1834; 1708; 1562; 1567; 2290; 2356; 1700; 1648; 1783; 1628; 1629; 1711; 1611; 1642; 1657; 1667; 1676; 1725; 1680; 1701; 1688; 1677; 6; 5; 4; 4; 5; 5; 1695; 1697; 1649; 1551; 1644; 1670; 1626; 1338;BATT_WBH;TRUE;TRUE;TRUE;TRUE;TRUE;TRUE;TRUE;TRUE;TRUE;TRUE;TRUE;TRUE;TRUE;TRUE;FALSE;TRUE;FALSE;FALSE;FALSE;FALSE;TRUE;TRUE;
SATNOGS;2023-01-11 22:59:16;SAFE; 304020269; 1610; 1595; 1598; 7; 2478; 1788; 729; 1091; 3225; 2100; 474; 467; 1256; 697; 1747; 1620; 1666; 1649; 1624; 1640; 1736; 1624; 1834; 1708; 1562; 1567; 2290; 2356; 1700; 1648; 1783; 1628; 1629; 1711; 1611; 1642; 1657; 1667; 1676; 1725; 1680; 1701; 1688; 1677; 6; 5; 4; 4; 5; 5; 1695; 1697; 1649; 1551; 1644; 1670; 1626; 1338;BATT_WBH;TRUE;TRUE;TRUE;TRUE;TRUE;TRUE;TRUE;TRUE;TRUE;TRUE;TRUE;TRUE;TRUE;TRUE;FALSE;TRUE;FALSE;FALSE;FALSE;FALSE;TRUE;TRUE;
SATNOGS;2023-01-11 22:58:56;SAFE; 304020024; 1610; 1593; 1597; 7; 2476; 1787; 730; 1091; 3225; 2099; 836; 490; 1239; 679; 1747; 1622; 1669; 1653; 1625; 1641; 1736; 1625; 1836; 1707; 1562; 1567; 2293; 2361; 1702; 1604; 1711; 1677; 1672; 1736; 1709; 1593; 1694; 1698; 1676; 1727; 1682; 1701; 1689; 1678; 5; 5; 5; 5; 6; 5; 1696; 1699; 1648; 1553; 1643; 1673; 1626; 1343;BATT_WBH;TRUE;TRUE;TRUE;TRUE;TRUE;TRUE;TRUE;TRUE;TRUE;TRUE;TRUE;TRUE;TRUE;TRUE;FALSE;TRUE;FALSE;FALSE;FALSE;FALSE;TRUE;TRUE;
SATNOGS;2023-01-11 22:58:56;SAFE; 304020024; 1610; 1593; 1597; 7; 2476; 1787; 730; 1091; 3225; 2099; 836; 490; 1239; 679; 1747; 1622; 1669; 1653; 1625; 1641; 1736; 1625; 1836; 1707; 1562; 1567; 2293; 2361; 1702; 1604; 1711; 1677; 1672; 1736; 1709; 1593; 1694; 1698; 1676; 1727; 1682; 1701; 1689; 1678; 5; 5; 5; 5; 6; 5; 1696; 1699; 1648; 1553; 1643; 1673; 1626; 1343;BATT_WBH;TRUE;TRUE;TRUE;TRUE;TRUE;TRUE;TRUE;TRUE;TRUE;TRUE;TRUE;TRUE;TRUE;TRUE;FALSE;TRUE;FALSE;FALSE;FALSE;FALSE;TRUE;TRUE;
SATNOGS;2023-01-09 22:04:20;SAFE; 303300479; 1611; 1588; 1599; 8; 2330; 1787; 730; 1091; 3224; 2101; 522; 493; 1252; 690; 1737; 1630; 1650; 1628; 1627; 1632; 1738; 1627; 1841; 1713; 1563; 1565; 2259; 2305; 1696; 2146; 2074; 1679; 1148; 1356; 1597; 2210; 1311; 1678; 1670; 1723; 1678; 1697; 1680; 1674; 5; 5; 5; 5; 5; 5; 1688; 1694; 1647; 1549; 1643; 1663; 1626; 1343;NONE;TRUE;TRUE;TRUE;TRUE;TRUE;TRUE;TRUE;TRUE;TRUE;TRUE;TRUE;TRUE;TRUE;TRUE;FALSE;TRUE;FALSE;FALSE;FALSE;FALSE;TRUE;TRUE;
SATNOGS;2023-01-09 22:04:00;SAFE; 303300233; 1610; 1587; 1597; 8; 2331; 1787; 730; 1090; 3226; 2099; 691; 482; 1231; 729; 1737; 1631; 1652; 1632; 1628; 1636; 1736; 1629; 1841; 1712; 1550; 1564; 2263; 2311; 1697; 2112; 2059; 1685; 1180; 1389; 1621; 2169; 1345; 1697; 1671; 1724; 1678; 1698; 1682; 1675; 6; 5; 5; 5; 6; 6; 1689; 1693; 1648; 1552; 1643; 1664; 1625; 1346;NONE;TRUE;TRUE;TRUE;TRUE;TRUE;TRUE;TRUE;TRUE;TRUE;TRUE;TRUE;TRUE;TRUE;TRUE;FALSE;TRUE;FALSE;FALSE;FALSE;FALSE;TRUE;TRUE;
SATNOGS;2023-01-09 22:03:20;SAFE; 303300233; 1610; 1587; 1597; 8; 2331; 1787; 730; 1090; 3226; 2099; 691; 482; 1231; 729; 1737; 1631; 1652; 1632; 1628; 1636; 1736; 1629; 1841; 1712; 1550; 1564; 2263; 2311; 1697; 2112; 2059; 1685; 1180; 1389; 1621; 2169; 1345; 1697; 1671; 1724; 1678; 1698; 1682; 1675; 6; 5; 5; 5; 6; 6; 1689; 1693; 1648; 1552; 1643; 1664; 1625; 1346;NONE;TRUE;TRUE;TRUE;TRUE;TRUE;TRUE;TRUE;TRUE;TRUE;TRUE;TRUE;TRUE;TRUE;TRUE;FALSE;TRUE;FALSE;FALSE;FALSE;FALSE;TRUE;TRUE;
SATNOGS;2023-01-09 22:00:19;SAFE; 303299498; 1607; 1582; 1594; 8; 2332; 1786; 730; 1090; 3224; 2099; 721; 485; 1242; 711; 1737; 1638; 1657; 1642; 1635; 1646; 1738; 1623; 1839; 1709; 1567; 1564; 2278; 2326; 1699; 1976; 1968; 1676; 1312; 1470; 1612; 2015; 1422; 1680; 1674; 1724; 1681; 1699; 1685; 1677; 5; 5; 5; 5; 5; 6; 1693; 1697; 1647; 1559; 1643; 1672; 1627; 1361;NONE;TRUE;TRUE;TRUE;TRUE;TRUE;TRUE;TRUE;TRUE;TRUE;TRUE;TRUE;TRUE;TRUE;TRUE;FALSE;TRUE;FALSE;FALSE;FALSE;FALSE;TRUE;TRUE;
SATNOGS;2023-01-09 21:59:58;SAFE; 303299253; 1606; 1581; 1594; 8; 2331; 1788; 730; 1090; 3226; 2098; 664; 483; 1220; 684; 1737; 1639; 1660; 1644; 1637; 1648; 1740; 1623; 1841; 1710; 1554; 1565; 2282; 2334; 1700; 1921; 1898; 1664; 1363; 1506; 1653; 1949; 1460; 1698; 1675; 1724; 1682; 1700; 1687; 1678; 5; 5; 5; 5; 5; 6; 1694; 1697; 1647; 1561; 1643; 1674; 1628; 1366;NONE;TRUE;TRUE;TRUE;TRUE;TRUE;TRUE;TRUE;TRUE;TRUE;TRUE;TRUE;TRUE;TRUE;TRUE;FALSE;TRUE;FALSE;FALSE;FALSE;FALSE;TRUE;TRUE;
SATNOGS;2023-01-09 21:59:39;SAFE; 303299253; 1606; 1581; 1594; 8; 2331; 1788; 730; 1090; 3226; 2098; 664; 483; 1220; 684; 1737; 1639; 1660; 1644; 1637; 1648; 1740; 1623; 1841; 1710; 1554; 1565; 2282; 2334; 1700; 1921; 1898; 1664; 1363; 1506; 1653; 1949; 1460; 1698; 1675; 1724; 1682; 1700; 1687; 1678; 5; 5; 5; 5; 5; 6; 1694; 1697; 1647; 1561; 1643; 1674; 1628; 1366;NONE;TRUE;TRUE;TRUE;TRUE;TRUE;TRUE;TRUE;TRUE;TRUE;TRUE;TRUE;TRUE;TRUE;TRUE;FALSE;TRUE;FALSE;FALSE;FALSE;FALSE;TRUE;TRUE;
SATNOGS;2023-01-09 21:59:18;SAFE; 303299253; 1606; 1581; 1594; 8; 2331; 1788; 730; 1090; 3226; 2098; 664; 483; 1220; 684; 1737; 1639; 1660; 1644; 1637; 1648; 1740; 1623; 1841; 1710; 1554; 1565; 2282; 2334; 1700; 1921; 1898; 1664; 1363; 1506; 1653; 1949; 1460; 1698; 1675; 1724; 1682; 1700; 1687; 1678; 5; 5; 5; 5; 5; 6; 1694; 1697; 1647; 1561; 1643; 1674; 1628; 1366;NONE;TRUE;TRUE;TRUE;TRUE;TRUE;TRUE;TRUE;TRUE;TRUE;TRUE;TRUE;TRUE;TRUE;TRUE;FALSE;TRUE;FALSE;FALSE;FALSE;FALSE;TRUE;TRUE;
SATNOGS;2023-01-09 21:58:59;SAFE; 303299007; 1606; 1579; 1593; 7; 2334; 1785; 730; 1091; 3226; 2100; 488; 488; 1240; 700; 1736; 1641; 1662; 1647; 1639; 1651; 1739; 1622; 1840; 1708; 1564; 1564; 2285; 2340; 1701; 1870; 1888; 1650; 1423; 1538; 1624; 1885; 1489; 1671; 1676; 1724; 1682; 1701; 1688; 1679; 6; 5; 5; 5; 6; 5; 1694; 1698; 1648; 1563; 1642; 1676; 1628; 1369;NONE;TRUE;TRUE;TRUE;TRUE;TRUE;TRUE;TRUE;TRUE;TRUE;TRUE;TRUE;TRUE;TRUE;TRUE;FALSE;TRUE;FALSE;FALSE;FALSE;FALSE;TRUE;TRUE;
SATNOGS;2023-01-09 12:53:45;SAFE; 303165332; 1651; 1632; 1638; 7; 2536; 1774; 730; 1090; 3227; 2097; 673; 487; 1210; 670; 1749; 1638; 1662; 1676; 1660; 1668; 1132; 1131; 1177; 1126; 1104; 1555; 2170; 2203; 1679; 1772; 1892; 1652; 1495; 1605; 1633; 1781; 1566; 1681; 1661; 1714; 1663; 1679; 1669; 1665; 53; 20; 93; 5; 1432; 12; 1665; 1670; 1637; 1523; 1633; 1640; 1614; 1341;BATT_WBH;TRUE;TRUE;TRUE;TRUE;TRUE;TRUE;TRUE;TRUE;TRUE;TRUE;TRUE;TRUE;TRUE;TRUE;FALSE;TRUE;FALSE;FALSE;FALSE;FALSE;TRUE;TRUE;
