Source;Received;Operating_Mode;Misison_Clock;BATT_TBAT1_TM;BATT_TBAT2_TM;BATT_TBAT3_TM;RESERVED;BATT_VBAT_TM;PSU_T_TM;P3V3_TM;P5V_TM;P15V_TM;N15V_TM;PSU_IP5V_TM;PSU_IP15V_TM;PSU_IN15V_TM;PSU_IP3V3_TM;PDU_IVBUS_TM;PV_TPSXP_TM;PV_TPSXN_TM;PV_TPSYP_TM;PV_TPSYN_TM;PV_TPSZP_TM;PV_ISPXP_TM;PV_ISPXN_TM;PV_ISPYP_TM;PV_ISPYN_TM;PV_ISPZP_TM;OBC_T_TM;MGM1_T_TM;MGM2_T_TM;MGM3_T_TM;MGM1_X_TM;MGM1_Y_TM;MGM1_Z_TM;MGM2_X_TM;MGM2_Y_TM;MGM2_Z_TM;MGM3_X_TM;MGM3_Y_TM;MGM3_Z_TM;MGT_TX_TM;MODEM_T_TR_TM;EBOX_T_INT_TM;EBOX_T_EXT_TM;BATT_T_EXT_TM;BATT_T_INT_TM;SS6_XP_TM;SS6_XN_TM;SS6_YP_TM;SS6_YN_TM;SS6_ZP_TM;SS6_ZN_TM;RW1_T_TM;RW2_T_TM;TP1_TM;TP2_TM;TP3_TM;TP4_TM;TP5_TM;TP6_TM;Battery_Warning;DAS_P3V;DAS_P5V;DAS_P15V;DAS_N15V;PDU_P3V3;PDU_P5V;MGM1_P5V;MGM2_P5V;MGM3_P15V;MGM3_N15V;MGT_X_VBUS;TEMP_A_P5V;TEMP_B_P5V;MODEM_VBUS;RW_P5V;RW_VBUS;MTS_VBUS;BOOM1_VBUS;BOOM2_VBUS;TTC_STAT;SMA_SB01;SMA_SB02;
SATNOGS;2022-11-03 12:07:28;SAFE; 279497533; 1653; 1632; 1638; 8; 2394; 1780; 730; 1091; 3231; 2097; 674; 484; 1233; 720; 1741; 1645; 1655; 1668; 1663; 1667; 1128; 1132; 1125; 1138; 1111; 1555; 2182; 2205; 1681; 1079; 1264; 1618; 2244; 2048; 1745; 1048; 2046; 1658; 1662; 1714; 1666; 1680; 1669; 1668; 5; 154; 8; 499; 73; 1060; 1669; 1676; 1634; 1522; 1631; 1643; 1612; 1341;BATT_WBH;TRUE;TRUE;TRUE;TRUE;TRUE;TRUE;TRUE;TRUE;TRUE;TRUE;TRUE;TRUE;TRUE;TRUE;FALSE;TRUE;FALSE;FALSE;FALSE;FALSE;TRUE;TRUE;
SATNOGS;2022-11-03 12:06:08;SAFE; 279497288; 1650; 1629; 1638; 8; 2395; 1780; 731; 1091; 3231; 2097; 582; 500; 1254; 588; 1740; 1643; 1653; 1664; 1660; 1664; 1129; 1131; 1161; 1126; 1109; 1556; 2183; 2210; 1682; 1071; 1288; 1634; 2245; 2060; 1760; 1046; 2067; 1660; 1662; 1715; 1666; 1681; 1669; 1667; 564; 38; 1314; 5; 6; 102; 1669; 1676; 1635; 1522; 1630; 1642; 1612; 1339;BATT_WBH;TRUE;TRUE;TRUE;TRUE;TRUE;TRUE;TRUE;TRUE;TRUE;TRUE;TRUE;TRUE;TRUE;TRUE;FALSE;TRUE;FALSE;FALSE;FALSE;FALSE;TRUE;TRUE;
SATNOGS;2022-11-03 12:05:48;SAFE; 279497043; 1649; 1629; 1636; 7; 2395; 1781; 731; 1090; 3229; 2097; 486; 489; 1221; 616; 1741; 1641; 1651; 1661; 1659; 1660; 1132; 1130; 1156; 1135; 1109; 1555; 2186; 2214; 1681; 1078; 1252; 1631; 2254; 2055; 1789; 1041; 2071; 1677; 1661; 1715; 1665; 1682; 1668; 1667; 5; 115; 26; 406; 1238; 5; 1670; 1678; 1634; 1522; 1631; 1641; 1612; 1336;BATT_WBH;TRUE;TRUE;TRUE;TRUE;TRUE;TRUE;TRUE;TRUE;TRUE;TRUE;TRUE;TRUE;TRUE;TRUE;FALSE;TRUE;FALSE;FALSE;FALSE;FALSE;TRUE;TRUE;
SATNOGS;2022-11-03 12:05:28;SAFE; 279497043; 1649; 1629; 1636; 7; 2395; 1781; 731; 1090; 3229; 2097; 486; 489; 1221; 616; 1741; 1641; 1651; 1661; 1659; 1660; 1132; 1130; 1156; 1135; 1109; 1555; 2186; 2214; 1681; 1078; 1252; 1631; 2254; 2055; 1789; 1041; 2071; 1677; 1661; 1715; 1665; 1682; 1668; 1667; 5; 115; 26; 406; 1238; 5; 1670; 1678; 1634; 1522; 1631; 1641; 1612; 1336;BATT_WBH;TRUE;TRUE;TRUE;TRUE;TRUE;TRUE;TRUE;TRUE;TRUE;TRUE;TRUE;TRUE;TRUE;TRUE;FALSE;TRUE;FALSE;FALSE;FALSE;FALSE;TRUE;TRUE;
SATNOGS;2022-11-02 23:11:51;SAFE; 279307150; 1645; 1624; 1632; 9; 2416; 1778; 730; 1091; 3229; 2097; 670; 471; 1250; 688; 1742; 1636; 1640; 1621; 1629; 1634; 1736; 1625; 1831; 1712; 1563; 1558; 2233; 2263; 1691; 1808; 1807; 1655; 1471; 1588; 1670; 1813; 1541; 1694; 1665; 1717; 1675; 1690; 1672; 1672; 5; 5; 4; 5; 5; 5; 1684; 1689; 1637; 1535; 1633; 1657; 1616; 1340;BATT_WBH;TRUE;TRUE;TRUE;TRUE;TRUE;TRUE;TRUE;TRUE;TRUE;TRUE;TRUE;TRUE;TRUE;TRUE;FALSE;TRUE;FALSE;FALSE;FALSE;FALSE;TRUE;TRUE;
SATNOGS;2022-11-02 23:11:51;SAFE; 279307150; 1645; 1624; 1632; 9; 2416; 1778; 730; 1091; 3229; 2097; 670; 471; 1250; 688; 1742; 1636; 1640; 1621; 1629; 1634; 1736; 1625; 1831; 1712; 1563; 1558; 2233; 2263; 1691; 1808; 1807; 1655; 1471; 1588; 1670; 1813; 1541; 1694; 1665; 1717; 1675; 1690; 1672; 1672; 5; 5; 4; 5; 5; 5; 1684; 1689; 1637; 1535; 1633; 1657; 1616; 1340;BATT_WBH;TRUE;TRUE;TRUE;TRUE;TRUE;TRUE;TRUE;TRUE;TRUE;TRUE;TRUE;TRUE;TRUE;TRUE;FALSE;TRUE;FALSE;FALSE;FALSE;FALSE;TRUE;TRUE;
SATNOGS;2022-11-02 23:11:11;SAFE; 279307150; 1645; 1624; 1632; 9; 2416; 1778; 730; 1091; 3229; 2097; 670; 471; 1250; 688; 1742; 1636; 1640; 1621; 1629; 1634; 1736; 1625; 1831; 1712; 1563; 1558; 2233; 2263; 1691; 1808; 1807; 1655; 1471; 1588; 1670; 1813; 1541; 1694; 1665; 1717; 1675; 1690; 1672; 1672; 5; 5; 4; 5; 5; 5; 1684; 1689; 1637; 1535; 1633; 1657; 1616; 1340;BATT_WBH;TRUE;TRUE;TRUE;TRUE;TRUE;TRUE;TRUE;TRUE;TRUE;TRUE;TRUE;TRUE;TRUE;TRUE;FALSE;TRUE;FALSE;FALSE;FALSE;FALSE;TRUE;TRUE;
SATNOGS;2022-11-02 23:11:11;SAFE; 279307150; 1645; 1624; 1632; 9; 2416; 1778; 730; 1091; 3229; 2097; 670; 471; 1250; 688; 1742; 1636; 1640; 1621; 1629; 1634; 1736; 1625; 1831; 1712; 1563; 1558; 2233; 2263; 1691; 1808; 1807; 1655; 1471; 1588; 1670; 1813; 1541; 1694; 1665; 1717; 1675; 1690; 1672; 1672; 5; 5; 4; 5; 5; 5; 1684; 1689; 1637; 1535; 1633; 1657; 1616; 1340;BATT_WBH;TRUE;TRUE;TRUE;TRUE;TRUE;TRUE;TRUE;TRUE;TRUE;TRUE;TRUE;TRUE;TRUE;TRUE;FALSE;TRUE;FALSE;FALSE;FALSE;FALSE;TRUE;TRUE;
SATNOGS;2022-11-02 23:10:51;SAFE; 279306905; 1643; 1625; 1630; 8; 2418; 1780; 730; 1091; 3229; 2095; 872; 486; 1228; 687; 1741; 1639; 1641; 1623; 1633; 1637; 1732; 1624; 1832; 1712; 1565; 1558; 2237; 2267; 1692; 1866; 1868; 1687; 1406; 1549; 1671; 1888; 1503; 1696; 1666; 1717; 1675; 1691; 1673; 1673; 6; 5; 5; 4; 5; 5; 1684; 1690; 1637; 1537; 1633; 1659; 1616; 1344;BATT_WBH;TRUE;TRUE;TRUE;TRUE;TRUE;TRUE;TRUE;TRUE;TRUE;TRUE;TRUE;TRUE;TRUE;TRUE;FALSE;TRUE;FALSE;FALSE;FALSE;FALSE;TRUE;TRUE;
SATNOGS;2022-11-02 23:10:51;SAFE; 279306905; 1643; 1625; 1630; 8; 2418; 1780; 730; 1091; 3229; 2095; 872; 486; 1228; 687; 1741; 1639; 1641; 1623; 1633; 1637; 1732; 1624; 1832; 1712; 1565; 1558; 2237; 2267; 1692; 1866; 1868; 1687; 1406; 1549; 1671; 1888; 1503; 1696; 1666; 1717; 1675; 1691; 1673; 1673; 6; 5; 5; 4; 5; 5; 1684; 1690; 1637; 1537; 1633; 1659; 1616; 1344;BATT_WBH;TRUE;TRUE;TRUE;TRUE;TRUE;TRUE;TRUE;TRUE;TRUE;TRUE;TRUE;TRUE;TRUE;TRUE;FALSE;TRUE;FALSE;FALSE;FALSE;FALSE;TRUE;TRUE;
SATNOGS;2022-11-02 23:10:33;SAFE; 279306905; 1643; 1625; 1630; 8; 2418; 1780; 730; 1091; 3229; 2095; 872; 486; 1228; 687; 1741; 1639; 1641; 1623; 1633; 1637; 1732; 1624; 1832; 1712; 1565; 1558; 2237; 2267; 1692; 1866; 1868; 1687; 1406; 1549; 1671; 1888; 1503; 1696; 1666; 1717; 1675; 1691; 1673; 1673; 6; 5; 5; 4; 5; 5; 1684; 1690; 1637; 1537; 1633; 1659; 1616; 1344;BATT_WBH;TRUE;TRUE;TRUE;TRUE;TRUE;TRUE;TRUE;TRUE;TRUE;TRUE;TRUE;TRUE;TRUE;TRUE;FALSE;TRUE;FALSE;FALSE;FALSE;FALSE;TRUE;TRUE;
SATNOGS;2022-11-02 23:10:33;SAFE; 279306905; 1643; 1625; 1630; 8; 2418; 1780; 730; 1091; 3229; 2095; 872; 486; 1228; 687; 1741; 1639; 1641; 1623; 1633; 1637; 1732; 1624; 1832; 1712; 1565; 1558; 2237; 2267; 1692; 1866; 1868; 1687; 1406; 1549; 1671; 1888; 1503; 1696; 1666; 1717; 1675; 1691; 1673; 1673; 6; 5; 5; 4; 5; 5; 1684; 1690; 1637; 1537; 1633; 1659; 1616; 1344;BATT_WBH;TRUE;TRUE;TRUE;TRUE;TRUE;TRUE;TRUE;TRUE;TRUE;TRUE;TRUE;TRUE;TRUE;TRUE;FALSE;TRUE;FALSE;FALSE;FALSE;FALSE;TRUE;TRUE;
SATNOGS;2022-11-02 23:10:31;SAFE; 279306905; 1643; 1625; 1630; 8; 2418; 1780; 730; 1091; 3229; 2095; 872; 486; 1228; 687; 1741; 1639; 1641; 1623; 1633; 1637; 1732; 1624; 1832; 1712; 1565; 1558; 2237; 2267; 1692; 1866; 1868; 1687; 1406; 1549; 1671; 1888; 1503; 1696; 1666; 1717; 1675; 1691; 1673; 1673; 6; 5; 5; 4; 5; 5; 1684; 1690; 1637; 1537; 1633; 1659; 1616; 1344;BATT_WBH;TRUE;TRUE;TRUE;TRUE;TRUE;TRUE;TRUE;TRUE;TRUE;TRUE;TRUE;TRUE;TRUE;TRUE;FALSE;TRUE;FALSE;FALSE;FALSE;FALSE;TRUE;TRUE;
SATNOGS;2022-11-02 23:10:31;SAFE; 279306905; 1643; 1625; 1630; 8; 2418; 1780; 730; 1091; 3229; 2095; 872; 486; 1228; 687; 1741; 1639; 1641; 1623; 1633; 1637; 1732; 1624; 1832; 1712; 1565; 1558; 2237; 2267; 1692; 1866; 1868; 1687; 1406; 1549; 1671; 1888; 1503; 1696; 1666; 1717; 1675; 1691; 1673; 1673; 6; 5; 5; 4; 5; 5; 1684; 1690; 1637; 1537; 1633; 1659; 1616; 1344;BATT_WBH;TRUE;TRUE;TRUE;TRUE;TRUE;TRUE;TRUE;TRUE;TRUE;TRUE;TRUE;TRUE;TRUE;TRUE;FALSE;TRUE;FALSE;FALSE;FALSE;FALSE;TRUE;TRUE;
SATNOGS;2022-11-02 23:10:13;SAFE; 279306905; 1643; 1625; 1630; 8; 2418; 1780; 730; 1091; 3229; 2095; 872; 486; 1228; 687; 1741; 1639; 1641; 1623; 1633; 1637; 1732; 1624; 1832; 1712; 1565; 1558; 2237; 2267; 1692; 1866; 1868; 1687; 1406; 1549; 1671; 1888; 1503; 1696; 1666; 1717; 1675; 1691; 1673; 1673; 6; 5; 5; 4; 5; 5; 1684; 1690; 1637; 1537; 1633; 1659; 1616; 1344;BATT_WBH;TRUE;TRUE;TRUE;TRUE;TRUE;TRUE;TRUE;TRUE;TRUE;TRUE;TRUE;TRUE;TRUE;TRUE;FALSE;TRUE;FALSE;FALSE;FALSE;FALSE;TRUE;TRUE;
SATNOGS;2022-11-02 23:10:13;SAFE; 279306905; 1643; 1625; 1630; 8; 2418; 1780; 730; 1091; 3229; 2095; 872; 486; 1228; 687; 1741; 1639; 1641; 1623; 1633; 1637; 1732; 1624; 1832; 1712; 1565; 1558; 2237; 2267; 1692; 1866; 1868; 1687; 1406; 1549; 1671; 1888; 1503; 1696; 1666; 1717; 1675; 1691; 1673; 1673; 6; 5; 5; 4; 5; 5; 1684; 1690; 1637; 1537; 1633; 1659; 1616; 1344;BATT_WBH;TRUE;TRUE;TRUE;TRUE;TRUE;TRUE;TRUE;TRUE;TRUE;TRUE;TRUE;TRUE;TRUE;TRUE;FALSE;TRUE;FALSE;FALSE;FALSE;FALSE;TRUE;TRUE;
SATNOGS;2022-11-02 23:10:11;SAFE; 279306905; 1643; 1625; 1630; 8; 2418; 1780; 730; 1091; 3229; 2095; 872; 486; 1228; 687; 1741; 1639; 1641; 1623; 1633; 1637; 1732; 1624; 1832; 1712; 1565; 1558; 2237; 2267; 1692; 1866; 1868; 1687; 1406; 1549; 1671; 1888; 1503; 1696; 1666; 1717; 1675; 1691; 1673; 1673; 6; 5; 5; 4; 5; 5; 1684; 1690; 1637; 1537; 1633; 1659; 1616; 1344;BATT_WBH;TRUE;TRUE;TRUE;TRUE;TRUE;TRUE;TRUE;TRUE;TRUE;TRUE;TRUE;TRUE;TRUE;TRUE;FALSE;TRUE;FALSE;FALSE;FALSE;FALSE;TRUE;TRUE;
SATNOGS;2022-11-02 23:10:11;SAFE; 279306905; 1643; 1625; 1630; 8; 2418; 1780; 730; 1091; 3229; 2095; 872; 486; 1228; 687; 1741; 1639; 1641; 1623; 1633; 1637; 1732; 1624; 1832; 1712; 1565; 1558; 2237; 2267; 1692; 1866; 1868; 1687; 1406; 1549; 1671; 1888; 1503; 1696; 1666; 1717; 1675; 1691; 1673; 1673; 6; 5; 5; 4; 5; 5; 1684; 1690; 1637; 1537; 1633; 1659; 1616; 1344;BATT_WBH;TRUE;TRUE;TRUE;TRUE;TRUE;TRUE;TRUE;TRUE;TRUE;TRUE;TRUE;TRUE;TRUE;TRUE;FALSE;TRUE;FALSE;FALSE;FALSE;FALSE;TRUE;TRUE;
SATNOGS;2022-11-02 23:09:53;SAFE; 279306659; 1642; 1624; 1628; 8; 2420; 1775; 730; 1091; 3229; 2096; 668; 475; 1226; 692; 1742; 1642; 1643; 1625; 1635; 1639; 1737; 1624; 1832; 1704; 1562; 1558; 2239; 2270; 1691; 1932; 1893; 1656; 1351; 1495; 1646; 1953; 1448; 1687; 1667; 1718; 1676; 1692; 1675; 1673; 5; 5; 5; 4; 5; 5; 1685; 1690; 1637; 1540; 1632; 1662; 1617; 1346;BATT_WBH;TRUE;TRUE;TRUE;TRUE;TRUE;TRUE;TRUE;TRUE;TRUE;TRUE;TRUE;TRUE;TRUE;TRUE;FALSE;TRUE;FALSE;FALSE;FALSE;FALSE;TRUE;TRUE;
SATNOGS;2022-11-02 23:09:53;SAFE; 279306659; 1642; 1624; 1628; 8; 2420; 1775; 730; 1091; 3229; 2096; 668; 475; 1226; 692; 1742; 1642; 1643; 1625; 1635; 1639; 1737; 1624; 1832; 1704; 1562; 1558; 2239; 2270; 1691; 1932; 1893; 1656; 1351; 1495; 1646; 1953; 1448; 1687; 1667; 1718; 1676; 1692; 1675; 1673; 5; 5; 5; 4; 5; 5; 1685; 1690; 1637; 1540; 1632; 1662; 1617; 1346;BATT_WBH;TRUE;TRUE;TRUE;TRUE;TRUE;TRUE;TRUE;TRUE;TRUE;TRUE;TRUE;TRUE;TRUE;TRUE;FALSE;TRUE;FALSE;FALSE;FALSE;FALSE;TRUE;TRUE;
SATNOGS;2022-11-02 23:09:51;SAFE; 279306659; 1642; 1624; 1628; 8; 2420; 1775; 730; 1091; 3229; 2096; 668; 475; 1226; 692; 1742; 1642; 1643; 1625; 1635; 1639; 1737; 1624; 1832; 1704; 1562; 1558; 2239; 2270; 1691; 1932; 1893; 1656; 1351; 1495; 1646; 1953; 1448; 1687; 1667; 1718; 1676; 1692; 1675; 1673; 5; 5; 5; 4; 5; 5; 1685; 1690; 1637; 1540; 1632; 1662; 1617; 1346;BATT_WBH;TRUE;TRUE;TRUE;TRUE;TRUE;TRUE;TRUE;TRUE;TRUE;TRUE;TRUE;TRUE;TRUE;TRUE;FALSE;TRUE;FALSE;FALSE;FALSE;FALSE;TRUE;TRUE;
SATNOGS;2022-11-02 23:09:51;SAFE; 279306659; 1642; 1624; 1628; 8; 2420; 1775; 730; 1091; 3229; 2096; 668; 475; 1226; 692; 1742; 1642; 1643; 1625; 1635; 1639; 1737; 1624; 1832; 1704; 1562; 1558; 2239; 2270; 1691; 1932; 1893; 1656; 1351; 1495; 1646; 1953; 1448; 1687; 1667; 1718; 1676; 1692; 1675; 1673; 5; 5; 5; 4; 5; 5; 1685; 1690; 1637; 1540; 1632; 1662; 1617; 1346;BATT_WBH;TRUE;TRUE;TRUE;TRUE;TRUE;TRUE;TRUE;TRUE;TRUE;TRUE;TRUE;TRUE;TRUE;TRUE;FALSE;TRUE;FALSE;FALSE;FALSE;FALSE;TRUE;TRUE;
SATNOGS;2022-11-02 23:09:31;SAFE; 279306659; 1642; 1624; 1628; 8; 2420; 1775; 730; 1091; 3229; 2096; 668; 475; 1226; 692; 1742; 1642; 1643; 1625; 1635; 1639; 1737; 1624; 1832; 1704; 1562; 1558; 2239; 2270; 1691; 1932; 1893; 1656; 1351; 1495; 1646; 1953; 1448; 1687; 1667; 1718; 1676; 1692; 1675; 1673; 5; 5; 5; 4; 5; 5; 1685; 1690; 1637; 1540; 1632; 1662; 1617; 1346;BATT_WBH;TRUE;TRUE;TRUE;TRUE;TRUE;TRUE;TRUE;TRUE;TRUE;TRUE;TRUE;TRUE;TRUE;TRUE;FALSE;TRUE;FALSE;FALSE;FALSE;FALSE;TRUE;TRUE;
SATNOGS;2022-11-02 23:09:31;SAFE; 279306659; 1642; 1624; 1628; 8; 2420; 1775; 730; 1091; 3229; 2096; 668; 475; 1226; 692; 1742; 1642; 1643; 1625; 1635; 1639; 1737; 1624; 1832; 1704; 1562; 1558; 2239; 2270; 1691; 1932; 1893; 1656; 1351; 1495; 1646; 1953; 1448; 1687; 1667; 1718; 1676; 1692; 1675; 1673; 5; 5; 5; 4; 5; 5; 1685; 1690; 1637; 1540; 1632; 1662; 1617; 1346;BATT_WBH;TRUE;TRUE;TRUE;TRUE;TRUE;TRUE;TRUE;TRUE;TRUE;TRUE;TRUE;TRUE;TRUE;TRUE;FALSE;TRUE;FALSE;FALSE;FALSE;FALSE;TRUE;TRUE;
SATNOGS;2022-11-02 12:22:49;SAFE; 279147936; 1636; 1617; 1623; 7; 2431; 1785; 730; 1091; 3228; 2099; 834; 482; 1263; 594; 1746; 1626; 1657; 1660; 1641; 1649; 2065; 1638; 3704; 1714; 1563; 1559; 2195; 2223; 1682; 1031; 1290; 1633; 2261; 2097; 1810; 987; 2074; 1662; 1662; 1718; 1667; 1683; 1671; 1668; 22; 19; 1329; 5; 6; 364; 1672; 1679; 1640; 1524; 1635; 1641; 1615; 1333;NONE;TRUE;TRUE;TRUE;TRUE;TRUE;TRUE;TRUE;TRUE;TRUE;TRUE;TRUE;TRUE;TRUE;TRUE;FALSE;TRUE;FALSE;FALSE;FALSE;FALSE;TRUE;TRUE;
SATNOGS;2022-11-01 21:56:32;SAFE; 278935488; 1636; 1615; 1623; 7; 2409; 1776; 730; 1090; 3227; 2097; 699; 477; 1242; 625; 1742; 1623; 1644; 1624; 1620; 1627; 1735; 1624; 1832; 1707; 1563; 1558; 2230; 2264; 1690; 1465; 1604; 1599; 1820; 1829; 1620; 1440; 1796; 1672; 1664; 1717; 1672; 1690; 1672; 1670; 6; 5; 5; 5; 6; 5; 1682; 1687; 1638; 1534; 1634; 1654; 1616; 1338;BATT_WBH;TRUE;TRUE;TRUE;TRUE;TRUE;TRUE;TRUE;TRUE;TRUE;TRUE;TRUE;TRUE;TRUE;TRUE;FALSE;TRUE;FALSE;FALSE;FALSE;FALSE;TRUE;TRUE;
SATNOGS;2022-11-01 21:56:12;SAFE; 278935488; 1636; 1615; 1623; 7; 2409; 1776; 730; 1090; 3227; 2097; 699; 477; 1242; 625; 1742; 1623; 1644; 1624; 1620; 1627; 1735; 1624; 1832; 1707; 1563; 1558; 2230; 2264; 1690; 1465; 1604; 1599; 1820; 1829; 1620; 1440; 1796; 1672; 1664; 1717; 1672; 1690; 1672; 1670; 6; 5; 5; 5; 6; 5; 1682; 1687; 1638; 1534; 1634; 1654; 1616; 1338;BATT_WBH;TRUE;TRUE;TRUE;TRUE;TRUE;TRUE;TRUE;TRUE;TRUE;TRUE;TRUE;TRUE;TRUE;TRUE;FALSE;TRUE;FALSE;FALSE;FALSE;FALSE;TRUE;TRUE;
SATNOGS;2022-11-01 21:55:32;SAFE; 278935243; 1634; 1615; 1621; 7; 2407; 1784; 730; 1092; 3230; 2098; 629; 493; 1248; 666; 1743; 1627; 1645; 1625; 1624; 1630; 1733; 1624; 1831; 1706; 1564; 1558; 2233; 2268; 1690; 1527; 1671; 1625; 1749; 1815; 1622; 1513; 1767; 1674; 1665; 1717; 1673; 1690; 1673; 1671; 5; 5; 5; 5; 6; 5; 1682; 1688; 1637; 1536; 1634; 1656; 1617; 1341;BATT_WBH;TRUE;TRUE;TRUE;TRUE;TRUE;TRUE;TRUE;TRUE;TRUE;TRUE;TRUE;TRUE;TRUE;TRUE;FALSE;TRUE;FALSE;FALSE;FALSE;FALSE;TRUE;TRUE;
SATNOGS;2022-11-01 21:54:52;SAFE; 278934997; 1632; 1613; 1620; 8; 2409; 1783; 730; 1091; 3229; 2098; 675; 501; 1219; 656; 1743; 1630; 1645; 1628; 1626; 1633; 1732; 1628; 1832; 1710; 1566; 1558; 2238; 2274; 1691; 1596; 1690; 1628; 1680; 1758; 1628; 1582; 1704; 1683; 1666; 1718; 1674; 1691; 1675; 1672; 6; 5; 5; 4; 5; 5; 1683; 1689; 1638; 1537; 1635; 1659; 1617; 1345;BATT_WBH;TRUE;TRUE;TRUE;TRUE;TRUE;TRUE;TRUE;TRUE;TRUE;TRUE;TRUE;TRUE;TRUE;TRUE;FALSE;TRUE;FALSE;FALSE;FALSE;FALSE;TRUE;TRUE;
SATNOGS;2022-10-31 22:12:13;SAFE; 278586137; 1633; 1614; 1620; 8; 2553; 1783; 730; 1091; 3230; 2099; 463; 478; 1236; 542; 1751; 1608; 1643; 1622; 1610; 1617; 1744; 1626; 1847; 1716; 1557; 1557; 2216; 2255; 1687; 1399; 1576; 1613; 1894; 1868; 1653; 1371; 1826; 1666; 1660; 1716; 1669; 1687; 1670; 1665; 5; 5; 5; 5; 5; 5; 1677; 1682; 1636; 1527; 1633; 1647; 1614; 1331;BATT_WBH;TRUE;TRUE;TRUE;TRUE;TRUE;TRUE;TRUE;TRUE;TRUE;TRUE;TRUE;TRUE;TRUE;TRUE;FALSE;TRUE;FALSE;FALSE;FALSE;FALSE;TRUE;TRUE;
SATNOGS;2022-10-31 22:09:40;SAFE; 278585401; 1629; 1612; 1615; 8; 2558; 1777; 730; 1090; 3229; 2097; 661; 511; 1252; 697; 1751; 1619; 1647; 1628; 1617; 1626; 1741; 1627; 1846; 1716; 1563; 1557; 2226; 2267; 1688; 1591; 1710; 1664; 1682; 1763; 1655; 1582; 1705; 1676; 1664; 1718; 1671; 1689; 1673; 1669; 6; 5; 5; 5; 6; 5; 1680; 1683; 1637; 1532; 1632; 1653; 1616; 1341;BATT_WBH;TRUE;TRUE;TRUE;TRUE;TRUE;TRUE;TRUE;TRUE;TRUE;TRUE;TRUE;TRUE;TRUE;TRUE;FALSE;TRUE;FALSE;FALSE;FALSE;FALSE;TRUE;TRUE;
SATNOGS;2022-10-31 22:09:20;SAFE; 278585401; 1629; 1612; 1615; 8; 2558; 1777; 730; 1090; 3229; 2097; 661; 511; 1252; 697; 1751; 1619; 1647; 1628; 1617; 1626; 1741; 1627; 1846; 1716; 1563; 1557; 2226; 2267; 1688; 1591; 1710; 1664; 1682; 1763; 1655; 1582; 1705; 1676; 1664; 1718; 1671; 1689; 1673; 1669; 6; 5; 5; 5; 6; 5; 1680; 1683; 1637; 1532; 1632; 1653; 1616; 1341;BATT_WBH;TRUE;TRUE;TRUE;TRUE;TRUE;TRUE;TRUE;TRUE;TRUE;TRUE;TRUE;TRUE;TRUE;TRUE;FALSE;TRUE;FALSE;FALSE;FALSE;FALSE;TRUE;TRUE;
SATNOGS;2022-10-31 22:09:00;SAFE; 278585156; 1626; 1609; 1614; 8; 2558; 1781; 730; 1090; 3230; 2097; 674; 509; 1215; 641; 1752; 1621; 1648; 1631; 1621; 1629; 1746; 1625; 1847; 1709; 1564; 1557; 2231; 2273; 1690; 1672; 1784; 1686; 1594; 1676; 1670; 1675; 1623; 1691; 1664; 1716; 1672; 1691; 1674; 1669; 5; 5; 5; 5; 5; 4; 1680; 1685; 1638; 1535; 1634; 1655; 1616; 1344;BATT_WBH;TRUE;TRUE;TRUE;TRUE;TRUE;TRUE;TRUE;TRUE;TRUE;TRUE;TRUE;TRUE;TRUE;TRUE;FALSE;TRUE;FALSE;FALSE;FALSE;FALSE;TRUE;TRUE;
SATNOGS;2022-10-31 22:08:40;SAFE; 278585156; 1626; 1609; 1614; 8; 2558; 1781; 730; 1090; 3230; 2097; 674; 509; 1215; 641; 1752; 1621; 1648; 1631; 1621; 1629; 1746; 1625; 1847; 1709; 1564; 1557; 2231; 2273; 1690; 1672; 1784; 1686; 1594; 1676; 1670; 1675; 1623; 1691; 1664; 1716; 1672; 1691; 1674; 1669; 5; 5; 5; 5; 5; 4; 1680; 1685; 1638; 1535; 1634; 1655; 1616; 1344;BATT_WBH;TRUE;TRUE;TRUE;TRUE;TRUE;TRUE;TRUE;TRUE;TRUE;TRUE;TRUE;TRUE;TRUE;TRUE;FALSE;TRUE;FALSE;FALSE;FALSE;FALSE;TRUE;TRUE;
SATNOGS;2022-10-31 22:08:20;SAFE; 278585156; 1626; 1609; 1614; 8; 2558; 1781; 730; 1090; 3230; 2097; 674; 509; 1215; 641; 1752; 1621; 1648; 1631; 1621; 1629; 1746; 1625; 1847; 1709; 1564; 1557; 2231; 2273; 1690; 1672; 1784; 1686; 1594; 1676; 1670; 1675; 1623; 1691; 1664; 1716; 1672; 1691; 1674; 1669; 5; 5; 5; 5; 5; 4; 1680; 1685; 1638; 1535; 1634; 1655; 1616; 1344;BATT_WBH;TRUE;TRUE;TRUE;TRUE;TRUE;TRUE;TRUE;TRUE;TRUE;TRUE;TRUE;TRUE;TRUE;TRUE;FALSE;TRUE;FALSE;FALSE;FALSE;FALSE;TRUE;TRUE;
SATNOGS;2022-10-31 22:08:00;SAFE; 278584911; 1626; 1608; 1614; 8; 2561; 1774; 730; 1090; 3231; 2097; 671; 505; 1243; 675; 1752; 1623; 1649; 1632; 1623; 1631; 1746; 1625; 1848; 1713; 1561; 1557; 2234; 2277; 1691; 1744; 1817; 1654; 1540; 1601; 1667; 1746; 1551; 1676; 1665; 1716; 1672; 1690; 1674; 1670; 5; 5; 5; 5; 5; 5; 1681; 1686; 1638; 1536; 1635; 1656; 1616; 1348;BATT_WBH;TRUE;TRUE;TRUE;TRUE;TRUE;TRUE;TRUE;TRUE;TRUE;TRUE;TRUE;TRUE;TRUE;TRUE;FALSE;TRUE;FALSE;FALSE;FALSE;FALSE;TRUE;TRUE;
SATNOGS;2022-10-31 22:06:40;SAFE; 278584666; 1625; 1607; 1611; 8; 2561; 1780; 730; 1090; 3228; 2097; 652; 495; 1220; 657; 1751; 1627; 1650; 1633; 1625; 1633; 1741; 1627; 1846; 1710; 1554; 1557; 2236; 2283; 1691; 1811; 1894; 1678; 1461; 1549; 1667; 1831; 1503; 1684; 1668; 1718; 1674; 1691; 1676; 1672; 6; 5; 5; 5; 6; 6; 1684; 1686; 1637; 1537; 1634; 1659; 1618; 1350;BATT_WBH;TRUE;TRUE;TRUE;TRUE;TRUE;TRUE;TRUE;TRUE;TRUE;TRUE;TRUE;TRUE;TRUE;TRUE;FALSE;TRUE;FALSE;FALSE;FALSE;FALSE;TRUE;TRUE;
SATNOGS;2022-10-31 14:52:40;SAFE; 278478210; 1665; 1642; 1650; 8; 2640; 1779; 731; 1091; 3230; 2096; 664; 502; 1224; 699; 1757; 1628; 1704; 1714; 1649; 1681; 1883; 1633; 2991; 1834; 1620; 1551; 2177; 2243; 1682; 1935; 1993; 1642; 1318; 1410; 1617; 1942; 1370; 1662; 1668; 1710; 1662; 1682; 1683; 1668; 5; 118; 1370; 5; 51; 50; 1669; 1668; 1632; 1537; 1629; 1661; 1612; 1373;BATT_WBH;TRUE;TRUE;TRUE;TRUE;TRUE;TRUE;TRUE;TRUE;TRUE;TRUE;TRUE;TRUE;TRUE;TRUE;FALSE;TRUE;FALSE;FALSE;FALSE;FALSE;TRUE;TRUE;
SATNOGS;2022-10-30 11:42:14;SAFE; 278078473; 1638; 1625; 1624; 8; 2561; 1795; 729; 1091; 3223; 2099; 471; 481; 1215; 683; 1755; 1600; 1696; 1693; 1613; 1645; 1762; 2855; 1876; 1715; 1900; 1567; 2207; 2252; 1688; 1469; 1479; 1618; 1772; 1945; 1629; 1469; 1875; 1675; 1668; 1726; 1670; 1689; 1681; 1671; 13; 1098; 126; 5; 910; 34; 1676; 1681; 1647; 1521; 1643; 1644; 1621; 1316;NONE;TRUE;TRUE;TRUE;TRUE;TRUE;TRUE;TRUE;TRUE;TRUE;TRUE;TRUE;TRUE;TRUE;TRUE;FALSE;TRUE;FALSE;FALSE;FALSE;FALSE;TRUE;TRUE;
SATNOGS;2022-10-30 11:41:54;SAFE; 278078228; 1637; 1624; 1624; 8; 2538; 1797; 730; 1091; 3224; 2100; 499; 489; 1231; 699; 1752; 1599; 1691; 1690; 1611; 1643; 1742; 2076; 2366; 1719; 1573; 1568; 2210; 2253; 1689; 1416; 1362; 1589; 1847; 2021; 1631; 1405; 1952; 1664; 1667; 1726; 1671; 1689; 1681; 1670; 6; 618; 120; 5; 54; 1197; 1676; 1682; 1648; 1521; 1643; 1643; 1621; 1314;NONE;TRUE;TRUE;TRUE;TRUE;TRUE;TRUE;TRUE;TRUE;TRUE;TRUE;TRUE;TRUE;TRUE;TRUE;FALSE;TRUE;FALSE;FALSE;FALSE;FALSE;TRUE;TRUE;
SATNOGS;2022-10-30 11:41:14;SAFE; 278078228; 1637; 1624; 1624; 8; 2538; 1797; 730; 1091; 3224; 2100; 499; 489; 1231; 699; 1752; 1599; 1691; 1690; 1611; 1643; 1742; 2076; 2366; 1719; 1573; 1568; 2210; 2253; 1689; 1416; 1362; 1589; 1847; 2021; 1631; 1405; 1952; 1664; 1667; 1726; 1671; 1689; 1681; 1670; 6; 618; 120; 5; 54; 1197; 1676; 1682; 1648; 1521; 1643; 1643; 1621; 1314;NONE;TRUE;TRUE;TRUE;TRUE;TRUE;TRUE;TRUE;TRUE;TRUE;TRUE;TRUE;TRUE;TRUE;TRUE;FALSE;TRUE;FALSE;FALSE;FALSE;FALSE;TRUE;TRUE;
SATNOGS;2022-10-30 11:40:54;SAFE; 278077983; 1636; 1623; 1623; 8; 2548; 1791; 731; 1091; 3225; 2101; 669; 481; 1246; 757; 1753; 1600; 1691; 1686; 1610; 1640; 1749; 1629; 3019; 1716; 1873; 1569; 2211; 2254; 1690; 1377; 1328; 1598; 1886; 2079; 1640; 1369; 2031; 1662; 1666; 1726; 1671; 1689; 1681; 1671; 6; 28; 1340; 5; 383; 46; 1677; 1682; 1649; 1523; 1643; 1642; 1621; 1312;NONE;TRUE;TRUE;TRUE;TRUE;TRUE;TRUE;TRUE;TRUE;TRUE;TRUE;TRUE;TRUE;TRUE;TRUE;FALSE;TRUE;FALSE;FALSE;FALSE;FALSE;TRUE;TRUE;
SATNOGS;2022-10-30 11:40:34;SAFE; 278077983; 1636; 1623; 1623; 8; 2548; 1791; 731; 1091; 3225; 2101; 669; 481; 1246; 757; 1753; 1600; 1691; 1686; 1610; 1640; 1749; 1629; 3019; 1716; 1873; 1569; 2211; 2254; 1690; 1377; 1328; 1598; 1886; 2079; 1640; 1369; 2031; 1662; 1666; 1726; 1671; 1689; 1681; 1671; 6; 28; 1340; 5; 383; 46; 1677; 1682; 1649; 1523; 1643; 1642; 1621; 1312;NONE;TRUE;TRUE;TRUE;TRUE;TRUE;TRUE;TRUE;TRUE;TRUE;TRUE;TRUE;TRUE;TRUE;TRUE;FALSE;TRUE;FALSE;FALSE;FALSE;FALSE;TRUE;TRUE;
SATNOGS;2022-10-30 11:40:14;SAFE; 278077983; 1636; 1623; 1623; 8; 2548; 1791; 731; 1091; 3225; 2101; 669; 481; 1246; 757; 1753; 1600; 1691; 1686; 1610; 1640; 1749; 1629; 3019; 1716; 1873; 1569; 2211; 2254; 1690; 1377; 1328; 1598; 1886; 2079; 1640; 1369; 2031; 1662; 1666; 1726; 1671; 1689; 1681; 1671; 6; 28; 1340; 5; 383; 46; 1677; 1682; 1649; 1523; 1643; 1642; 1621; 1312;NONE;TRUE;TRUE;TRUE;TRUE;TRUE;TRUE;TRUE;TRUE;TRUE;TRUE;TRUE;TRUE;TRUE;TRUE;FALSE;TRUE;FALSE;FALSE;FALSE;FALSE;TRUE;TRUE;
SATNOGS;2022-10-29 22:45:56;SAFE; 277887976; 1678; 1663; 1663; 8; 2449; 1793; 730; 1090; 3223; 2103; 652; 494; 1253; 820; 1746; 1621; 1669; 1653; 1624; 1636; 1736; 1627; 1837; 1705; 1565; 1572; 2294; 2348; 1703; 1241; 1453; 1667; 2060; 1942; 1797; 1194; 1897; 1704; 1677; 1731; 1685; 1704; 1690; 1680; 5; 5; 5; 5; 5; 5; 1698; 1701; 1652; 1545; 1646; 1667; 1626; 1317;BATT_WBH;TRUE;TRUE;TRUE;TRUE;TRUE;TRUE;TRUE;TRUE;TRUE;TRUE;TRUE;TRUE;TRUE;TRUE;FALSE;TRUE;FALSE;FALSE;FALSE;FALSE;TRUE;TRUE;
SATNOGS;2022-10-29 22:45:56;SAFE; 277887976; 1678; 1663; 1663; 8; 2449; 1793; 730; 1090; 3223; 2103; 652; 494; 1253; 820; 1746; 1621; 1669; 1653; 1624; 1636; 1736; 1627; 1837; 1705; 1565; 1572; 2294; 2348; 1703; 1241; 1453; 1667; 2060; 1942; 1797; 1194; 1897; 1704; 1677; 1731; 1685; 1704; 1690; 1680; 5; 5; 5; 5; 5; 5; 1698; 1701; 1652; 1545; 1646; 1667; 1626; 1317;BATT_WBH;TRUE;TRUE;TRUE;TRUE;TRUE;TRUE;TRUE;TRUE;TRUE;TRUE;TRUE;TRUE;TRUE;TRUE;FALSE;TRUE;FALSE;FALSE;FALSE;FALSE;TRUE;TRUE;
SATNOGS;2022-10-29 22:45:36;SAFE; 277887976; 1678; 1663; 1663; 8; 2449; 1793; 730; 1090; 3223; 2103; 652; 494; 1253; 820; 1746; 1621; 1669; 1653; 1624; 1636; 1736; 1627; 1837; 1705; 1565; 1572; 2294; 2348; 1703; 1241; 1453; 1667; 2060; 1942; 1797; 1194; 1897; 1704; 1677; 1731; 1685; 1704; 1690; 1680; 5; 5; 5; 5; 5; 5; 1698; 1701; 1652; 1545; 1646; 1667; 1626; 1317;BATT_WBH;TRUE;TRUE;TRUE;TRUE;TRUE;TRUE;TRUE;TRUE;TRUE;TRUE;TRUE;TRUE;TRUE;TRUE;FALSE;TRUE;FALSE;FALSE;FALSE;FALSE;TRUE;TRUE;
SATNOGS;2022-10-29 22:45:36;SAFE; 277887976; 1678; 1663; 1663; 8; 2449; 1793; 730; 1090; 3223; 2103; 652; 494; 1253; 820; 1746; 1621; 1669; 1653; 1624; 1636; 1736; 1627; 1837; 1705; 1565; 1572; 2294; 2348; 1703; 1241; 1453; 1667; 2060; 1942; 1797; 1194; 1897; 1704; 1677; 1731; 1685; 1704; 1690; 1680; 5; 5; 5; 5; 5; 5; 1698; 1701; 1652; 1545; 1646; 1667; 1626; 1317;BATT_WBH;TRUE;TRUE;TRUE;TRUE;TRUE;TRUE;TRUE;TRUE;TRUE;TRUE;TRUE;TRUE;TRUE;TRUE;FALSE;TRUE;FALSE;FALSE;FALSE;FALSE;TRUE;TRUE;
SATNOGS;2022-10-29 22:45:16;SAFE; 277887976; 1678; 1663; 1663; 8; 2449; 1793; 730; 1090; 3223; 2103; 652; 494; 1253; 820; 1746; 1621; 1669; 1653; 1624; 1636; 1736; 1627; 1837; 1705; 1565; 1572; 2294; 2348; 1703; 1241; 1453; 1667; 2060; 1942; 1797; 1194; 1897; 1704; 1677; 1731; 1685; 1704; 1690; 1680; 5; 5; 5; 5; 5; 5; 1698; 1701; 1652; 1545; 1646; 1667; 1626; 1317;BATT_WBH;TRUE;TRUE;TRUE;TRUE;TRUE;TRUE;TRUE;TRUE;TRUE;TRUE;TRUE;TRUE;TRUE;TRUE;FALSE;TRUE;FALSE;FALSE;FALSE;FALSE;TRUE;TRUE;
SATNOGS;2022-10-29 22:45:16;SAFE; 277887976; 1678; 1663; 1663; 8; 2449; 1793; 730; 1090; 3223; 2103; 652; 494; 1253; 820; 1746; 1621; 1669; 1653; 1624; 1636; 1736; 1627; 1837; 1705; 1565; 1572; 2294; 2348; 1703; 1241; 1453; 1667; 2060; 1942; 1797; 1194; 1897; 1704; 1677; 1731; 1685; 1704; 1690; 1680; 5; 5; 5; 5; 5; 5; 1698; 1701; 1652; 1545; 1646; 1667; 1626; 1317;BATT_WBH;TRUE;TRUE;TRUE;TRUE;TRUE;TRUE;TRUE;TRUE;TRUE;TRUE;TRUE;TRUE;TRUE;TRUE;FALSE;TRUE;FALSE;FALSE;FALSE;FALSE;TRUE;TRUE;
SATNOGS;2022-10-29 21:14:14;SAFE; 277865664; 1629; 1618; 1617; 7; 2566; 1792; 730; 1090; 3223; 2100; 671; 510; 1235; 903; 1752; 1603; 1660; 1639; 1609; 1617; 1736; 1625; 1840; 1711; 1569; 1571; 2257; 2306; 1697; 1209; 1192; 1683; 2103; 2175; 1822; 1163; 2189; 1703; 1670; 1730; 1678; 1698; 1682; 1674; 6; 5; 5; 4; 6; 5; 1687; 1693; 1649; 1530; 1644; 1653; 1625; 1307;BATT_WBH;TRUE;TRUE;TRUE;TRUE;TRUE;TRUE;TRUE;TRUE;TRUE;TRUE;TRUE;TRUE;TRUE;TRUE;FALSE;TRUE;FALSE;FALSE;FALSE;FALSE;TRUE;TRUE;
SATNOGS;2022-10-29 21:13:14;SAFE; 277865418; 1626; 1616; 1615; 8; 2567; 1788; 730; 1090; 3224; 2102; 666; 476; 1232; 689; 1753; 1606; 1662; 1642; 1612; 1620; 1736; 1627; 1841; 1710; 1568; 1572; 2261; 2313; 1699; 1224; 1173; 1659; 2103; 2154; 1803; 1174; 2162; 1699; 1671; 1729; 1679; 1699; 1683; 1674; 6; 5; 5; 5; 5; 5; 1689; 1693; 1649; 1533; 1645; 1656; 1624; 1311;BATT_WBH;TRUE;TRUE;TRUE;TRUE;TRUE;TRUE;TRUE;TRUE;TRUE;TRUE;TRUE;TRUE;TRUE;TRUE;FALSE;TRUE;FALSE;FALSE;FALSE;FALSE;TRUE;TRUE;
SATNOGS;2022-10-29 12:01:55;SAFE; 277730107; 1625; 1616; 1614; 8; 2527; 1792; 730; 1091; 3223; 2102; 466; 506; 1215; 775; 1752; 1604; 1712; 1709; 1615; 1646; 1788; 3025; 1867; 1721; 1618; 1573; 2227; 2279; 1694; 1711; 1779; 1678; 1540; 1625; 1697; 1730; 1566; 1713; 1673; 1730; 1675; 1695; 1690; 1676; 52; 1386; 137; 5; 111; 46; 1682; 1685; 1653; 1523; 1647; 1649; 1626; 1307;NONE;TRUE;TRUE;TRUE;TRUE;TRUE;TRUE;TRUE;TRUE;TRUE;TRUE;TRUE;TRUE;TRUE;TRUE;FALSE;TRUE;FALSE;FALSE;FALSE;FALSE;TRUE;TRUE;
SATNOGS;2022-10-29 12:01:55;SAFE; 277730107; 1625; 1616; 1614; 8; 2527; 1792; 730; 1091; 3223; 2102; 466; 506; 1215; 775; 1752; 1604; 1712; 1709; 1615; 1646; 1788; 3025; 1867; 1721; 1618; 1573; 2227; 2279; 1694; 1711; 1779; 1678; 1540; 1625; 1697; 1730; 1566; 1713; 1673; 1730; 1675; 1695; 1690; 1676; 52; 1386; 137; 5; 111; 46; 1682; 1685; 1653; 1523; 1647; 1649; 1626; 1307;NONE;TRUE;TRUE;TRUE;TRUE;TRUE;TRUE;TRUE;TRUE;TRUE;TRUE;TRUE;TRUE;TRUE;TRUE;FALSE;TRUE;FALSE;FALSE;FALSE;FALSE;TRUE;TRUE;
SATNOGS;2022-10-29 12:01:38;SAFE; 277730107; 1625; 1616; 1614; 8; 2527; 1792; 730; 1091; 3223; 2102; 466; 506; 1215; 775; 1752; 1604; 1712; 1709; 1615; 1646; 1788; 3025; 1867; 1721; 1618; 1573; 2227; 2279; 1694; 1711; 1779; 1678; 1540; 1625; 1697; 1730; 1566; 1713; 1673; 1730; 1675; 1695; 1690; 1676; 52; 1386; 137; 5; 111; 46; 1682; 1685; 1653; 1523; 1647; 1649; 1626; 1307;NONE;TRUE;TRUE;TRUE;TRUE;TRUE;TRUE;TRUE;TRUE;TRUE;TRUE;TRUE;TRUE;TRUE;TRUE;FALSE;TRUE;FALSE;FALSE;FALSE;FALSE;TRUE;TRUE;
SATNOGS;2022-10-29 12:01:38;SAFE; 277730107; 1625; 1616; 1614; 8; 2527; 1792; 730; 1091; 3223; 2102; 466; 506; 1215; 775; 1752; 1604; 1712; 1709; 1615; 1646; 1788; 3025; 1867; 1721; 1618; 1573; 2227; 2279; 1694; 1711; 1779; 1678; 1540; 1625; 1697; 1730; 1566; 1713; 1673; 1730; 1675; 1695; 1690; 1676; 52; 1386; 137; 5; 111; 46; 1682; 1685; 1653; 1523; 1647; 1649; 1626; 1307;NONE;TRUE;TRUE;TRUE;TRUE;TRUE;TRUE;TRUE;TRUE;TRUE;TRUE;TRUE;TRUE;TRUE;TRUE;FALSE;TRUE;FALSE;FALSE;FALSE;FALSE;TRUE;TRUE;
SATNOGS;2022-10-29 12:01:35;SAFE; 277730107; 1625; 1616; 1614; 8; 2527; 1792; 730; 1091; 3223; 2102; 466; 506; 1215; 775; 1752; 1604; 1712; 1709; 1615; 1646; 1788; 3025; 1867; 1721; 1618; 1573; 2227; 2279; 1694; 1711; 1779; 1678; 1540; 1625; 1697; 1730; 1566; 1713; 1673; 1730; 1675; 1695; 1690; 1676; 52; 1386; 137; 5; 111; 46; 1682; 1685; 1653; 1523; 1647; 1649; 1626; 1307;NONE;TRUE;TRUE;TRUE;TRUE;TRUE;TRUE;TRUE;TRUE;TRUE;TRUE;TRUE;TRUE;TRUE;TRUE;FALSE;TRUE;FALSE;FALSE;FALSE;FALSE;TRUE;TRUE;
SATNOGS;2022-10-29 12:01:35;SAFE; 277730107; 1625; 1616; 1614; 8; 2527; 1792; 730; 1091; 3223; 2102; 466; 506; 1215; 775; 1752; 1604; 1712; 1709; 1615; 1646; 1788; 3025; 1867; 1721; 1618; 1573; 2227; 2279; 1694; 1711; 1779; 1678; 1540; 1625; 1697; 1730; 1566; 1713; 1673; 1730; 1675; 1695; 1690; 1676; 52; 1386; 137; 5; 111; 46; 1682; 1685; 1653; 1523; 1647; 1649; 1626; 1307;NONE;TRUE;TRUE;TRUE;TRUE;TRUE;TRUE;TRUE;TRUE;TRUE;TRUE;TRUE;TRUE;TRUE;TRUE;FALSE;TRUE;FALSE;FALSE;FALSE;FALSE;TRUE;TRUE;
SATNOGS;2022-10-29 12:01:18;SAFE; 277730107; 1625; 1616; 1614; 8; 2527; 1792; 730; 1091; 3223; 2102; 466; 506; 1215; 775; 1752; 1604; 1712; 1709; 1615; 1646; 1788; 3025; 1867; 1721; 1618; 1573; 2227; 2279; 1694; 1711; 1779; 1678; 1540; 1625; 1697; 1730; 1566; 1713; 1673; 1730; 1675; 1695; 1690; 1676; 52; 1386; 137; 5; 111; 46; 1682; 1685; 1653; 1523; 1647; 1649; 1626; 1307;NONE;TRUE;TRUE;TRUE;TRUE;TRUE;TRUE;TRUE;TRUE;TRUE;TRUE;TRUE;TRUE;TRUE;TRUE;FALSE;TRUE;FALSE;FALSE;FALSE;FALSE;TRUE;TRUE;
SATNOGS;2022-10-29 12:01:18;SAFE; 277730107; 1625; 1616; 1614; 8; 2527; 1792; 730; 1091; 3223; 2102; 466; 506; 1215; 775; 1752; 1604; 1712; 1709; 1615; 1646; 1788; 3025; 1867; 1721; 1618; 1573; 2227; 2279; 1694; 1711; 1779; 1678; 1540; 1625; 1697; 1730; 1566; 1713; 1673; 1730; 1675; 1695; 1690; 1676; 52; 1386; 137; 5; 111; 46; 1682; 1685; 1653; 1523; 1647; 1649; 1626; 1307;NONE;TRUE;TRUE;TRUE;TRUE;TRUE;TRUE;TRUE;TRUE;TRUE;TRUE;TRUE;TRUE;TRUE;TRUE;FALSE;TRUE;FALSE;FALSE;FALSE;FALSE;TRUE;TRUE;
SATNOGS;2022-10-29 12:01:16;SAFE; 277730107; 1625; 1616; 1614; 8; 2527; 1792; 730; 1091; 3223; 2102; 466; 506; 1215; 775; 1752; 1604; 1712; 1709; 1615; 1646; 1788; 3025; 1867; 1721; 1618; 1573; 2227; 2279; 1694; 1711; 1779; 1678; 1540; 1625; 1697; 1730; 1566; 1713; 1673; 1730; 1675; 1695; 1690; 1676; 52; 1386; 137; 5; 111; 46; 1682; 1685; 1653; 1523; 1647; 1649; 1626; 1307;NONE;TRUE;TRUE;TRUE;TRUE;TRUE;TRUE;TRUE;TRUE;TRUE;TRUE;TRUE;TRUE;TRUE;TRUE;FALSE;TRUE;FALSE;FALSE;FALSE;FALSE;TRUE;TRUE;
SATNOGS;2022-10-29 12:01:16;SAFE; 277730107; 1625; 1616; 1614; 8; 2527; 1792; 730; 1091; 3223; 2102; 466; 506; 1215; 775; 1752; 1604; 1712; 1709; 1615; 1646; 1788; 3025; 1867; 1721; 1618; 1573; 2227; 2279; 1694; 1711; 1779; 1678; 1540; 1625; 1697; 1730; 1566; 1713; 1673; 1730; 1675; 1695; 1690; 1676; 52; 1386; 137; 5; 111; 46; 1682; 1685; 1653; 1523; 1647; 1649; 1626; 1307;NONE;TRUE;TRUE;TRUE;TRUE;TRUE;TRUE;TRUE;TRUE;TRUE;TRUE;TRUE;TRUE;TRUE;TRUE;FALSE;TRUE;FALSE;FALSE;FALSE;FALSE;TRUE;TRUE;
SATNOGS;2022-10-29 12:00:58;SAFE; 277729862; 1624; 1615; 1612; 6; 2517; 1798; 730; 1090; 3224; 2102; 785; 480; 1250; 635; 1752; 1604; 1710; 1706; 1613; 1644; 1745; 1681; 3091; 1763; 1562; 1574; 2228; 2279; 1695; 1641; 1689; 1636; 1611; 1707; 1682; 1647; 1648; 1693; 1673; 1732; 1675; 1694; 1689; 1675; 6; 154; 1250; 5; 54; 553; 1682; 1687; 1653; 1523; 1648; 1648; 1626; 1306;NONE;TRUE;TRUE;TRUE;TRUE;TRUE;TRUE;TRUE;TRUE;TRUE;TRUE;TRUE;TRUE;TRUE;TRUE;FALSE;TRUE;FALSE;FALSE;FALSE;FALSE;TRUE;TRUE;
SATNOGS;2022-10-29 12:00:58;SAFE; 277729862; 1624; 1615; 1612; 6; 2517; 1798; 730; 1090; 3224; 2102; 785; 480; 1250; 635; 1752; 1604; 1710; 1706; 1613; 1644; 1745; 1681; 3091; 1763; 1562; 1574; 2228; 2279; 1695; 1641; 1689; 1636; 1611; 1707; 1682; 1647; 1648; 1693; 1673; 1732; 1675; 1694; 1689; 1675; 6; 154; 1250; 5; 54; 553; 1682; 1687; 1653; 1523; 1648; 1648; 1626; 1306;NONE;TRUE;TRUE;TRUE;TRUE;TRUE;TRUE;TRUE;TRUE;TRUE;TRUE;TRUE;TRUE;TRUE;TRUE;FALSE;TRUE;FALSE;FALSE;FALSE;FALSE;TRUE;TRUE;
SATNOGS;2022-10-29 11:59:34;SAFE; 277729616; 1624; 1614; 1611; 7; 2535; 1802; 729; 1091; 3222; 2101; 665; 502; 1227; 798; 1755; 1603; 1707; 1703; 1611; 1641; 1777; 2423; 2196; 1712; 1926; 1575; 2229; 2280; 1695; 1593; 1654; 1625; 1653; 1776; 1652; 1604; 1716; 1695; 1673; 1732; 1676; 1694; 1689; 1676; 17; 850; 334; 5; 876; 59; 1682; 1688; 1653; 1523; 1648; 1647; 1625; 1304;NONE;TRUE;TRUE;TRUE;TRUE;TRUE;TRUE;TRUE;TRUE;TRUE;TRUE;TRUE;TRUE;TRUE;TRUE;FALSE;TRUE;FALSE;FALSE;FALSE;FALSE;TRUE;TRUE;
SATNOGS;2022-10-29 11:59:14;SAFE; 277729616; 1624; 1614; 1611; 7; 2535; 1802; 729; 1091; 3222; 2101; 665; 502; 1227; 798; 1755; 1603; 1707; 1703; 1611; 1641; 1777; 2423; 2196; 1712; 1926; 1575; 2229; 2280; 1695; 1593; 1654; 1625; 1653; 1776; 1652; 1604; 1716; 1695; 1673; 1732; 1676; 1694; 1689; 1676; 17; 850; 334; 5; 876; 59; 1682; 1688; 1653; 1523; 1648; 1647; 1625; 1304;NONE;TRUE;TRUE;TRUE;TRUE;TRUE;TRUE;TRUE;TRUE;TRUE;TRUE;TRUE;TRUE;TRUE;TRUE;FALSE;TRUE;FALSE;FALSE;FALSE;FALSE;TRUE;TRUE;
SATNOGS;2022-10-29 11:58:54;SAFE; 277729371; 1621; 1613; 1611; 8; 2515; 1799; 729; 1091; 3223; 2102; 732; 503; 1234; 615; 1752; 1603; 1704; 1699; 1609; 1639; 1747; 2172; 2510; 1724; 1584; 1575; 2232; 2279; 1695; 1537; 1541; 1581; 1724; 1856; 1605; 1532; 1790; 1668; 1673; 1732; 1677; 1695; 1688; 1676; 6; 824; 406; 5; 76; 982; 1684; 1688; 1654; 1523; 1648; 1646; 1626; 1302;NONE;TRUE;TRUE;TRUE;TRUE;TRUE;TRUE;TRUE;TRUE;TRUE;TRUE;TRUE;TRUE;TRUE;TRUE;FALSE;TRUE;FALSE;FALSE;FALSE;FALSE;TRUE;TRUE;
SATNOGS;2022-10-29 11:58:34;SAFE; 277729371; 1621; 1613; 1611; 8; 2515; 1799; 729; 1091; 3223; 2102; 732; 503; 1234; 615; 1752; 1603; 1704; 1699; 1609; 1639; 1747; 2172; 2510; 1724; 1584; 1575; 2232; 2279; 1695; 1537; 1541; 1581; 1724; 1856; 1605; 1532; 1790; 1668; 1673; 1732; 1677; 1695; 1688; 1676; 6; 824; 406; 5; 76; 982; 1684; 1688; 1654; 1523; 1648; 1646; 1626; 1302;NONE;TRUE;TRUE;TRUE;TRUE;TRUE;TRUE;TRUE;TRUE;TRUE;TRUE;TRUE;TRUE;TRUE;TRUE;FALSE;TRUE;FALSE;FALSE;FALSE;FALSE;TRUE;TRUE;
SATNOGS;2022-10-29 11:58:14;SAFE; 277729371; 1621; 1613; 1611; 8; 2515; 1799; 729; 1091; 3223; 2102; 732; 503; 1234; 615; 1752; 1603; 1704; 1699; 1609; 1639; 1747; 2172; 2510; 1724; 1584; 1575; 2232; 2279; 1695; 1537; 1541; 1581; 1724; 1856; 1605; 1532; 1790; 1668; 1673; 1732; 1677; 1695; 1688; 1676; 6; 824; 406; 5; 76; 982; 1684; 1688; 1654; 1523; 1648; 1646; 1626; 1302;NONE;TRUE;TRUE;TRUE;TRUE;TRUE;TRUE;TRUE;TRUE;TRUE;TRUE;TRUE;TRUE;TRUE;TRUE;FALSE;TRUE;FALSE;FALSE;FALSE;FALSE;TRUE;TRUE;
SATNOGS;2022-10-29 11:57:54;SAFE; 277729126; 1621; 1612; 1610; 8; 2525; 1800; 729; 1090; 3223; 2101; 663; 499; 1243; 822; 1753; 1603; 1701; 1694; 1608; 1637; 1747; 1735; 2961; 1714; 1897; 1575; 2234; 2281; 1696; 1488; 1489; 1622; 1756; 1950; 1616; 1489; 1877; 1668; 1673; 1733; 1677; 1695; 1688; 1676; 6; 43; 1298; 5; 542; 63; 1683; 1689; 1655; 1523; 1648; 1647; 1626; 1300;NONE;TRUE;TRUE;TRUE;TRUE;TRUE;TRUE;TRUE;TRUE;TRUE;TRUE;TRUE;TRUE;TRUE;TRUE;FALSE;TRUE;FALSE;FALSE;FALSE;FALSE;TRUE;TRUE;
SATNOGS;2022-10-29 11:57:34;SAFE; 277729126; 1621; 1612; 1610; 8; 2525; 1800; 729; 1090; 3223; 2101; 663; 499; 1243; 822; 1753; 1603; 1701; 1694; 1608; 1637; 1747; 1735; 2961; 1714; 1897; 1575; 2234; 2281; 1696; 1488; 1489; 1622; 1756; 1950; 1616; 1489; 1877; 1668; 1673; 1733; 1677; 1695; 1688; 1676; 6; 43; 1298; 5; 542; 63; 1683; 1689; 1655; 1523; 1648; 1647; 1626; 1300;NONE;TRUE;TRUE;TRUE;TRUE;TRUE;TRUE;TRUE;TRUE;TRUE;TRUE;TRUE;TRUE;TRUE;TRUE;FALSE;TRUE;FALSE;FALSE;FALSE;FALSE;TRUE;TRUE;
SATNOGS;2022-10-28 21:31:54;SAFE; 277516867; 1673; 1667; 1660; 7; 2540; 1800; 730; 1090; 3223; 2101; 670; 484; 1258; 624; 1752; 1605; 1668; 1647; 1612; 1621; 1742; 1629; 1851; 1715; 1567; 1576; 2281; 2334; 1703; 1231; 1143; 1614; 2101; 2195; 1738; 1172; 2205; 1655; 1676; 1734; 1684; 1704; 1689; 1678; 5; 5; 5; 4; 6; 5; 1695; 1698; 1653; 1531; 1648; 1659; 1627; 1295;BATT_WBH;TRUE;TRUE;TRUE;TRUE;TRUE;TRUE;TRUE;TRUE;TRUE;TRUE;TRUE;TRUE;TRUE;TRUE;FALSE;TRUE;FALSE;FALSE;FALSE;FALSE;TRUE;TRUE;
SATNOGS;2022-10-28 21:31:34;SAFE; 277516867; 1673; 1667; 1660; 7; 2540; 1800; 730; 1090; 3223; 2101; 670; 484; 1258; 624; 1752; 1605; 1668; 1647; 1612; 1621; 1742; 1629; 1851; 1715; 1567; 1576; 2281; 2334; 1703; 1231; 1143; 1614; 2101; 2195; 1738; 1172; 2205; 1655; 1676; 1734; 1684; 1704; 1689; 1678; 5; 5; 5; 4; 6; 5; 1695; 1698; 1653; 1531; 1648; 1659; 1627; 1295;BATT_WBH;TRUE;TRUE;TRUE;TRUE;TRUE;TRUE;TRUE;TRUE;TRUE;TRUE;TRUE;TRUE;TRUE;TRUE;FALSE;TRUE;FALSE;FALSE;FALSE;FALSE;TRUE;TRUE;
SATNOGS;2022-10-28 21:31:14;SAFE; 277516867; 1673; 1667; 1660; 7; 2540; 1800; 730; 1090; 3223; 2101; 670; 484; 1258; 624; 1752; 1605; 1668; 1647; 1612; 1621; 1742; 1629; 1851; 1715; 1567; 1576; 2281; 2334; 1703; 1231; 1143; 1614; 2101; 2195; 1738; 1172; 2205; 1655; 1676; 1734; 1684; 1704; 1689; 1678; 5; 5; 5; 4; 6; 5; 1695; 1698; 1653; 1531; 1648; 1659; 1627; 1295;BATT_WBH;TRUE;TRUE;TRUE;TRUE;TRUE;TRUE;TRUE;TRUE;TRUE;TRUE;TRUE;TRUE;TRUE;TRUE;FALSE;TRUE;FALSE;FALSE;FALSE;FALSE;TRUE;TRUE;
SATNOGS;2022-10-28 21:30:34;SAFE; 277516622; 1671; 1666; 1660; 8; 2540; 1795; 730; 1091; 3219; 2103; 632; 504; 1229; 651; 1751; 1607; 1669; 1650; 1615; 1623; 1745; 1629; 1849; 1709; 1567; 1577; 2287; 2342; 1704; 1238; 1188; 1628; 2069; 2199; 1703; 1192; 2201; 1648; 1676; 1734; 1684; 1705; 1689; 1679; 5; 5; 5; 5; 5; 5; 1695; 1700; 1654; 1533; 1648; 1660; 1629; 1298;BATT_WBH;TRUE;TRUE;TRUE;TRUE;TRUE;TRUE;TRUE;TRUE;TRUE;TRUE;TRUE;TRUE;TRUE;TRUE;FALSE;TRUE;FALSE;FALSE;FALSE;FALSE;TRUE;TRUE;
SATNOGS;2022-10-28 21:29:54;SAFE; 277516377; 1670; 1666; 1658; 8; 2542; 1798; 730; 1090; 3225; 2103; 813; 509; 1235; 696; 1752; 1610; 1671; 1654; 1616; 1625; 1749; 1629; 1850; 1715; 1571; 1577; 2290; 2348; 1705; 1243; 1198; 1591; 2070; 2185; 1699; 1182; 2161; 1627; 1678; 1735; 1684; 1704; 1691; 1680; 6; 5; 5; 5; 6; 6; 1697; 1701; 1653; 1535; 1647; 1663; 1627; 1301;BATT_WBH;TRUE;TRUE;TRUE;TRUE;TRUE;TRUE;TRUE;TRUE;TRUE;TRUE;TRUE;TRUE;TRUE;TRUE;FALSE;TRUE;FALSE;FALSE;FALSE;FALSE;TRUE;TRUE;
SATNOGS;2022-10-28 12:19:39;SAFE; 277381594; 1663; 1643; 1646; 8; 2521; 1795; 730; 1091; 3218; 2101; 473; 479; 1221; 695; 1752; 1608; 1724; 1717; 1612; 1642; 1771; 2696; 1854; 1860; 1627; 1579; 2243; 2298; 1699; 1925; 1865; 1641; 1331; 1601; 1606; 1946; 1547; 1681; 1677; 1734; 1679; 1699; 1695; 1678; 34; 1396; 80; 5; 130; 82; 1686; 1689; 1655; 1523; 1649; 1652; 1627; 1295;NONE;TRUE;TRUE;TRUE;TRUE;TRUE;TRUE;TRUE;TRUE;TRUE;TRUE;TRUE;TRUE;TRUE;TRUE;FALSE;TRUE;FALSE;FALSE;FALSE;FALSE;TRUE;TRUE;
SATNOGS;2022-10-28 12:19:39;SAFE; 277381594; 1663; 1643; 1646; 8; 2521; 1795; 730; 1091; 3218; 2101; 473; 479; 1221; 695; 1752; 1608; 1724; 1717; 1612; 1642; 1771; 2696; 1854; 1860; 1627; 1579; 2243; 2298; 1699; 1925; 1865; 1641; 1331; 1601; 1606; 1946; 1547; 1681; 1677; 1734; 1679; 1699; 1695; 1678; 34; 1396; 80; 5; 130; 82; 1686; 1689; 1655; 1523; 1649; 1652; 1627; 1295;NONE;TRUE;TRUE;TRUE;TRUE;TRUE;TRUE;TRUE;TRUE;TRUE;TRUE;TRUE;TRUE;TRUE;TRUE;FALSE;TRUE;FALSE;FALSE;FALSE;FALSE;TRUE;TRUE;
SATNOGS;2022-10-28 12:19:36;SAFE; 277381594; 1663; 1643; 1646; 8; 2521; 1795; 730; 1091; 3218; 2101; 473; 479; 1221; 695; 1752; 1608; 1724; 1717; 1612; 1642; 1771; 2696; 1854; 1860; 1627; 1579; 2243; 2298; 1699; 1925; 1865; 1641; 1331; 1601; 1606; 1946; 1547; 1681; 1677; 1734; 1679; 1699; 1695; 1678; 34; 1396; 80; 5; 130; 82; 1686; 1689; 1655; 1523; 1649; 1652; 1627; 1295;NONE;TRUE;TRUE;TRUE;TRUE;TRUE;TRUE;TRUE;TRUE;TRUE;TRUE;TRUE;TRUE;TRUE;TRUE;FALSE;TRUE;FALSE;FALSE;FALSE;FALSE;TRUE;TRUE;
SATNOGS;2022-10-28 12:19:36;SAFE; 277381594; 1663; 1643; 1646; 8; 2521; 1795; 730; 1091; 3218; 2101; 473; 479; 1221; 695; 1752; 1608; 1724; 1717; 1612; 1642; 1771; 2696; 1854; 1860; 1627; 1579; 2243; 2298; 1699; 1925; 1865; 1641; 1331; 1601; 1606; 1946; 1547; 1681; 1677; 1734; 1679; 1699; 1695; 1678; 34; 1396; 80; 5; 130; 82; 1686; 1689; 1655; 1523; 1649; 1652; 1627; 1295;NONE;TRUE;TRUE;TRUE;TRUE;TRUE;TRUE;TRUE;TRUE;TRUE;TRUE;TRUE;TRUE;TRUE;TRUE;FALSE;TRUE;FALSE;FALSE;FALSE;FALSE;TRUE;TRUE;
SATNOGS;2022-10-28 12:19:19;SAFE; 277381594; 1663; 1643; 1646; 8; 2521; 1795; 730; 1091; 3218; 2101; 473; 479; 1221; 695; 1752; 1608; 1724; 1717; 1612; 1642; 1771; 2696; 1854; 1860; 1627; 1579; 2243; 2298; 1699; 1925; 1865; 1641; 1331; 1601; 1606; 1946; 1547; 1681; 1677; 1734; 1679; 1699; 1695; 1678; 34; 1396; 80; 5; 130; 82; 1686; 1689; 1655; 1523; 1649; 1652; 1627; 1295;NONE;TRUE;TRUE;TRUE;TRUE;TRUE;TRUE;TRUE;TRUE;TRUE;TRUE;TRUE;TRUE;TRUE;TRUE;FALSE;TRUE;FALSE;FALSE;FALSE;FALSE;TRUE;TRUE;
SATNOGS;2022-10-28 12:19:19;SAFE; 277381594; 1663; 1643; 1646; 8; 2521; 1795; 730; 1091; 3218; 2101; 473; 479; 1221; 695; 1752; 1608; 1724; 1717; 1612; 1642; 1771; 2696; 1854; 1860; 1627; 1579; 2243; 2298; 1699; 1925; 1865; 1641; 1331; 1601; 1606; 1946; 1547; 1681; 1677; 1734; 1679; 1699; 1695; 1678; 34; 1396; 80; 5; 130; 82; 1686; 1689; 1655; 1523; 1649; 1652; 1627; 1295;NONE;TRUE;TRUE;TRUE;TRUE;TRUE;TRUE;TRUE;TRUE;TRUE;TRUE;TRUE;TRUE;TRUE;TRUE;FALSE;TRUE;FALSE;FALSE;FALSE;FALSE;TRUE;TRUE;
SATNOGS;2022-10-28 12:19:17;SAFE; 277381594; 1663; 1643; 1646; 8; 2521; 1795; 730; 1091; 3218; 2101; 473; 479; 1221; 695; 1752; 1608; 1724; 1717; 1612; 1642; 1771; 2696; 1854; 1860; 1627; 1579; 2243; 2298; 1699; 1925; 1865; 1641; 1331; 1601; 1606; 1946; 1547; 1681; 1677; 1734; 1679; 1699; 1695; 1678; 34; 1396; 80; 5; 130; 82; 1686; 1689; 1655; 1523; 1649; 1652; 1627; 1295;NONE;TRUE;TRUE;TRUE;TRUE;TRUE;TRUE;TRUE;TRUE;TRUE;TRUE;TRUE;TRUE;TRUE;TRUE;FALSE;TRUE;FALSE;FALSE;FALSE;FALSE;TRUE;TRUE;
SATNOGS;2022-10-28 12:19:17;SAFE; 277381594; 1663; 1643; 1646; 8; 2521; 1795; 730; 1091; 3218; 2101; 473; 479; 1221; 695; 1752; 1608; 1724; 1717; 1612; 1642; 1771; 2696; 1854; 1860; 1627; 1579; 2243; 2298; 1699; 1925; 1865; 1641; 1331; 1601; 1606; 1946; 1547; 1681; 1677; 1734; 1679; 1699; 1695; 1678; 34; 1396; 80; 5; 130; 82; 1686; 1689; 1655; 1523; 1649; 1652; 1627; 1295;NONE;TRUE;TRUE;TRUE;TRUE;TRUE;TRUE;TRUE;TRUE;TRUE;TRUE;TRUE;TRUE;TRUE;TRUE;FALSE;TRUE;FALSE;FALSE;FALSE;FALSE;TRUE;TRUE;
SATNOGS;2022-10-28 12:18:59;SAFE; 277381349; 1666; 1649; 1649; 8; 2531; 1806; 730; 1090; 3219; 2103; 665; 505; 1248; 695; 1753; 1607; 1721; 1714; 1609; 1643; 1758; 2144; 2751; 1801; 1571; 1578; 2243; 2298; 1700; 1856; 1827; 1629; 1402; 1641; 1584; 1877; 1580; 1659; 1678; 1735; 1679; 1699; 1694; 1678; 6; 933; 1033; 5; 13; 137; 1687; 1691; 1655; 1523; 1650; 1652; 1628; 1294;NONE;TRUE;TRUE;TRUE;TRUE;TRUE;TRUE;TRUE;TRUE;TRUE;TRUE;TRUE;TRUE;TRUE;TRUE;FALSE;TRUE;FALSE;FALSE;FALSE;FALSE;TRUE;TRUE;
SATNOGS;2022-10-28 12:18:59;SAFE; 277381349; 1666; 1649; 1649; 8; 2531; 1806; 730; 1090; 3219; 2103; 665; 505; 1248; 695; 1753; 1607; 1721; 1714; 1609; 1643; 1758; 2144; 2751; 1801; 1571; 1578; 2243; 2298; 1700; 1856; 1827; 1629; 1402; 1641; 1584; 1877; 1580; 1659; 1678; 1735; 1679; 1699; 1694; 1678; 6; 933; 1033; 5; 13; 137; 1687; 1691; 1655; 1523; 1650; 1652; 1628; 1294;NONE;TRUE;TRUE;TRUE;TRUE;TRUE;TRUE;TRUE;TRUE;TRUE;TRUE;TRUE;TRUE;TRUE;TRUE;FALSE;TRUE;FALSE;FALSE;FALSE;FALSE;TRUE;TRUE;
SATNOGS;2022-10-28 12:18:56;SAFE; 277381349; 1666; 1649; 1649; 8; 2531; 1806; 730; 1090; 3219; 2103; 665; 505; 1248; 695; 1753; 1607; 1721; 1714; 1609; 1643; 1758; 2144; 2751; 1801; 1571; 1578; 2243; 2298; 1700; 1856; 1827; 1629; 1402; 1641; 1584; 1877; 1580; 1659; 1678; 1735; 1679; 1699; 1694; 1678; 6; 933; 1033; 5; 13; 137; 1687; 1691; 1655; 1523; 1650; 1652; 1628; 1294;NONE;TRUE;TRUE;TRUE;TRUE;TRUE;TRUE;TRUE;TRUE;TRUE;TRUE;TRUE;TRUE;TRUE;TRUE;FALSE;TRUE;FALSE;FALSE;FALSE;FALSE;TRUE;TRUE;
SATNOGS;2022-10-28 12:18:56;SAFE; 277381349; 1666; 1649; 1649; 8; 2531; 1806; 730; 1090; 3219; 2103; 665; 505; 1248; 695; 1753; 1607; 1721; 1714; 1609; 1643; 1758; 2144; 2751; 1801; 1571; 1578; 2243; 2298; 1700; 1856; 1827; 1629; 1402; 1641; 1584; 1877; 1580; 1659; 1678; 1735; 1679; 1699; 1694; 1678; 6; 933; 1033; 5; 13; 137; 1687; 1691; 1655; 1523; 1650; 1652; 1628; 1294;NONE;TRUE;TRUE;TRUE;TRUE;TRUE;TRUE;TRUE;TRUE;TRUE;TRUE;TRUE;TRUE;TRUE;TRUE;FALSE;TRUE;FALSE;FALSE;FALSE;FALSE;TRUE;TRUE;
SATNOGS;2022-10-28 12:18:39;SAFE; 277381349; 1666; 1649; 1649; 8; 2531; 1806; 730; 1090; 3219; 2103; 665; 505; 1248; 695; 1753; 1607; 1721; 1714; 1609; 1643; 1758; 2144; 2751; 1801; 1571; 1578; 2243; 2298; 1700; 1856; 1827; 1629; 1402; 1641; 1584; 1877; 1580; 1659; 1678; 1735; 1679; 1699; 1694; 1678; 6; 933; 1033; 5; 13; 137; 1687; 1691; 1655; 1523; 1650; 1652; 1628; 1294;NONE;TRUE;TRUE;TRUE;TRUE;TRUE;TRUE;TRUE;TRUE;TRUE;TRUE;TRUE;TRUE;TRUE;TRUE;FALSE;TRUE;FALSE;FALSE;FALSE;FALSE;TRUE;TRUE;
SATNOGS;2022-10-28 12:18:39;SAFE; 277381349; 1666; 1649; 1649; 8; 2531; 1806; 730; 1090; 3219; 2103; 665; 505; 1248; 695; 1753; 1607; 1721; 1714; 1609; 1643; 1758; 2144; 2751; 1801; 1571; 1578; 2243; 2298; 1700; 1856; 1827; 1629; 1402; 1641; 1584; 1877; 1580; 1659; 1678; 1735; 1679; 1699; 1694; 1678; 6; 933; 1033; 5; 13; 137; 1687; 1691; 1655; 1523; 1650; 1652; 1628; 1294;NONE;TRUE;TRUE;TRUE;TRUE;TRUE;TRUE;TRUE;TRUE;TRUE;TRUE;TRUE;TRUE;TRUE;TRUE;FALSE;TRUE;FALSE;FALSE;FALSE;FALSE;TRUE;TRUE;
SATNOGS;2022-10-28 12:18:36;SAFE; 277381349; 1666; 1649; 1649; 8; 2531; 1806; 730; 1090; 3219; 2103; 665; 505; 1248; 695; 1753; 1607; 1721; 1714; 1609; 1643; 1758; 2144; 2751; 1801; 1571; 1578; 2243; 2298; 1700; 1856; 1827; 1629; 1402; 1641; 1584; 1877; 1580; 1659; 1678; 1735; 1679; 1699; 1694; 1678; 6; 933; 1033; 5; 13; 137; 1687; 1691; 1655; 1523; 1650; 1652; 1628; 1294;NONE;TRUE;TRUE;TRUE;TRUE;TRUE;TRUE;TRUE;TRUE;TRUE;TRUE;TRUE;TRUE;TRUE;TRUE;FALSE;TRUE;FALSE;FALSE;FALSE;FALSE;TRUE;TRUE;
SATNOGS;2022-10-28 12:18:36;SAFE; 277381349; 1666; 1649; 1649; 8; 2531; 1806; 730; 1090; 3219; 2103; 665; 505; 1248; 695; 1753; 1607; 1721; 1714; 1609; 1643; 1758; 2144; 2751; 1801; 1571; 1578; 2243; 2298; 1700; 1856; 1827; 1629; 1402; 1641; 1584; 1877; 1580; 1659; 1678; 1735; 1679; 1699; 1694; 1678; 6; 933; 1033; 5; 13; 137; 1687; 1691; 1655; 1523; 1650; 1652; 1628; 1294;NONE;TRUE;TRUE;TRUE;TRUE;TRUE;TRUE;TRUE;TRUE;TRUE;TRUE;TRUE;TRUE;TRUE;TRUE;FALSE;TRUE;FALSE;FALSE;FALSE;FALSE;TRUE;TRUE;
SATNOGS;2022-10-28 12:18:19;SAFE; 277381349; 1666; 1649; 1649; 8; 2531; 1806; 730; 1090; 3219; 2103; 665; 505; 1248; 695; 1753; 1607; 1721; 1714; 1609; 1643; 1758; 2144; 2751; 1801; 1571; 1578; 2243; 2298; 1700; 1856; 1827; 1629; 1402; 1641; 1584; 1877; 1580; 1659; 1678; 1735; 1679; 1699; 1694; 1678; 6; 933; 1033; 5; 13; 137; 1687; 1691; 1655; 1523; 1650; 1652; 1628; 1294;NONE;TRUE;TRUE;TRUE;TRUE;TRUE;TRUE;TRUE;TRUE;TRUE;TRUE;TRUE;TRUE;TRUE;TRUE;FALSE;TRUE;FALSE;FALSE;FALSE;FALSE;TRUE;TRUE;
SATNOGS;2022-10-28 12:18:19;SAFE; 277381349; 1666; 1649; 1649; 8; 2531; 1806; 730; 1090; 3219; 2103; 665; 505; 1248; 695; 1753; 1607; 1721; 1714; 1609; 1643; 1758; 2144; 2751; 1801; 1571; 1578; 2243; 2298; 1700; 1856; 1827; 1629; 1402; 1641; 1584; 1877; 1580; 1659; 1678; 1735; 1679; 1699; 1694; 1678; 6; 933; 1033; 5; 13; 137; 1687; 1691; 1655; 1523; 1650; 1652; 1628; 1294;NONE;TRUE;TRUE;TRUE;TRUE;TRUE;TRUE;TRUE;TRUE;TRUE;TRUE;TRUE;TRUE;TRUE;TRUE;FALSE;TRUE;FALSE;FALSE;FALSE;FALSE;TRUE;TRUE;
SATNOGS;2022-10-28 12:18:17;SAFE; 277381349; 1666; 1649; 1649; 8; 2531; 1806; 730; 1090; 3219; 2103; 665; 505; 1248; 695; 1753; 1607; 1721; 1714; 1609; 1643; 1758; 2144; 2751; 1801; 1571; 1578; 2243; 2298; 1700; 1856; 1827; 1629; 1402; 1641; 1584; 1877; 1580; 1659; 1678; 1735; 1679; 1699; 1694; 1678; 6; 933; 1033; 5; 13; 137; 1687; 1691; 1655; 1523; 1650; 1652; 1628; 1294;NONE;TRUE;TRUE;TRUE;TRUE;TRUE;TRUE;TRUE;TRUE;TRUE;TRUE;TRUE;TRUE;TRUE;TRUE;FALSE;TRUE;FALSE;FALSE;FALSE;FALSE;TRUE;TRUE;
SATNOGS;2022-10-28 12:18:17;SAFE; 277381349; 1666; 1649; 1649; 8; 2531; 1806; 730; 1090; 3219; 2103; 665; 505; 1248; 695; 1753; 1607; 1721; 1714; 1609; 1643; 1758; 2144; 2751; 1801; 1571; 1578; 2243; 2298; 1700; 1856; 1827; 1629; 1402; 1641; 1584; 1877; 1580; 1659; 1678; 1735; 1679; 1699; 1694; 1678; 6; 933; 1033; 5; 13; 137; 1687; 1691; 1655; 1523; 1650; 1652; 1628; 1294;NONE;TRUE;TRUE;TRUE;TRUE;TRUE;TRUE;TRUE;TRUE;TRUE;TRUE;TRUE;TRUE;TRUE;TRUE;FALSE;TRUE;FALSE;FALSE;FALSE;FALSE;TRUE;TRUE;
SATNOGS;2022-10-28 12:17:56;SAFE; 277381104; 1669; 1653; 1653; 8; 2531; 1801; 729; 1091; 3219; 2100; 583; 482; 1216; 681; 1754; 1606; 1719; 1711; 1609; 1639; 1777; 2674; 1875; 1860; 1766; 1578; 2245; 2297; 1699; 1801; 1780; 1663; 1452; 1649; 1623; 1824; 1588; 1685; 1677; 1736; 1679; 1700; 1694; 1679; 22; 1325; 157; 5; 218; 54; 1687; 1692; 1656; 1522; 1650; 1651; 1628; 1292;NONE;TRUE;TRUE;TRUE;TRUE;TRUE;TRUE;TRUE;TRUE;TRUE;TRUE;TRUE;TRUE;TRUE;TRUE;FALSE;TRUE;FALSE;FALSE;FALSE;FALSE;TRUE;TRUE;
SATNOGS;2022-10-28 12:17:56;SAFE; 277381104; 1669; 1653; 1653; 8; 2531; 1801; 729; 1091; 3219; 2100; 583; 482; 1216; 681; 1754; 1606; 1719; 1711; 1609; 1639; 1777; 2674; 1875; 1860; 1766; 1578; 2245; 2297; 1699; 1801; 1780; 1663; 1452; 1649; 1623; 1824; 1588; 1685; 1677; 1736; 1679; 1700; 1694; 1679; 22; 1325; 157; 5; 218; 54; 1687; 1692; 1656; 1522; 1650; 1651; 1628; 1292;NONE;TRUE;TRUE;TRUE;TRUE;TRUE;TRUE;TRUE;TRUE;TRUE;TRUE;TRUE;TRUE;TRUE;TRUE;FALSE;TRUE;FALSE;FALSE;FALSE;FALSE;TRUE;TRUE;
SATNOGS;2022-10-28 12:16:34;SAFE; 277380859; 1671; 1658; 1656; 8; 2527; 1798; 730; 1090; 3218; 2102; 543; 472; 1248; 696; 1753; 1606; 1716; 1707; 1608; 1637; 1753; 2427; 2348; 1816; 1576; 1580; 2248; 2299; 1700; 1716; 1718; 1661; 1536; 1674; 1653; 1730; 1610; 1690; 1677; 1736; 1680; 1699; 1693; 1678; 6; 1186; 187; 22; 75; 665; 1687; 1692; 1656; 1522; 1650; 1650; 1628; 1291;NONE;TRUE;TRUE;TRUE;TRUE;TRUE;TRUE;TRUE;TRUE;TRUE;TRUE;TRUE;TRUE;TRUE;TRUE;FALSE;TRUE;FALSE;FALSE;FALSE;FALSE;TRUE;TRUE;
SATNOGS;2022-10-28 12:16:14;SAFE; 277380859; 1671; 1658; 1656; 8; 2527; 1798; 730; 1090; 3218; 2102; 543; 472; 1248; 696; 1753; 1606; 1716; 1707; 1608; 1637; 1753; 2427; 2348; 1816; 1576; 1580; 2248; 2299; 1700; 1716; 1718; 1661; 1536; 1674; 1653; 1730; 1610; 1690; 1677; 1736; 1680; 1699; 1693; 1678; 6; 1186; 187; 22; 75; 665; 1687; 1692; 1656; 1522; 1650; 1650; 1628; 1291;NONE;TRUE;TRUE;TRUE;TRUE;TRUE;TRUE;TRUE;TRUE;TRUE;TRUE;TRUE;TRUE;TRUE;TRUE;FALSE;TRUE;FALSE;FALSE;FALSE;FALSE;TRUE;TRUE;
SATNOGS;2022-10-28 12:15:14;SAFE; 277380614; 1674; 1662; 1660; 8; 2527; 1798; 730; 1091; 3222; 2103; 652; 480; 1239; 626; 1753; 1605; 1712; 1703; 1607; 1635; 1760; 2283; 2357; 1713; 1899; 1580; 2251; 2299; 1699; 1663; 1729; 1691; 1573; 1706; 1701; 1681; 1645; 1716; 1677; 1737; 1680; 1699; 1693; 1678; 6; 884; 672; 5; 612; 74; 1687; 1693; 1656; 1522; 1650; 1649; 1629; 1290;NONE;TRUE;TRUE;TRUE;TRUE;TRUE;TRUE;TRUE;TRUE;TRUE;TRUE;TRUE;TRUE;TRUE;TRUE;FALSE;TRUE;FALSE;FALSE;FALSE;FALSE;TRUE;TRUE;
SATNOGS;2022-10-28 12:14:54;SAFE; 277380369; 1677; 1666; 1662; 8; 2518; 1799; 730; 1090; 3221; 2104; 736; 483; 1235; 656; 1752; 1604; 1710; 1700; 1606; 1633; 1750; 2862; 2025; 1723; 1586; 1581; 2253; 2301; 1700; 1595; 1671; 1624; 1654; 1756; 1668; 1599; 1691; 1711; 1677; 1737; 1681; 1700; 1692; 1679; 5; 1382; 42; 4; 68; 278; 1689; 1694; 1656; 1523; 1651; 1650; 1629; 1289;NONE;TRUE;TRUE;TRUE;TRUE;TRUE;TRUE;TRUE;TRUE;TRUE;TRUE;TRUE;TRUE;TRUE;TRUE;FALSE;TRUE;FALSE;FALSE;FALSE;FALSE;TRUE;TRUE;
